name	pos	cost
Andrew Luck	QB	10200
Aaron Rodgers	QB	10100
Tom Brady	QB	9500
Calvin Johnson	WR	9000
Antonio Brown	WR	9000
Jordy Nelson	WR	8900
Jeremy Maclin	WR	8700
Randall Cobb	WR	8700
Matthew Stafford	QB	8600
Le'Veon Bell	RB	8600
T.Y. Hilton	WR	8600
Philip Rivers	QB	8500
Golden Tate	WR	8300
Ben Roethlisberger	QB	8300
Eddie Lacy	RB	8200
Andre Ellington	RB	8100
Rob Gronkowski	TE	8100
LeSean McCoy	RB	7700
Carson PalmerIR	QB	7600
Ahmad Bradshaw	RB	7500
Martavis Bryant	WR	7000
Mark Sanchez	QB	6900
Brandon LaFell	WR	6900
Reggie Wayne	WR	6900
Julian Edelman	WR	6900
Antonio Gates	TE	6700
Derek Carr	QB	6600
Larry Fitzgerald	WR	6600
Joique Bell	RB	6500
Shane Vereen	RB	6500
Keenan Allen	WR	6400
Charlie Whitehurst	QB	6400
Kendall Wright	WR	6400
Andre Holmes	WR	6300
Theo Riddick	RB	6300
Branden Oliver	RB	6300
Michael Floyd	WR	6300
Reggie BushNA	RB	6300
John Brown	WR	6300
Ryan Mathews	RB	6200
Darren Sproles	RB	6100
Darren McFadden	RB	6100
Dwayne Allen	TE	6100
James Starks	RB	6100
Zach Mettenberger	QB	6000
Jake Locker	QB	6000
Drew Stanton	QB	5900
Chris Polk	RB	5900
Mychal Rivera	TE	5800
Jonas Gray	RB	5800
Stepfan Taylor	RB	5800
Eddie Royal	WR	5700
Donald Brown	RB	5700
Donte Moncrief	WR	5700
Trent Richardson	RB	5700
Delanie Walker	TE	5600
Markus Wheaton	WR	5600
Jordan Matthews	WR	5500
Malcom Floyd	WR	5400
Arizona Cardinals	D	5400
San Diego Chargers	D	5300
Bishop Sankey	RB	5300
Stephen Gostkowski	K	5300
Pittsburgh Steelers	D	5300
Justin Hunter	WR	5300
James Jones	WR	5300
Detroit Lions	D	5200
Tim Wright	TE	5200
Riley Cooper	WR	5200
Davante Adams	WR	5200
Heath Miller	TE	5100
Zach Ertz	TE	5100
Corey Fuller	WR	5100
Brice Butler	WR	5100
Bruce Gradkowski	QB	5000
Matt Schaub	QB	5000
Kellen Clemens	QB	5000
Kellen MooreNA	QB	5000
Jimmy Garoppolo	QB	5000
New England Patriots	D	5000
Scott TolzienNA	QB	5000
Matt Hasselbeck	QB	5000
Coby Fleener	TE	5000
Matt Flynn	QB	5000
Brandon BostickNA	TE	5000
Nate Washington	WR	5000
Landry Jones	QB	5000
Matt McGloinNA	QB	5000
Matt Barkley	QB	5000
Dan Orlovsky	QB	5000
Logan Thomas	QB	5000
Indianapolis Colts	D	5000
Cody Parkey	K	4900
Marion Grice	RB	4900
Matt Prater	K	4900
Leon Washington	RB	4900
Adam Vinatieri	K	4900
Hakeem Nicks	WR	4800
Mason Crosby	K	4800
Dexter McCluster	RB	4800
Lance Moore	WR	4800
Chandler Catanzaro	K	4800
Eric Ebron	TE	4800
Rod StreaterIR	WR	4800
John Carlson	TE	4800
Shaun Suisham	K	4800
Danny Amendola	WR	4800
Green Bay Packers	D	4800
Derek Hagan	WR	4800
Josh Huff	WR	4800
Andrew Quarless	TE	4800
Maurice Jones-Drew	RB	4700
Jackie Battle	RB	4700
Shonn Greene	RB	4700
Ted Ginn Jr.	WR	4700
Michael Palmer	TE	4700
Griff Whalen	WR	4700
Aaron Dobson	WR	4700
Philadelphia Eagles	D	4700
Sebastian Janikowski	K	4700
Brandon PettigrewNA	TE	4700
John Phillips	TE	4700
Will Johnson	RB	4700
Rob Housler	TE	4700
Kenbrell Thompkins	WR	4700
Ladarius Green	TE	4700
Jed Collins	RB	4600
Jarrett Boykin	WR	4600
Robert Hughes	RB	4600
Marcel Reece	RB	4600
Ronnie BrownNA	RB	4600
LeGarrette Blount	RB	4600
Troy Niklas	TE	4500
Trey Burton	TE	4500
Damien Thigpen	RB	4500
Da'Rick Rogers	WR	4500
Joseph Fauria	TE	4500
Ike Ariguzo	WR	4500
Jeff JanisNA	WR	4500
Latavius Murray	RB	4500
Darren FellsNA	TE	4500
Solomon Patton	WR	4500
Jack Doyle	TE	4500
George Winn	RB	4500
Dri Archer	WR	4500
Brian Leonhardt	TE	4500
James Develin	RB	4500
Seyi Ajirotutu	WR	4500
Michael Hoomanawanui	TE	4500
Darrius Heyward-Bey	WR	4500
Nick Novak	K	4500
Tennessee Titans	D	4500
Vincent BrownNA	WR	4500
Oakland Raiders	D	4500
Chase Coffman	WR	4500
John Kuhn	RB	4500
Montell OwensIR	RB	4500
Matt Spaeth	TE	4500
David Johnson	TE	4500
Brent Celek	TE	4500
Brad Smith	WR	4500
James Casey	TE	4500
Ryan Succop	K	4500
Kris Durham	WR	4500
Denarius Moore	WR	4500
Brandon Bolden	RB	4500
Brian Tyms	WR	4500
Dan Herron	RB	4500
Jamize Olawale	RB	4500
Justin Brown	WR	4500
James White	RB	4500
Ryan Lankford	WR	4500
Taylor ThompsonIR	TE	4500
Ryan BroylesNA	WR	4500
DuJuan Harris	RB	4500
David AusberryNA	TE	4500
Dion Lewis	RB	4500
Dontrelle InmanNA	WR	4500
Jeremy Ross	WR	4500
Jeff MaehlNA	WR	4500
Shaun Draughn	RB	4500
Richard Rodgers	TE	4500
