name,pos,proj
Peyton Manning,RB,24.6
Aaron Rodgers,RB,23.2
Russell Wilson,RB,22.6
Andrew Luck,RB,22.0
Tom Brady,RB,20.6
Philip Rivers,RB,18.6
Matthew Stafford,RB,18.5
Ryan Tannehill,RB,18.1
Tony Romo,RB,18.0
Drew Brees,RB,17.8
Cam Newton,RB,17.5
Carson Palmer,RB,17.2
Jay Cutler,RB,17.1
Nick Foles,RB,16.4
Alex Smith,RB,16.1
Joe Flacco,RB,15.0
Kyle Orton,RB,14.5
Teddy Bridgewater,RB,14.4
Matt Ryan,RB,14.4
Ben Roethlisberger,RB,14.1
Andy Dalton,RB,14.1
Mike Glennon,RB,13.8
Brian Hoyer,RB,13.5
Colt McCoy,RB,13.0
Geno Smith,RB,12.8
Austin Davis,RB,12.3
Ryan Fitzpatrick,RB,12.3
Blake Bortles,RB,11.8
Derek Carr,RB,11.6
Jake Locker,RB,9.0
Charlie Whitehurst,RB,6.8
Michael Vick,RB,0.3
Johnny Manziel,RB,0.3
Mike Kafka,RB,0.1
Jimmy Garoppolo,RB,0.0
E.J. Manuel,RB,0.0
Chase Daniel,RB,0.0
Tyrod Taylor,RB,0.0
Mark Sanchez,RB,0.0
Christian Ponder,RB,0.0
Shaun Hill,RB,0.0
Kirk Cousins,RB,0.0
Matt Flynn,RB,0.0
Brock Osweiler,RB,0.0
Chad Henne,RB,0.0
Matt Moore,RB,0.0
Drew Stanton,RB,0.0
Jimmy Clausen,RB,0.0
Jason Campbell,RB,0.0
Matt Hasselbeck,RB,0.0
Brandon Weeden,RB,0.0
Matt Schaub,RB,0.0
Kellen Clemens,RB,0.0
Dan Orlovsky,RB,0.0
Taylor Yates,RB,0.0
Derek Anderson,RB,0.0
Luke McCown,RB,0.0
Bruce Gradkowski,RB,0.0
Tarvaris Jackson,RB,0.0
Ryan Mallett,RB,0.0
Jordan Palmer,RB,0.0
Jon Kitna,RB,0.0
Vince Young,RB,0.0
Tyler Thigpen,RB,0.0
Trent Edwards,RB,0.0
Seneca Wallace,RB,0.0
Kevin Kolb,RB,0.0
David Garrard,RB,0.0
Brady Quinn,RB,0.0
Matt Blanchard,RB,0.0
David Fales,RB,0.0
Tom Savage,RB,0.0
Aaron Murray,RB,0.0
Logan Thomas,RB,0.0
Zach Mettenberger,RB,0.0
AJ McCarron,RB,0.0
Matt McGloin,RB,0.0
Matt Barkley,RB,0.0
Landry Jones,RB,0.0
Sean Renfree,RB,0.0
Tyler Bray,RB,0.0
Case Keenum,RB,0.0
Kellen Moore,RB,0.0
Robert Griffin III,RB,0.0
Scott Tolzien,RB,0.0
Joe Webb,RB,0.0
Rex Grossman,RB,0.0
Josh McCown,RB,0.0
Peyton Manning,QB,24.6
Aaron Rodgers,QB,23.2
Russell Wilson,QB,22.6
Andrew Luck,QB,22.0
Tom Brady,QB,20.6
Philip Rivers,QB,18.6
Matthew Stafford,QB,18.5
Ryan Tannehill,QB,18.1
Tony Romo,QB,18.0
Drew Brees,QB,17.8
Cam Newton,QB,17.5
Carson Palmer,QB,17.2
Jay Cutler,QB,17.1
Nick Foles,QB,16.4
Alex Smith,QB,16.1
Joe Flacco,QB,15.0
Kyle Orton,QB,14.5
Teddy Bridgewater,QB,14.4
Matt Ryan,QB,14.4
Ben Roethlisberger,QB,14.1
Andy Dalton,QB,14.1
Mike Glennon,QB,13.8
Brian Hoyer,QB,13.5
Colt McCoy,QB,13.0
Geno Smith,QB,12.8
Austin Davis,QB,12.3
Ryan Fitzpatrick,QB,12.3
Blake Bortles,QB,11.8
Derek Carr,QB,11.6
Jake Locker,QB,9.0
Charlie Whitehurst,QB,6.8
Michael Vick,QB,0.3
Johnny Manziel,QB,0.3
Mike Kafka,QB,0.1
Jimmy Garoppolo,QB,0.0
E.J. Manuel,QB,0.0
Chase Daniel,QB,0.0
Tyrod Taylor,QB,0.0
Mark Sanchez,QB,0.0
Christian Ponder,QB,0.0
Shaun Hill,QB,0.0
Kirk Cousins,QB,0.0
Matt Flynn,QB,0.0
Brock Osweiler,QB,0.0
Chad Henne,QB,0.0
Matt Moore,QB,0.0
Drew Stanton,QB,0.0
Jimmy Clausen,QB,0.0
Jason Campbell,QB,0.0
Matt Hasselbeck,QB,0.0
Brandon Weeden,QB,0.0
Matt Schaub,QB,0.0
Kellen Clemens,QB,0.0
Dan Orlovsky,QB,0.0
Taylor Yates,QB,0.0
Derek Anderson,QB,0.0
Luke McCown,QB,0.0
Bruce Gradkowski,QB,0.0
Tarvaris Jackson,QB,0.0
Ryan Mallett,QB,0.0
Jordan Palmer,QB,0.0
Jon Kitna,QB,0.0
Vince Young,QB,0.0
Tyler Thigpen,QB,0.0
Trent Edwards,QB,0.0
Seneca Wallace,QB,0.0
Kevin Kolb,QB,0.0
David Garrard,QB,0.0
Brady Quinn,QB,0.0
Matt Blanchard,QB,0.0
David Fales,QB,0.0
Tom Savage,QB,0.0
Aaron Murray,QB,0.0
Logan Thomas,QB,0.0
Zach Mettenberger,QB,0.0
AJ McCarron,QB,0.0
Matt McGloin,QB,0.0
Matt Barkley,QB,0.0
Landry Jones,QB,0.0
Sean Renfree,QB,0.0
Tyler Bray,QB,0.0
Case Keenum,QB,0.0
Kellen Moore,QB,0.0
Robert Griffin III,QB,0.0
Scott Tolzien,QB,0.0
Joe Webb,QB,0.0
Rex Grossman,QB,0.0
Josh McCown,QB,0.0
Peyton Manning,WR,24.6
Aaron Rodgers,WR,23.2
Russell Wilson,WR,22.6
Andrew Luck,WR,22.0
Tom Brady,WR,20.6
Philip Rivers,WR,18.6
Matthew Stafford,WR,18.5
Ryan Tannehill,WR,18.1
Tony Romo,WR,18.0
Drew Brees,WR,17.8
Cam Newton,WR,17.5
Carson Palmer,WR,17.2
Jay Cutler,WR,17.1
Nick Foles,WR,16.4
Alex Smith,WR,16.1
Joe Flacco,WR,15.0
Kyle Orton,WR,14.5
Teddy Bridgewater,WR,14.4
Matt Ryan,WR,14.4
Ben Roethlisberger,WR,14.1
Andy Dalton,WR,14.1
Mike Glennon,WR,13.8
Brian Hoyer,WR,13.5
Colt McCoy,WR,13.0
Geno Smith,WR,12.8
Austin Davis,WR,12.3
Ryan Fitzpatrick,WR,12.3
Blake Bortles,WR,11.8
Derek Carr,WR,11.6
Jake Locker,WR,9.0
Charlie Whitehurst,WR,6.8
Michael Vick,WR,0.3
Johnny Manziel,WR,0.3
Mike Kafka,WR,0.1
Jimmy Garoppolo,WR,0.0
E.J. Manuel,WR,0.0
Chase Daniel,WR,0.0
Tyrod Taylor,WR,0.0
Mark Sanchez,WR,0.0
Christian Ponder,WR,0.0
Shaun Hill,WR,0.0
Kirk Cousins,WR,0.0
Matt Flynn,WR,0.0
Brock Osweiler,WR,0.0
Chad Henne,WR,0.0
Matt Moore,WR,0.0
Drew Stanton,WR,0.0
Jimmy Clausen,WR,0.0
Jason Campbell,WR,0.0
Matt Hasselbeck,WR,0.0
Brandon Weeden,WR,0.0
Matt Schaub,WR,0.0
Kellen Clemens,WR,0.0
Dan Orlovsky,WR,0.0
Taylor Yates,WR,0.0
Derek Anderson,WR,0.0
Luke McCown,WR,0.0
Bruce Gradkowski,WR,0.0
Tarvaris Jackson,WR,0.0
Ryan Mallett,WR,0.0
Jordan Palmer,WR,0.0
Jon Kitna,WR,0.0
Vince Young,WR,0.0
Tyler Thigpen,WR,0.0
Trent Edwards,WR,0.0
Seneca Wallace,WR,0.0
Kevin Kolb,WR,0.0
David Garrard,WR,0.0
Brady Quinn,WR,0.0
Matt Blanchard,WR,0.0
David Fales,WR,0.0
Tom Savage,WR,0.0
Aaron Murray,WR,0.0
Logan Thomas,WR,0.0
Zach Mettenberger,WR,0.0
AJ McCarron,WR,0.0
Matt McGloin,WR,0.0
Matt Barkley,WR,0.0
Landry Jones,WR,0.0
Sean Renfree,WR,0.0
Tyler Bray,WR,0.0
Case Keenum,WR,0.0
Kellen Moore,WR,0.0
Robert Griffin III,WR,0.0
Scott Tolzien,WR,0.0
Joe Webb,WR,0.0
Rex Grossman,WR,0.0
Josh McCown,WR,0.0
Peyton Manning,TE,24.6
Aaron Rodgers,TE,23.2
Russell Wilson,TE,22.6
Andrew Luck,TE,22.0
Tom Brady,TE,20.6
Philip Rivers,TE,18.6
Matthew Stafford,TE,18.5
Ryan Tannehill,TE,18.1
Tony Romo,TE,18.0
Drew Brees,TE,17.8
Cam Newton,TE,17.5
Carson Palmer,TE,17.2
Jay Cutler,TE,17.1
Nick Foles,TE,16.4
Alex Smith,TE,16.1
Joe Flacco,TE,15.0
Kyle Orton,TE,14.5
Teddy Bridgewater,TE,14.4
Matt Ryan,TE,14.4
Ben Roethlisberger,TE,14.1
Andy Dalton,TE,14.1
Mike Glennon,TE,13.8
Brian Hoyer,TE,13.5
Colt McCoy,TE,13.0
Geno Smith,TE,12.8
Austin Davis,TE,12.3
Ryan Fitzpatrick,TE,12.3
Blake Bortles,TE,11.8
Derek Carr,TE,11.6
Jake Locker,TE,9.0
Charlie Whitehurst,TE,6.8
Michael Vick,TE,0.3
Johnny Manziel,TE,0.3
Mike Kafka,TE,0.1
Jimmy Garoppolo,TE,0.0
E.J. Manuel,TE,0.0
Chase Daniel,TE,0.0
Tyrod Taylor,TE,0.0
Mark Sanchez,TE,0.0
Christian Ponder,TE,0.0
Shaun Hill,TE,0.0
Kirk Cousins,TE,0.0
Matt Flynn,TE,0.0
Brock Osweiler,TE,0.0
Chad Henne,TE,0.0
Matt Moore,TE,0.0
Drew Stanton,TE,0.0
Jimmy Clausen,TE,0.0
Jason Campbell,TE,0.0
Matt Hasselbeck,TE,0.0
Brandon Weeden,TE,0.0
Matt Schaub,TE,0.0
Kellen Clemens,TE,0.0
Dan Orlovsky,TE,0.0
Taylor Yates,TE,0.0
Derek Anderson,TE,0.0
Luke McCown,TE,0.0
Bruce Gradkowski,TE,0.0
Tarvaris Jackson,TE,0.0
Ryan Mallett,TE,0.0
Jordan Palmer,TE,0.0
Jon Kitna,TE,0.0
Vince Young,TE,0.0
Tyler Thigpen,TE,0.0
Trent Edwards,TE,0.0
Seneca Wallace,TE,0.0
Kevin Kolb,TE,0.0
David Garrard,TE,0.0
Brady Quinn,TE,0.0
Matt Blanchard,TE,0.0
David Fales,TE,0.0
Tom Savage,TE,0.0
Aaron Murray,TE,0.0
Logan Thomas,TE,0.0
Zach Mettenberger,TE,0.0
AJ McCarron,TE,0.0
Matt McGloin,TE,0.0
Matt Barkley,TE,0.0
Landry Jones,TE,0.0
Sean Renfree,TE,0.0
Tyler Bray,TE,0.0
Case Keenum,TE,0.0
Kellen Moore,TE,0.0
Robert Griffin III,TE,0.0
Scott Tolzien,TE,0.0
Joe Webb,TE,0.0
Rex Grossman,TE,0.0
Josh McCown,TE,0.0
Peyton Manning,D,24.6
Aaron Rodgers,D,23.2
Russell Wilson,D,22.6
Andrew Luck,D,22.0
Tom Brady,D,20.6
Philip Rivers,D,18.6
Matthew Stafford,D,18.5
Ryan Tannehill,D,18.1
Tony Romo,D,18.0
Drew Brees,D,17.8
Cam Newton,D,17.5
Carson Palmer,D,17.2
Jay Cutler,D,17.1
Nick Foles,D,16.4
Alex Smith,D,16.1
Joe Flacco,D,15.0
Kyle Orton,D,14.5
Teddy Bridgewater,D,14.4
Matt Ryan,D,14.4
Ben Roethlisberger,D,14.1
Andy Dalton,D,14.1
Mike Glennon,D,13.8
Brian Hoyer,D,13.5
Colt McCoy,D,13.0
Geno Smith,D,12.8
Austin Davis,D,12.3
Ryan Fitzpatrick,D,12.3
Blake Bortles,D,11.8
Derek Carr,D,11.6
Jake Locker,D,9.0
Charlie Whitehurst,D,6.8
Michael Vick,D,0.3
Johnny Manziel,D,0.3
Mike Kafka,D,0.1
Jimmy Garoppolo,D,0.0
E.J. Manuel,D,0.0
Chase Daniel,D,0.0
Tyrod Taylor,D,0.0
Mark Sanchez,D,0.0
Christian Ponder,D,0.0
Shaun Hill,D,0.0
Kirk Cousins,D,0.0
Matt Flynn,D,0.0
Brock Osweiler,D,0.0
Chad Henne,D,0.0
Matt Moore,D,0.0
Drew Stanton,D,0.0
Jimmy Clausen,D,0.0
Jason Campbell,D,0.0
Matt Hasselbeck,D,0.0
Brandon Weeden,D,0.0
Matt Schaub,D,0.0
Kellen Clemens,D,0.0
Dan Orlovsky,D,0.0
Taylor Yates,D,0.0
Derek Anderson,D,0.0
Luke McCown,D,0.0
Bruce Gradkowski,D,0.0
Tarvaris Jackson,D,0.0
Ryan Mallett,D,0.0
Jordan Palmer,D,0.0
Jon Kitna,D,0.0
Vince Young,D,0.0
Tyler Thigpen,D,0.0
Trent Edwards,D,0.0
Seneca Wallace,D,0.0
Kevin Kolb,D,0.0
David Garrard,D,0.0
Brady Quinn,D,0.0
Matt Blanchard,D,0.0
David Fales,D,0.0
Tom Savage,D,0.0
Aaron Murray,D,0.0
Logan Thomas,D,0.0
Zach Mettenberger,D,0.0
AJ McCarron,D,0.0
Matt McGloin,D,0.0
Matt Barkley,D,0.0
Landry Jones,D,0.0
Sean Renfree,D,0.0
Tyler Bray,D,0.0
Case Keenum,D,0.0
Kellen Moore,D,0.0
Robert Griffin III,D,0.0
Scott Tolzien,D,0.0
Joe Webb,D,0.0
Rex Grossman,D,0.0
Josh McCown,D,0.0
Peyton Manning,K,24.6
Aaron Rodgers,K,23.2
Russell Wilson,K,22.6
Andrew Luck,K,22.0
Tom Brady,K,20.6
Philip Rivers,K,18.6
Matthew Stafford,K,18.5
Ryan Tannehill,K,18.1
Tony Romo,K,18.0
Drew Brees,K,17.8
Cam Newton,K,17.5
Carson Palmer,K,17.2
Jay Cutler,K,17.1
Nick Foles,K,16.4
Alex Smith,K,16.1
Joe Flacco,K,15.0
Kyle Orton,K,14.5
Teddy Bridgewater,K,14.4
Matt Ryan,K,14.4
Ben Roethlisberger,K,14.1
Andy Dalton,K,14.1
Mike Glennon,K,13.8
Brian Hoyer,K,13.5
Colt McCoy,K,13.0
Geno Smith,K,12.8
Austin Davis,K,12.3
Ryan Fitzpatrick,K,12.3
Blake Bortles,K,11.8
Derek Carr,K,11.6
Jake Locker,K,9.0
Charlie Whitehurst,K,6.8
Michael Vick,K,0.3
Johnny Manziel,K,0.3
Mike Kafka,K,0.1
Jimmy Garoppolo,K,0.0
E.J. Manuel,K,0.0
Chase Daniel,K,0.0
Tyrod Taylor,K,0.0
Mark Sanchez,K,0.0
Christian Ponder,K,0.0
Shaun Hill,K,0.0
Kirk Cousins,K,0.0
Matt Flynn,K,0.0
Brock Osweiler,K,0.0
Chad Henne,K,0.0
Matt Moore,K,0.0
Drew Stanton,K,0.0
Jimmy Clausen,K,0.0
Jason Campbell,K,0.0
Matt Hasselbeck,K,0.0
Brandon Weeden,K,0.0
Matt Schaub,K,0.0
Kellen Clemens,K,0.0
Dan Orlovsky,K,0.0
Taylor Yates,K,0.0
Derek Anderson,K,0.0
Luke McCown,K,0.0
Bruce Gradkowski,K,0.0
Tarvaris Jackson,K,0.0
Ryan Mallett,K,0.0
Jordan Palmer,K,0.0
Jon Kitna,K,0.0
Vince Young,K,0.0
Tyler Thigpen,K,0.0
Trent Edwards,K,0.0
Seneca Wallace,K,0.0
Kevin Kolb,K,0.0
David Garrard,K,0.0
Brady Quinn,K,0.0
Matt Blanchard,K,0.0
David Fales,K,0.0
Tom Savage,K,0.0
Aaron Murray,K,0.0
Logan Thomas,K,0.0
Zach Mettenberger,K,0.0
AJ McCarron,K,0.0
Matt McGloin,K,0.0
Matt Barkley,K,0.0
Landry Jones,K,0.0
Sean Renfree,K,0.0
Tyler Bray,K,0.0
Case Keenum,K,0.0
Kellen Moore,K,0.0
Robert Griffin III,K,0.0
Scott Tolzien,K,0.0
Joe Webb,K,0.0
Rex Grossman,K,0.0
Josh McCown,K,0.0
