name,pos,proj
Aaron Rodgers,RB,22.9
Peyton Manning,RB,22.2
Andrew Luck,RB,22.1
Philip Rivers,RB,20.0
Cam Newton,RB,19.6
Russell Wilson,RB,19.4
Tom Brady,RB,18.7
Jay Cutler,RB,18.3
Colin Kaepernick,RB,18.1
Joe Flacco,RB,17.8
Tony Romo,RB,17.3
Drew Brees,RB,17.2
Matt Ryan,RB,16.8
Carson Palmer,RB,16.4
Matthew Stafford,RB,16.0
Kirk Cousins,RB,16.0
Alex Smith,RB,15.6
Ben Roethlisberger,RB,15.3
Andy Dalton,RB,15.3
Ryan Tannehill,RB,15.2
Brian Hoyer,RB,14.8
Eli Manning,RB,14.1
Derek Carr,RB,14.1
Kyle Orton,RB,14.0
Charlie Whitehurst,RB,13.9
Blake Bortles,RB,13.4
Austin Davis,RB,13.1
Ryan Fitzpatrick,RB,12.6
Teddy Bridgewater,RB,12.0
Geno Smith,RB,11.3
Michael Vick,RB,0.5
Johnny Manziel,RB,0.5
E.J. Manuel,RB,0.3
Blaine Gabbert,RB,0.3
Chase Daniel,RB,0.2
Brandon Weeden,RB,0.2
Chad Henne,RB,0.2
Matt McGloin,RB,0.2
Tyrod Taylor,RB,0.2
Drew Stanton,RB,0.2
Matt Moore,RB,0.2
Brock Osweiler,RB,0.2
Dan Orlovsky,RB,0.2
Ryan Mallett,RB,0.2
Derek Anderson,RB,0.2
Christian Ponder,RB,0.2
Kellen Clemens,RB,0.2
Bruce Gradkowski,RB,0.2
Tarvaris Jackson,RB,0.2
Jimmy Garoppolo,RB,0.2
Luke McCown,RB,0.1
Shaun Hill,RB,0.1
Taylor Yates,RB,0.1
Matt Hasselbeck,RB,0.1
Matt Flynn,RB,0.1
Jimmy Clausen,RB,0.1
Jason Campbell,RB,0.1
Zach Mettenberger,RB,0.0
Colt McCoy,RB,0.0
Ryan Nassib,RB,0.0
Matt Schaub,RB,0.0
Landry Jones,RB,0.0
Sean Renfree,RB,0.0
Case Keenum,RB,0.0
Chandler Harnish,RB,0.0
Kellen Moore,RB,0.0
Nick Foles,RB,0.0
Robert Griffin III,RB,0.0
Scott Tolzien,RB,0.0
Jake Locker,RB,0.0
Mike Kafka,RB,0.0
Joe Webb,RB,0.0
Jordan Palmer,RB,0.0
Mark Sanchez,RB,0.0
Jon Kitna,RB,0.0
Josh McCown,RB,0.0
Vince Young,RB,0.0
Tyler Thigpen,RB,0.0
Trent Edwards,RB,0.0
Seneca Wallace,RB,0.0
Kevin Kolb,RB,0.0
David Garrard,RB,0.0
Brady Quinn,RB,0.0
Matt Blanchard,RB,0.0
David Fales,RB,0.0
Aaron Murray,RB,0.0
AJ McCarron,RB,0.0
Tyler Bray,RB,0.0
Rex Grossman,RB,0.0
Josh Johnson,RB,0.0
Tom Savage,RB,0.0
Logan Thomas,RB,0.0
Matt Barkley,RB,0.0
Mike Glennon,RB,0.0
Aaron Rodgers,QB,22.9
Peyton Manning,QB,22.2
Andrew Luck,QB,22.1
Philip Rivers,QB,20.0
Cam Newton,QB,19.6
Russell Wilson,QB,19.4
Tom Brady,QB,18.7
Jay Cutler,QB,18.3
Colin Kaepernick,QB,18.1
Joe Flacco,QB,17.8
Tony Romo,QB,17.3
Drew Brees,QB,17.2
Matt Ryan,QB,16.8
Carson Palmer,QB,16.4
Matthew Stafford,QB,16.0
Kirk Cousins,QB,16.0
Alex Smith,QB,15.6
Ben Roethlisberger,QB,15.3
Andy Dalton,QB,15.3
Ryan Tannehill,QB,15.2
Brian Hoyer,QB,14.8
Eli Manning,QB,14.1
Derek Carr,QB,14.1
Kyle Orton,QB,14.0
Charlie Whitehurst,QB,13.9
Blake Bortles,QB,13.4
Austin Davis,QB,13.1
Ryan Fitzpatrick,QB,12.6
Teddy Bridgewater,QB,12.0
Geno Smith,QB,11.3
Michael Vick,QB,0.5
Johnny Manziel,QB,0.5
E.J. Manuel,QB,0.3
Blaine Gabbert,QB,0.3
Chase Daniel,QB,0.2
Brandon Weeden,QB,0.2
Chad Henne,QB,0.2
Matt McGloin,QB,0.2
Tyrod Taylor,QB,0.2
Drew Stanton,QB,0.2
Matt Moore,QB,0.2
Brock Osweiler,QB,0.2
Dan Orlovsky,QB,0.2
Ryan Mallett,QB,0.2
Derek Anderson,QB,0.2
Christian Ponder,QB,0.2
Kellen Clemens,QB,0.2
Bruce Gradkowski,QB,0.2
Tarvaris Jackson,QB,0.2
Jimmy Garoppolo,QB,0.2
Luke McCown,QB,0.1
Shaun Hill,QB,0.1
Taylor Yates,QB,0.1
Matt Hasselbeck,QB,0.1
Matt Flynn,QB,0.1
Jimmy Clausen,QB,0.1
Jason Campbell,QB,0.1
Zach Mettenberger,QB,0.0
Colt McCoy,QB,0.0
Ryan Nassib,QB,0.0
Matt Schaub,QB,0.0
Landry Jones,QB,0.0
Sean Renfree,QB,0.0
Case Keenum,QB,0.0
Chandler Harnish,QB,0.0
Kellen Moore,QB,0.0
Nick Foles,QB,0.0
Robert Griffin III,QB,0.0
Scott Tolzien,QB,0.0
Jake Locker,QB,0.0
Mike Kafka,QB,0.0
Joe Webb,QB,0.0
Jordan Palmer,QB,0.0
Mark Sanchez,QB,0.0
Jon Kitna,QB,0.0
Josh McCown,QB,0.0
Vince Young,QB,0.0
Tyler Thigpen,QB,0.0
Trent Edwards,QB,0.0
Seneca Wallace,QB,0.0
Kevin Kolb,QB,0.0
David Garrard,QB,0.0
Brady Quinn,QB,0.0
Matt Blanchard,QB,0.0
David Fales,QB,0.0
Aaron Murray,QB,0.0
AJ McCarron,QB,0.0
Tyler Bray,QB,0.0
Rex Grossman,QB,0.0
Josh Johnson,QB,0.0
Tom Savage,QB,0.0
Logan Thomas,QB,0.0
Matt Barkley,QB,0.0
Mike Glennon,QB,0.0
Aaron Rodgers,WR,22.9
Peyton Manning,WR,22.2
Andrew Luck,WR,22.1
Philip Rivers,WR,20.0
Cam Newton,WR,19.6
Russell Wilson,WR,19.4
Tom Brady,WR,18.7
Jay Cutler,WR,18.3
Colin Kaepernick,WR,18.1
Joe Flacco,WR,17.8
Tony Romo,WR,17.3
Drew Brees,WR,17.2
Matt Ryan,WR,16.8
Carson Palmer,WR,16.4
Matthew Stafford,WR,16.0
Kirk Cousins,WR,16.0
Alex Smith,WR,15.6
Ben Roethlisberger,WR,15.3
Andy Dalton,WR,15.3
Ryan Tannehill,WR,15.2
Brian Hoyer,WR,14.8
Eli Manning,WR,14.1
Derek Carr,WR,14.1
Kyle Orton,WR,14.0
Charlie Whitehurst,WR,13.9
Blake Bortles,WR,13.4
Austin Davis,WR,13.1
Ryan Fitzpatrick,WR,12.6
Teddy Bridgewater,WR,12.0
Geno Smith,WR,11.3
Michael Vick,WR,0.5
Johnny Manziel,WR,0.5
E.J. Manuel,WR,0.3
Blaine Gabbert,WR,0.3
Chase Daniel,WR,0.2
Brandon Weeden,WR,0.2
Chad Henne,WR,0.2
Matt McGloin,WR,0.2
Tyrod Taylor,WR,0.2
Drew Stanton,WR,0.2
Matt Moore,WR,0.2
Brock Osweiler,WR,0.2
Dan Orlovsky,WR,0.2
Ryan Mallett,WR,0.2
Derek Anderson,WR,0.2
Christian Ponder,WR,0.2
Kellen Clemens,WR,0.2
Bruce Gradkowski,WR,0.2
Tarvaris Jackson,WR,0.2
Jimmy Garoppolo,WR,0.2
Luke McCown,WR,0.1
Shaun Hill,WR,0.1
Taylor Yates,WR,0.1
Matt Hasselbeck,WR,0.1
Matt Flynn,WR,0.1
Jimmy Clausen,WR,0.1
Jason Campbell,WR,0.1
Zach Mettenberger,WR,0.0
Colt McCoy,WR,0.0
Ryan Nassib,WR,0.0
Matt Schaub,WR,0.0
Landry Jones,WR,0.0
Sean Renfree,WR,0.0
Case Keenum,WR,0.0
Chandler Harnish,WR,0.0
Kellen Moore,WR,0.0
Nick Foles,WR,0.0
Robert Griffin III,WR,0.0
Scott Tolzien,WR,0.0
Jake Locker,WR,0.0
Mike Kafka,WR,0.0
Joe Webb,WR,0.0
Jordan Palmer,WR,0.0
Mark Sanchez,WR,0.0
Jon Kitna,WR,0.0
Josh McCown,WR,0.0
Vince Young,WR,0.0
Tyler Thigpen,WR,0.0
Trent Edwards,WR,0.0
Seneca Wallace,WR,0.0
Kevin Kolb,WR,0.0
David Garrard,WR,0.0
Brady Quinn,WR,0.0
Matt Blanchard,WR,0.0
David Fales,WR,0.0
Aaron Murray,WR,0.0
AJ McCarron,WR,0.0
Tyler Bray,WR,0.0
Rex Grossman,WR,0.0
Josh Johnson,WR,0.0
Tom Savage,WR,0.0
Logan Thomas,WR,0.0
Matt Barkley,WR,0.0
Mike Glennon,WR,0.0
Aaron Rodgers,TE,22.9
Peyton Manning,TE,22.2
Andrew Luck,TE,22.1
Philip Rivers,TE,20.0
Cam Newton,TE,19.6
Russell Wilson,TE,19.4
Tom Brady,TE,18.7
Jay Cutler,TE,18.3
Colin Kaepernick,TE,18.1
Joe Flacco,TE,17.8
Tony Romo,TE,17.3
Drew Brees,TE,17.2
Matt Ryan,TE,16.8
Carson Palmer,TE,16.4
Matthew Stafford,TE,16.0
Kirk Cousins,TE,16.0
Alex Smith,TE,15.6
Ben Roethlisberger,TE,15.3
Andy Dalton,TE,15.3
Ryan Tannehill,TE,15.2
Brian Hoyer,TE,14.8
Eli Manning,TE,14.1
Derek Carr,TE,14.1
Kyle Orton,TE,14.0
Charlie Whitehurst,TE,13.9
Blake Bortles,TE,13.4
Austin Davis,TE,13.1
Ryan Fitzpatrick,TE,12.6
Teddy Bridgewater,TE,12.0
Geno Smith,TE,11.3
Michael Vick,TE,0.5
Johnny Manziel,TE,0.5
E.J. Manuel,TE,0.3
Blaine Gabbert,TE,0.3
Chase Daniel,TE,0.2
Brandon Weeden,TE,0.2
Chad Henne,TE,0.2
Matt McGloin,TE,0.2
Tyrod Taylor,TE,0.2
Drew Stanton,TE,0.2
Matt Moore,TE,0.2
Brock Osweiler,TE,0.2
Dan Orlovsky,TE,0.2
Ryan Mallett,TE,0.2
Derek Anderson,TE,0.2
Christian Ponder,TE,0.2
Kellen Clemens,TE,0.2
Bruce Gradkowski,TE,0.2
Tarvaris Jackson,TE,0.2
Jimmy Garoppolo,TE,0.2
Luke McCown,TE,0.1
Shaun Hill,TE,0.1
Taylor Yates,TE,0.1
Matt Hasselbeck,TE,0.1
Matt Flynn,TE,0.1
Jimmy Clausen,TE,0.1
Jason Campbell,TE,0.1
Zach Mettenberger,TE,0.0
Colt McCoy,TE,0.0
Ryan Nassib,TE,0.0
Matt Schaub,TE,0.0
Landry Jones,TE,0.0
Sean Renfree,TE,0.0
Case Keenum,TE,0.0
Chandler Harnish,TE,0.0
Kellen Moore,TE,0.0
Nick Foles,TE,0.0
Robert Griffin III,TE,0.0
Scott Tolzien,TE,0.0
Jake Locker,TE,0.0
Mike Kafka,TE,0.0
Joe Webb,TE,0.0
Jordan Palmer,TE,0.0
Mark Sanchez,TE,0.0
Jon Kitna,TE,0.0
Josh McCown,TE,0.0
Vince Young,TE,0.0
Tyler Thigpen,TE,0.0
Trent Edwards,TE,0.0
Seneca Wallace,TE,0.0
Kevin Kolb,TE,0.0
David Garrard,TE,0.0
Brady Quinn,TE,0.0
Matt Blanchard,TE,0.0
David Fales,TE,0.0
Aaron Murray,TE,0.0
AJ McCarron,TE,0.0
Tyler Bray,TE,0.0
Rex Grossman,TE,0.0
Josh Johnson,TE,0.0
Tom Savage,TE,0.0
Logan Thomas,TE,0.0
Matt Barkley,TE,0.0
Mike Glennon,TE,0.0
