,,,,,,
FantasyPros.com , ,,,,,
2014 Fantasy Football , ,,,,,
TE Consensus Projections, ,,,,,
,,,,,,
Player Name , Team ,rec_att ,rec_yds ,rec_tds ,fumbles ,fpts 
Rob Gronkowski,NE,5.6,71.3,0.9,0,12.4
Julius Thomas,DEN,5.2,62.4,0.9,0,11.5
Antonio Gates,SD,4.4,50.1,0.8,0,9.9
Jordan Reed,WAS,5,53.7,0.7,0,9.8
Jordan Cameron,CLE,3.9,50.7,0.8,0,9.5
Greg Olsen,CAR,5.2,59.3,0.6,0,9.4
Delanie Walker,TEN,4.4,50,0.7,0,9.2
Travis Kelce,KC,4.2,44.6,0.7,0,8.9
Vernon Davis,SF,3.8,45.2,0.7,0,8.8
Martellus Bennett,CHI,5.2,52.5,0.6,0,8.7
Dwayne Allen,IND,3.5,41.6,0.8,0,8.6
Jimmy Graham,NO,4.6,56,0.5,0,8.5
Larry Donnell,NYG,3.9,39.7,0.6,0,7.4
Jared Cook,STL,4,39.7,0.5,0,7.2
Owen Daniels,BAL,3.7,44.5,0.3,0,6.2
Jason Witten,DAL,4.3,52.1,0.2,0,6.2
Heath Miller,PIT,4.1,46.4,0.3,0,6.1
Jace Amaro,NYJ,4.6,47.8,0.2,0,6.1
Coby Fleener,IND,2.3,26.7,0.4,0,5.1
Charles Clay,MIA,3,33.2,0.3,0,4.9
Jermaine Gresham,CIN,3.5,38.4,0.1,0,4.5
Clay Harbor,JAC,3.1,31.5,0.2,0,4.4
Scott Chandler,BUF,3.3,37.8,0.1,0,4.3
Timothy Wright,NE,1.7,16.4,0.4,0,3.9
Andrew Quarless,GB,2.5,24.4,0.2,0,3.8
Ladarius Green,SD,2.3,31,0.1,0,3.7
Anthony Fasano,KC,2.6,27.1,0.1,0,3.1
Mychal Rivera,OAK,2.2,24.8,0.1,0,2.8
Chase Ford,MIN,2.4,24,0.1,0,2.7
Brandon Pettigrew,DET,2.1,20.8,0.1,0,2.6
Levine Toilolo,ATL,2.1,21.1,0.1,0,2.4
John Carlson,ARI,2.1,20.7,0.1,0,2.4
Garrett Graham,HOU,1.8,20.7,0,0,2.3
Benjamin Watson,NO,1.7,18.2,0,0,2
Jeff Cumberland,NYJ,1.5,14.8,0.1,0,1.9
Luke Willson,SEA,1.8,18.5,0,0,1.9
Daniel Fells,NYG,1.3,15.7,0,0,1.8
Lance Kendricks,STL,1.6,14.5,0,0,1.7
Niles Paul,WAS,1.3,13.2,0.1,0,1.7
Cooper Helfet,SEA,1,11.5,0.1,0,1.6
Jim Dray,CLE,1.1,13.9,0,0,1.6
Jacob Tamme,DEN,0.9,10.5,0.1,0,1.5
Richard Rodgers,GB,0.8,9.9,0.1,0,1.4
Josh Hill,NO,1.2,10.5,0.1,0,1.4
Robert Housler,ARI,1,11.1,0,0,1.4
Jordan Thompson,DET,0.7,8,0.1,0,1.3
RaShaun Allen,SEA,0.7,8.4,0.1,0,1.3
Dion Sims,MIA,0.9,9.7,0,0,1.2
Rhett Ellison,MIN,1,11.4,0,0,1.2
Gavin Escobar,DAL,0.9,9.2,0,0,1.2
Chase Coffman,TEN,0.6,6.7,0.1,0,1
Gary Barnidge,CLE,0.4,4.5,0.1,0,0.9
David Ausberry,OAK,0.5,6.5,0,0,0.8
Michael Palmer,PIT,0.4,3.9,0.1,0,0.8
Troy Niklas,ARI,0.4,4.8,0,0,0.7
Brian Leonhardt,OAK,0.5,6,0,0,0.7
Crockett Gillmore,BAL,0.6,5.6,0,0,0.7
Bear Pascoe,ATL,0.5,4.5,0,0,0.7
Dante Rosario,CHI,0.7,5.8,0,0,0.7
Derek Carrier,SF,0.5,6,0,0,0.7
Kevin Brock,CIN,0.4,4.2,0,0,0.7
Jack Doyle,IND,0.9,5.6,0,0,0.7
MarQueis Gray,MIN,0.3,4.3,0,0,0.6
Adrien Robinson,NYG,0.4,5.8,0,0,0.6
Brandon Bostick,GB,0.4,4,0,0,0.6
Vance McDonald,SF,0.5,5,0,0,0.6
Ed Dickson,CAR,0.4,3.7,0,0,0.6
C.J. Fiedorowicz,HOU,0.4,4,0,0,0.5
Virgil Green,DEN,0.3,2.8,0,0,0.5
Darren Fells,ARI,0.3,2.9,0,0,0.5
Lee Smith,BUF,0.3,3.3,0,0,0.4
Matt Spaeth,PIT,0.3,3.2,0,0,0.4
Brett Brackett,TEN,0.2,2.2,0,0,0.3
Chris Gragg,BUF,0.1,1.5,0,0,0.3
Demetrius Harris,KC,0.1,1.3,0,0,0.2
Michael Hoomanawanui,NE,0.4,1.6,0,0,0.2
David Johnson,SD,0.1,1.2,0,0,0.2
James Hanna,DAL,0.2,1.5,0,0,0.2
Ryan Griffin,HOU,0.1,1.3,0,0,0.1
Nic Jacobs,JAC,0.1,0.9,0,0,0.1
Zach Sudfeld,NYJ,0.1,0.9,0,0,0.1
Logan Paulsen,WAS,0.1,0.9,0,0,0.1
Garrett Celek,SF,0.1,1,0,0,0.1
Cory Harkey,STL,0.1,0.7,0,0,0.1
John Phillips,SD,0.1,1,0,0,0.1
Mickey Shuler,JAC,0.1,0.4,0,0,0
Brandon Williams,ARI,0,0.2,0,0,0
Anthony McCoy,SEA,0,0,0,0,0
Tony Moeaki,BUF,0,0,0,0,0
Alex Smith,CIN,0,0,0,0,0
Gator Hoskins,MIA,0,0,0,0,0
Trey Burton,PHI,0,0,0,0,0
Austin Seferian-Jenkins,TB,0,0,0,0,0
Eric Ebron,DET,0,0,0,0,0
Tyler Eifert,CIN,0,0,0,0,0
Zach Ertz,PHI,0,0,0,0,0
Joseph Fauria,DET,0,0,0,0,0
Taylor Thompson,TEN,0,0,0,0,0
Richie Brockel,CAR,0,0,0,0,0
Visanthe Shiancoe,FA,0,0,0,0,0
Luke Stocker,TB,0,0,0,0,0
Tony Gonzalez,FA,0,0,0,0,0
Kellen Winslow,FA,0,0,0,0,0
Tom Crabtree,NO,0,0,0,0,0
Joel Dreessen,DEN,0,0,0,0,0
Dallas Clark,FA,0,0,0,0,0
Marcedes Lewis,JAC,0,0,0,0,0
Billy Bajema,FA,0,0,0,0,0
Ben Hartsock,FA,0,0,0,0,0
Craig Stevens,TEN,0,0,0,0,0
Ryan Hewitt,CIN,0,0,0,0,0
Brent Celek,PHI,0,0,0,0,0
Marcel Jensen,JAC,0,0,0,0,0
Brandon Myers,TB,0,0,0,0,0
Justice Cunningham,STL,0,0,0,0,0
D.C. Jefferson,CAR,0,0,0,0,0
Nick Kasa,OAK,0,0,0,0,0
Ryan Taylor,BAL,0,0,0,0,0
Richard Gordon,KC,0,0,0,0,0
