Player	Rush	RushYds	RushTD	Rec	RecYds	RecTD	FumL	FantasyPoints	Season
Arian Foster	302.8	1,407.4	12.3	61.0	576.0	2.2	2.4	280.2	2012
Ray Rice	282.9	1,280.2	9.8	68.5	607.2	2.7	2.3	259.3	2012
LeSean McCoy	265.4	1,256.8	12.1	53.7	403.2	3.1	1.1	254.7	2012
Chris Johnson	276.2	1,262.3	8.6	49.0	385.0	1.4	2.1	220.1	2012
Darren McFadden	240.8	1,190.8	8.9	43.9	355.5	2.2	2.0	216.8	2012
Maurice Jones-Drew	278.7	1,247.4	7.2	38.4	312.2	2.0	2.1	206.8	2012
Matt Forte	251.8	1,150.7	5.3	55.4	476.9	1.8	1.8	201.8	2012
Ryan Mathews	234.0	1,116.0	7.7	47.4	405.3	1.3	2.5	201.0	2012
Marshawn Lynch	274.2	1,175.2	9.3	27.5	213.8	1.1	2.2	196.9	2012
DeMarco Murray	250.6	1,162.6	7.2	43.5	329.2	1.3	1.9	196.4	2012
Steven Jackson	272.4	1,160.8	6.8	40.4	319.3	1.2	1.4	193.5	2012
Fred Jackson	220.0	1,039.4	7.4	42.2	365.5	1.5	1.7	190.1	2012
Adrian Peterson	240.8	1,102.7	9.4	25.0	205.3	0.9	1.5	189.5	2012
Jamaal Charles	221.8	1,134.1	5.8	40.0	353.7	1.8	2.4	189.4	2012
Trent Richardson	253.0	1,123.9	7.1	37.2	308.7	1.1	1.8	189.1	2012
Ahmad Bradshaw	229.3	1,012.0	7.9	43.2	312.7	1.5	1.9	184.7	2012
Michael Turner	257.7	1,125.6	9.9	12.2	103.6	0.2	1.1	181.1	2012
Shonn Greene	260.2	1,128.2	6.8	24.5	178.7	0.3	1.8	169.7	2012
Darren Sproles	101.1	531.7	2.9	76.7	666.3	5.0	1.3	164.5	2012
Doug Martin	223.4	976.8	5.5	38.2	287.3	1.2	1.6	163.3	2012
Reggie Bush	189.9	876.2	5.2	48.7	358.8	1.8	2.1	161.6	2012
Frank Gore	230.2	1,024.8	6.9	23.5	173.0	0.6	1.6	161.3	2012
BenJarvus Green-Ellis	233.3	969.3	8.0	14.5	104.7	0.1	0.5	155.1	2012
Willis McGahee	219.7	964.8	8.0	17.2	97.7	0.6	1.9	154.4	2012
Donald Brown	203.3	858.2	5.8	29.6	212.9	0.8	0.7	145.7	2012
Jonathan Stewart	155.6	745.5	5.3	38.9	329.2	1.4	1.3	145.1	2012
Stevan Ridley	194.2	855.9	7.6	15.6	112.5	0.3	1.0	142.3	2012
Chris "Beanie" Wells	205.3	917.3	7.3	13.0	89.9	0.2	1.9	142.1	2012
Kevin Smith	160.2	684.0	5.5	31.5	243.7	1.6	1.5	132.5	2012
Peyton Hillis	180.5	748.1	6.4	27.8	178.3	1.0	2.2	132.4	2012
Isaac Redman	188.4	806.2	5.3	23.4	166.2	0.8	1.0	131.5	2012
DeAngelo Williams	159.0	801.5	5.4	18.1	138.9	0.4	0.6	127.4	2012
Mark Ingram	169.3	724.9	7.0	15.5	96.8	0.3	1.1	123.5	2012
Roy Helu	141.5	643.8	4.0	34.8	269.5	1.3	1.4	120.5	2012
C.J. Spiller	131.0	620.8	3.1	38.1	300.0	1.7	1.3	118.4	2012
Michael Bush	136.0	589.9	6.1	22.1	181.3	0.6	0.9	115.1	2012
Ben Tate	145.1	748.7	4.8	11.8	96.7	0.3	0.9	113.2	2012
Pierre Thomas	111.9	523.6	3.6	38.9	291.2	1.3	0.9	109.4	2012
Cedric Benson	176.9	705.3	4.7	14.4	99.7	0.3	1.8	106.9	2012
Toby Gerhart	130.8	589.4	4.0	24.3	179.0	1.1	1.1	105.5	2012
Ryan Williams	133.1	574.5	4.0	22.0	190.1	0.8	1.0	103.2	2012
Evan Royster	143.4	620.6	4.2	17.0	118.3	0.4	1.1	99.0	2012
LeGarrette Blount	133.8	582.0	5.8	11.6	78.9	0.1	2.0	97.1	2012
Mikel Leshoure	125.1	544.7	5.0	14.7	116.4	0.4	0.8	97.0	2012
David Wilson	131.4	576.0	3.5	19.6	144.3	0.9	0.9	96.5	2012
Felix Jones	110.5	506.8	2.6	27.5	216.7	0.9	1.6	90.2	2012
Rashad Jennings	107.7	496.3	3.3	24.7	158.6	0.5	0.4	87.7	2012
Ronnie Hillman	96.5	440.8	2.4	32.1	249.2	1.0	1.2	87.0	2012
Daniel Thomas	141.0	558.5	3.3	14.8	97.1	0.4	1.0	86.0	2012
Rashard Mendenhall	123.8	527.2	4.5	9.6	72.1	0.1	1.7	84.1	2012
Jahvid Best	86.5	412.2	2.4	27.2	222.2	1.2	1.7	81.4	2012
James Starks	101.5	474.8	2.3	23.4	180.2	0.6	1.0	80.9	2012
Bernard Scott	119.7	489.8	2.6	20.6	137.4	0.8	1.3	80.3	2012
Isaiah Pead	92.0	422.8	2.5	24.8	198.2	0.7	0.8	79.7	2012
Jacquizz Rodgers	81.5	353.8	1.8	33.6	259.8	1.6	1.0	79.4	2012
Shane Vereen	98.5	440.5	2.7	23.6	162.1	0.6	0.8	78.6	2012
Mike Tolbert	66.7	281.4	3.4	25.0	204.0	1.2	1.2	73.5	2012
Tim Hightower	90.4	387.1	3.1	20.8	138.5	0.3	1.2	71.1	2012
Mike Goodson	92.2	411.1	2.4	20.8	148.1	0.4	1.7	69.5	2012
Kendall Hunter	85.8	378.5	2.0	21.1	180.0	0.4	0.4	69.0	2012
Danny Woodhead	70.7	329.2	2.0	24.2	184.6	0.9	0.4	68.4	2012
Robert Turbin	89.8	386.3	3.0	10.9	73.5	0.4	0.3	65.4	2012
Ronnie Brown	79.6	316.8	2.9	16.9	115.8	0.6	0.8	62.8	2012
Brandon Jacobs	70.7	322.3	4.2	6.8	41.1	0.1	1.0	60.2	2012
Bernard Pierce	82.7	358.5	1.8	9.6	75.3	0.1	0.4	54.2	2012
Joe McKnight	58.8	263.1	1.0	21.3	180.1	1.0	1.3	53.5	2012
Montario Hardesty	83.0	338.2	2.1	11.1	67.1	0.1	0.2	53.2	2012
Delone Carter	80.3	336.3	2.2	7.1	64.5	0.1	1.1	51.8	2012
Taiwan Jones	59.2	294.3	1.8	12.8	90.3	0.5	0.4	51.3	2012
Dexter McCluster	30.3	139.0	0.8	31.5	256.9	1.2	0.8	49.7	2012
Jason Snelling	53.4	208.6	1.5	22.0	144.3	0.9	0.5	48.9	2012
LaMichael James	46.6	229.0	1.2	17.7	145.0	0.9	0.6	48.6	2012
Lamar Miller	54.3	245.0	1.1	14.8	130.1	0.7	0.4	48.0	2012
Leon Washington	49.7	228.8	1.2	19.5	143.2	0.9	0.8	48.0	2012
Chris Rainey	35.3	179.6	0.7	26.2	212.9	1.1	1.0	47.5	2012
Marcel Reece	33.5	139.1	0.8	25.0	216.1	1.3	0.3	47.4	2012
Dion Lewis	61.7	285.4	1.9	9.4	54.6	0.4	0.5	47.2	2012
Javon Ringer	54.4	225.7	1.6	16.0	118.0	0.3	0.2	45.3	2012
Jonathan Dwyer	64.9	282.4	2.0	6.3	36.1	0.2	0.4	44.4	2012
Alex Green	61.2	234.0	1.2	16.9	112.3	0.7	1.0	43.8	2012
Le'Ron McClain	41.5	161.1	2.2	15.8	106.3	0.4	0.4	41.2	2012
Brandon Jackson	46.3	190.9	0.9	19.1	131.5	0.5	0.4	39.7	2012
John Kuhn	24.7	82.2	2.9	12.6	77.6	1.1	0.2	39.3	2012
Knowshon Moreno	48.6	229.5	0.8	11.7	84.3	0.5	0.8	37.8	2012
Bilal Powell	52.2	202.6	1.2	14.0	86.1	0.3	0.4	37.3	2012
Brian Leonard	32.7	133.6	1.0	23.0	165.7	0.3	0.2	37.1	2012
Vick Ballard	58.2	222.0	1.6	5.4	33.3	0.2	0.2	35.9	2012
LaRod Stephens-Howling	29.5	130.7	0.2	15.8	151.1	0.7	0.1	33.1	2012
Mewelde Moore	28.3	125.3	1.1	16.0	109.3	0.4	0.2	32.1	2012
Charles Clay	1.0	2.3	0.0	21.8	252.7	1.1	0.1	32.0	2012
Brandon Saine	38.3	177.8	0.9	5.6	47.2	0.4	0.5	29.3	2012
James Casey	6.1	27.2	0.0	18.1	175.5	1.4	0.0	28.7	2012
Lance Ball	33.6	149.0	1.0	6.7	57.3	0.4	0.3	28.6	2012
Danny Ware	34.0	150.5	0.6	8.6	76.3	0.2	0.0	27.5	2012
Christopher Ivory	39.2	170.2	1.2	1.2	9.2	0.1	0.2	25.2	2012
Alfred Morris	40.5	177.9	0.5	2.4	16.9	0.0	0.0	22.7	2012
Curtis Brinkley	36.9	152.0	0.7	5.4	37.5	0.1	0.4	22.3	2012
Jamie Harper	39.5	148.3	0.7	4.6	34.1	0.0	0.5	21.8	2012
Justin Forsett	25.2	103.0	0.6	9.1	58.0	0.1	0.1	20.2	2012
Phillip Tanner	30.4	125.1	0.4	5.1	33.3	0.1	0.2	18.5	2012
Anthony Allen	34.0	138.1	0.2	5.7	37.4	0.0	0.3	18.3	2012
Jackie Battle	23.1	109.8	0.6	3.9	25.0	0.0	0.1	17.3	2012
Keiland Williams	23.3	94.2	0.7	4.1	31.0	0.2	0.2	16.9	2012
Brandon Bolden	25.3	114.8	0.6	2.0	14.3	0.0	0.0	16.4	2012
Dan Herron	27.5	115.7	0.3	4.2	28.1	0.0	0.0	16.3	2012
Steve Slaton	26.5	109.9	0.2	5.1	34.3	0.2	0.6	15.8	2012
Bear Pascoe	0.0	0.0	0.0	11.4	120.0	0.6	0.1	15.5	2012
Michael Smith	22.4	101.4	0.5	3.2	22.0	0.0	0.0	15.1	2012
Henry Hynoski	0.0	0.0	0.0	12.0	83.5	1.0	0.0	14.4	2012
Tony Fiammetta	25.1	35.0	0.3	7.2	74.0	0.3	0.3	14.1	2012
Lex Hilliard	20.7	85.8	0.3	3.3	25.4	0.2	0.0	13.8	2012
Bryce Brown	26.2	103.3	0.4	1.7	12.0	0.0	0.0	13.8	2012
Tashard Choice	19.7	86.1	0.5	3.4	22.0	0.0	0.1	13.3	2012
Vonta Leach	7.6	24.3	0.3	9.7	71.8	0.2	0.0	12.9	2012
Da'Rel Scott	21.0	82.6	0.2	4.4	34.5	0.0	0.0	12.7	2012
Mossis Madu	19.7	87.5	0.0	4.2	33.8	0.0	0.0	12.1	2012
Cyrus Gray	23.0	97.7	0.1	2.3	16.5	0.0	0.0	12.0	2012
Damien Berry	18.3	81.2	0.3	3.0	19.4	0.0	0.0	11.8	2012
Terrance Ganaway	18.2	77.9	0.3	2.4	17.0	0.1	0.0	11.6	2012
Mario Fannin	16.3	69.0	0.3	3.7	25.3	0.0	0.0	11.4	2012
Bobby Rainey	30.0	0.0	1.0	7.0	52.0	0.0	0.0	11.2	2012
Kregg Lumpkin	15.2	66.3	0.4	2.6	18.3	0.0	0.0	11.1	2012
Stanley Havili	8.1	32.1	0.2	4.4	62.0	0.1	0.0	11.0	2012
Chris Polk	11.3	45.3	0.7	1.0	8.2	0.2	0.0	10.3	2012
Jordan Todman	11.3	56.3	0.3	3.7	25.3	0.0	0.0	10.1	2012
Daryl Richardson	22.0	86.3	0.3	2.0	13.3	0.0	1.0	10.0	2012
Darrel Young	8.0	23.0	0.0	10.0	76.0	0.0	0.0	9.9	2012
Shaun Chapas	0.0	0.0	0.0	8.3	67.0	0.6	0.1	9.9	2012
Jed Collins	4.8	16.9	0.6	4.1	32.3	0.2	0.0	9.6	2012
Travaris Cadet	17.4	74.7	0.0	2.7	14.7	0.0	0.0	8.9	2012
Michael Robinson	4.2	16.9	0.0	6.9	47.6	0.4	0.1	8.7	2012
John Conner	8.2	31.1	0.3	1.3	28.1	0.2	0.0	8.5	2012
Javarris Williams	26.0	77.8	0.0	1.7	6.3	0.0	0.0	8.4	2012
Bruce Miller	1.1	4.6	0.0	7.7	71.4	0.1	0.1	8.2	2012
Jacob Hester	10.8	42.6	0.2	4.4	26.6	0.0	0.0	8.2	2012
Brad Smelley	0.0	0.0	0.0	6.7	64.0	0.3	0.1	8.1	2012
Chris Ogbonnaya	14.3	52.0	0.0	4.2	24.1	0.0	0.0	7.6	2012
Greg Jones	5.6	20.4	0.2	5.7	39.7	0.0	0.0	7.2	2012
Jerome Felton	6.1	22.9	0.0	5.1	45.7	0.0	0.0	7.0	2012
Armando Allen	19.5	49.0	0.3	2.0	8.7	0.0	0.5	6.8	2012
Spencer Larsen	4.0	12.1	0.4	3.5	26.3	0.1	0.1	6.5	2012
Anthony Sherman	3.2	14.0	0.0	4.6	45.0	0.1	0.0	6.2	2012
Quinn Johnson	6.5	26.7	0.0	3.8	32.0	0.0	0.0	6.1	2012
Antone Smith	10.9	43.1	0.2	0.9	6.9	0.0	0.0	6.0	2012
Owen Schmitt	3.6	8.5	0.0	5.1	41.0	0.1	0.0	5.8	2012
Owen Marecic	5.0	11.5	0.0	4.1	46.3	0.0	0.2	5.7	2012
Johnny White	13.7	54.5	0.0	0.7	0.8	0.0	0.0	5.7	2012
Anthony Dixon	10.0	39.9	0.2	1.1	5.3	0.0	0.0	5.6	2012
Darius Reynaud	15.0	56.0	0.0	0.0	0.0	0.0	0.0	5.6	2012
Montell Owens	12.8	42.0	0.0	2.6	12.8	0.0	0.0	5.5	2012
Josh Vaughan	6.7	26.3	0.4	0.5	2.0	0.0	0.0	5.1	2012
Alfonso Smith	11.3	44.7	0.0	1.0	6.3	0.0	0.0	5.1	2012
Erik Lorig	0.0	0.0	0.0	4.7	39.5	0.2	0.0	4.8	2012
Mike Cox	3.2	10.5	0.2	3.5	23.1	0.0	0.1	4.5	2012
Lawrence Vickers	4.8	13.5	0.0	4.9	29.9	0.0	0.0	4.5	2012
Edwin Baker	0.0	43.0	0.0	0.0	0.0	0.0	0.0	4.3	2012
Baron Batch	4.8	20.5	0.0	2.9	22.4	0.0	0.0	4.3	2012
Corey McIntyre	1.4	7.7	0.0	2.5	34.9	0.0	0.0	4.3	2012
Brit Miller	1.4	4.2	0.0	4.5	36.1	0.0	0.0	4.2	2012
Bradie Ewing	4.3	17.4	0.0	3.5	20.8	0.0	0.0	3.8	2012
Chris Pressley	4.3	14.1	0.0	1.7	23.3	0.0	0.0	3.7	2012
Lorenzo Booker	6.7	28.4	0.0	1.3	7.1	0.0	0.0	3.6	2012
Joique Bell	7.8	31.6	0.0	0.0	0.0	0.0	0.0	3.2	2012
Moran Norris	1.0	0.0	0.0	2.4	14.0	0.1	0.0	2.1	2012
Lonyae Miller	4.5	15.5	0.0	0.0	0.0	0.0	0.0	1.6	2012
Tyler Clutts	0.0	0.0	0.0	1.9	14.1	0.0	0.0	1.4	2012
Lance Dunbar	4.0	14.0	0.0	0.0	0.0	0.0	0.0	1.4	2012
Brock Bolen	0.0	0.0	0.0	1.7	13.0	0.0	0.0	1.3	2012
Cedric Peerman	2.7	11.1	0.0	0.4	1.8	0.0	0.0	1.3	2012
Lousaka Polite	0.0	0.0	0.0	1.7	10.0	0.1	0.0	1.3	2012
Chris Gronkowski	0.0	0.0	0.0	1.7	10.3	0.0	0.0	1.2	2012
Rock Cartwright	0.4	0.9	0.0	1.3	6.7	0.0	0.0	0.8	2012
Korey Hall	0.4	0.9	0.0	0.9	6.1	0.0	0.0	0.7	2012
Jeremiah Johnson	0.0	0.0	0.0	0.0	0.0	0.0	0.0	0.0	2012
Dimitri Nance	0.0	0.0	0.0	0.0	0.0	0.0	0.0	0.0	2012
Tristan Davis	0.0	0.0	0.0	0.0	0.0	0.0	0.0	0.0	2012
Michael Hayes	0.0	0.0	0.0	0.0	0.0	0.0	0.0	0.0	2012
Shaun Draughn	0.0	0.0	0.0	0.0	0.0	0.0	0.0	0.0	2012
Darren Evans	0.0	0.0	0.0	0.0	0.0	0.0	0.0	0.0	2012
Shane Bannon	0.0	0.0	0.0	0.0	0.0	0.0	0.0	0.0	2012
Keith Toston	0.0	0.0	0.0	0.0	0.0	0.0	0.0	0.0	2012
J.J. Arrington	0.0	0.0	0.0	0.0	0.0	0.0	0.0	0.0	2012
Andre Brown	0.4	0.0	0.0	0.0	0.0	0.0	0.0	0.0	2012
Javarris James	0.0	0.0	0.0	0.0	0.0	0.0	0.0	0.0	2012
Deon Anderson	0.0	0.0	0.0	0.0	0.0	0.0	0.0	0.0	2012
Stefan Logan	1.6	11.1	0.0	0.0	0.0	0.0	1.3	-1.6	2012
Jalen Parmele	0.0	0.0	0.0	0.0	0.0	0.0	0.8	-1.6	2012
Jeff Demps	0.0	0.0	0.0	0.0	0.0	0.0	0.9	-1.8	2012
Devin Moore	0.0	0.0	0.0	0.0	0.0	0.0	3.1	-6.1	2012
Adrian Peterson	327.0	1652.4	12.7	39.1	280.1	1.4	2.4	273.4	2013
Doug Martin	300.2	1354.0	9.6	53.6	441.7	1.5	1.2	244.1	2013
Arian Foster	294.7	1298.9	11.4	42.1	364.6	1.9	2.0	242.2	2013
C.J. Spiller	262.9	1410.5	7.5	48.6	437.4	2.4	2.5	239.6	2013
Jamaal Charles	252.7	1414.3	6.6	56.9	467.7	2.1	2.5	235.6	2013
Marshawn Lynch	298.6	1429.3	11.3	24.9	195.5	0.9	2.4	230.9	2013
Trent Richardson	291.3	1216.6	9.9	49.1	385.3	1.5	1.7	225.0	2013
Ray Rice	250.4	1152.6	8.2	60.8	494.2	2.1	1.7	222.8	2013
LeSean McCoy	262.0	1202.0	8.4	53.3	408.0	2.2	2.2	219.9	2013
Alfred Morris	313.0	1433.3	11.1	14.8	95.2	0.2	2.6	215.8	2013
Matt Forte	252.1	1128.0	5.3	58.4	465.3	2.4	2.1	201.3	2013
Steven Jackson	246.9	1082.1	8.8	40.2	318.0	0.8	1.0	195.6	2013
Stevan Ridley	272.5	1248.6	10.9	8.9	77.1	0.2	2.4	194.2	2013
Chris Johnson	262.3	1232.6	6.5	39.8	308.2	0.8	2.0	193.5	2013
Reggie Bush	197.4	901.7	5.1	70.6	551.1	3.0	2.1	189.4	2013
Maurice Jones-Drew	267.0	1147.4	6.6	37.8	305.7	1.1	2.2	187.3	2013
DeMarco Murray	233.0	1099.9	7.0	41.0	310.0	0.8	1.9	184.3	2013
Frank Gore	244.7	1096.7	7.6	24.5	202.3	1.0	1.7	178.0	2013
David Wilson	222.2	1071.2	5.8	27.0	258.1	1.6	1.2	174.4	2013
Lamar Miller	220.9	1027.2	6.4	32.7	272.1	1.3	1.3	173.2	2013
Darren McFadden	225.4	1029.6	5.9	38.7	304.8	1.2	2.0	171.9	2013
Darren Sproles	72.5	411.8	2.2	79.7	692.2	6.5	0.7	161.3	2013
Christopher Ivory	207.6	961.1	6.5	14.6	120.5	0.4	1.6	146.6	2013
Rashard Mendenhall	226.0	916.2	6.1	22.5	170.6	0.4	1.4	144.7	2013
Eddie Lacy	194.7	878.6	6.5	21.8	164.6	0.6	1.3	144.4	2013
Ryan Mathews	205.0	878.5	4.9	31.9	249.1	0.6	1.9	142.0	2013
Montee Ball	185.7	827.3	7.0	21.9	171.7	0.5	1.4	141.8	2013
Ahmad Bradshaw	179.3	825.9	5.8	27.8	211.9	0.9	1.4	141.0	2013
Shane Vereen	121.3	527.4	4.1	51.4	441.1	2.5	0.5	135.5	2013
Daryl Richardson	185.7	803.6	4.5	35.9	248.6	1.1	2.0	134.8	2013
Giovani Bernard	164.0	742.3	4.1	38.5	303.2	1.3	1.4	134.2	2013
Andre Brown	146.2	641.8	7.5	20.7	157.4	0.5	1.3	125.0	2013
DeAngelo Williams	175.1	773.6	5.3	18.9	139.6	0.7	1.1	124.8	2013
BenJarvus Green-Ellis	181.6	774.0	6.0	11.6	86.0	0.0	1.2	119.7	2013
Mark Ingram	178.9	749.9	6.4	10.2	62.6	0.1	0.9	118.7	2013
Le'Veon Bell	155.5	695.9	5.0	20.3	149.2	0.9	1.2	117.6	2013
Ronnie Hillman	151.4	639.9	3.3	30.9	232.1	1.1	1.1	111.5	2013
Jonathan Stewart	135.7	621.4	3.9	21.6	196.8	0.7	1.6	106.3	2013
Ben Tate	140.8	652.3	4.7	14.8	104.9	0.2	1.0	103.2	2013
Danny Woodhead	97.6	431.1	2.5	41.8	352.8	1.6	0.4	102.2	2013
Vick Ballard	139.3	561.3	4.3	20.9	154.6	0.8	0.7	101.1	2013
Pierre Thomas	115.8	517.2	3.1	34.4	273.9	0.9	1.2	100.8	2013
Bernard Pierce	144.8	664.0	3.5	13.9	100.4	0.4	0.5	98.9	2013
Fred Jackson	125.1	534.4	3.5	25.2	191.9	0.9	1.5	96.0	2013
Bryce Brown	135.3	595.4	4.1	17.9	121.1	0.5	1.9	95.2	2013
Jacquizz Rodgers	89.6	394.7	1.3	40.5	320.4	1.2	0.6	85.3	2013
Bilal Powell	110.3	457.1	2.5	24.5	175.5	0.6	0.6	80.7	2013
Michael Bush	107.4	405.3	5.1	10.7	88.3	0.3	0.8	80.1	2013
Shonn Greene	112.0	460.2	4.7	9.9	69.5	0.0	1.0	79.6	2013
Isaiah Pead	109.8	527.0	2.7	15.0	113.1	0.2	0.9	79.5	2013
Mikel Leshoure	96.0	420.8	4.9	12.7	85.9	0.0	1.4	77.4	2013
Daniel Thomas	108.0	420.5	3.7	17.1	129.1	0.4	1.3	76.6	2013
Jonathan Dwyer	108.6	449.4	3.2	10.8	84.5	0.2	0.7	72.6	2013
Joique Bell	77.0	333.9	2.4	27.7	212.9	0.7	0.5	72.3	2013
Roy Helu	75.9	333.0	1.6	30.9	219.0	1.1	0.6	70.5	2013
Johnathan Franklin	80.3	357.0	2.0	20.3	160.9	1.1	0.3	69.9	2013
Kendall Hunter	98.4	437.6	2.4	13.7	111.3	0.2	0.5	69.3	2013
LaRod Stephens-Howling	70.8	303.1	1.4	27.6	226.2	1.2	0.3	67.8	2013
Marcel Reece	48.7	202.8	0.8	40.8	329.5	1.9	0.5	67.8	2013
Mike Tolbert	60.6	231.7	4.3	27.0	182.0	0.3	0.8	67.7	2013
Zac Stacy	90.4	384.7	3.1	10.0	78.6	0.3	0.5	65.9	2013
DuJuan Harris	83.8	364.4	2.3	15.8	119.2	0.4	0.3	64.5	2013
Knile Davis	91.0	395.7	2.5	12.3	92.7	0.2	0.6	63.7	2013
Toby Gerhart	74.6	316.1	1.9	18.3	151.6	0.5	0.7	59.8	2013
Isaac Redman	85.8	348.1	2.2	14.7	115.0	0.3	0.9	59.4	2013
Robert Turbin	72.8	331.2	1.5	15.2	126.7	0.5	0.1	57.5	2013
LaMichael James	70.8	326.0	1.8	14.7	115.8	0.6	1.0	56.5	2013
Rashad Jennings	85.8	353.7	1.5	15.4	113.8	0.3	0.7	56.3	2013
Dexter McCluster	22.0	89.0	0.0	51.0	395.0	1.0	0.0	54.4	2013
Ryan Williams	71.4	338.8	1.7	12.4	99.9	0.3	0.9	54.2	2013
Knowshon Moreno	62.5	270.1	1.9	17.8	126.8	0.6	0.6	53.9	2013
Denard Robinson	53.2	266.3	1.2	18.5	163.9	0.5	0.9	51.7	2013
Christine Michael	63.7	302.9	1.9	11.0	84.0	0.1	0.1	50.4	2013
Joseph Randle	63.1	289.5	1.5	13.1	97.6	0.5	0.2	50.3	2013
Lance Dunbar	67.2	281.1	1.5	14.0	92.0	0.5	0.8	48.0	2013
LeGarrette Blount	69.5	297.6	2.7	3.8	19.5	0.0	0.6	46.4	2013
Mike Gillislee	61.1	269.2	1.4	13.6	97.0	0.2	0.5	44.9	2013
Justin Forsett	65.4	287.9	0.7	12.7	87.8	0.2	0.2	42.7	2013
Latavius Murray	53.1	249.8	1.3	10.3	80.5	0.2	0.4	41.7	2013
Brandon Jackson	53.8	217.5	1.3	11.8	94.6	0.4	0.9	39.6	2013
Donald Brown	59.1	251.7	0.9	10.3	83.0	0.2	0.2	39.2	2013
Stepfan Taylor	69.0	264.4	1.3	8.2	52.4	0.0	0.6	38.2	2013
Dion Lewis	36.0	151.1	0.5	16.3	130.2	1.0	0.0	37.4	2013
Ronnie Brown	43.0	186.0	0.5	18.8	162.3	0.1	0.6	36.8	2013
Charles Clay	1.0	4.0	0.0	31.0	286.0	1.0	0.0	35.0	2013
Mike Goodson	30.9	175.5	0.8	11.5	100.5	0.6	0.3	34.9	2013
Mike James	50.8	215.4	1.3	6.7	51.0	0.3	0.5	34.8	2013
John Kuhn	28.1	83.6	1.5	16.5	101.5	1.1	0.3	33.7	2013
Jason Snelling	24.0	118.7	0.6	18.9	138.7	0.8	0.4	33.0	2013
Evan Royster	40.1	169.6	0.8	11.6	87.6	0.4	0.0	32.8	2013
Chris Polk	51.6	232.1	0.9	7.1	48.7	0.0	0.5	32.7	2013
Andre Ellington	38.1	183.9	0.5	10.6	84.7	0.4	0.0	32.1	2013
Montario Hardesty	47.9	199.0	0.8	5.7	43.2	0.0	0.0	29.3	2013
Brian Leonard	35.8	142.4	0.5	19.2	118.5	0.0	0.0	29.1	2013
Phillip Tanner	46.1	183.2	0.7	5.3	46.4	0.1	0.1	27.3	2013
Shaun Draughn	35.0	161.7	0.6	10.1	73.9	0.0	0.7	26.3	2013
Delone Carter	33.7	137.6	1.6	1.8	9.8	0.0	0.0	24.0	2013
Joe McKnight	28.1	139.7	0.4	8.9	82.7	0.0	0.7	23.5	2013
Peyton Hillis	23.4	132.3	1.2	3.6	31.3	0.0	0.0	23.3	2013
Armando Allen	35.1	146.3	0.4	6.8	58.6	0.0	0.0	23.1	2013
Jorvorski Lane	19.0	61.7	1.7	5.7	39.3	0.7	0.7	22.9	2013
Kenjon Barner	33.9	163.2	0.6	4.2	33.7	0.0	0.3	22.8	2013
Chris Ogbonnaya	25.4	109.8	0.1	12.3	110.5	0.2	0.7	22.7	2013
Dennis Johnson	27.5	110.6	1.0	5.6	43.8	0.2	0.4	21.8	2013
Vonta Leach	8.5	25.6	1.0	15.7	117.1	0.2	0.0	21.5	2013
Brandon Bolden	32.4	146.5	1.0	1.0	7.7	0.0	0.0	21.4	2013
Felix Jones	20.8	125.2	0.2	4.5	56.4	0.2	0.0	20.6	2013
James Starks	26.8	142.2	0.3	3.8	25.4	0.3	0.0	20.1	2013
Alex Green	29.5	125.3	0.3	6.0	40.8	0.3	0.0	20.0	2013
Cedric Peerman	25.1	118.5	0.4	4.4	34.3	0.3	0.1	19.1	2013
Leon Washington	22.2	103.8	0.5	7.9	61.0	0.0	0.3	18.9	2013
Will Johnson	4.9	18.2	0.4	10.2	88.0	0.9	0.0	18.6	2013
Bernard Scott	24.4	110.2	0.3	8.6	59.3	0.3	0.8	18.4	2013
Taiwan Jones	0.0	155.0	0.0	0.0	17.0	0.0	0.0	17.2	2013
Anthony Dixon	20.7	78.6	1.4	1.5	9.3	0.0	0.0	17.1	2013
Lance Ball	23.2	95.2	0.6	3.9	31.5	0.3	0.4	16.7	2013
Michael Robinson	10.5	36.9	0.3	10.1	73.9	0.5	0.0	15.9	2013
Jacob Hester	18.7	63.8	0.3	8.4	55.6	0.3	0.0	15.8	2013
Montell Owens	17.3	89.4	0.3	7.1	34.3	0.3	0.3	15.6	2013
Tashard Choice	30.4	115.9	0.3	4.2	28.7	0.0	0.6	15.1	2013
Keiland Williams	14.2	59.1	0.4	4.9	43.6	0.4	0.4	14.6	2013
Jed Collins	2.0	4.7	0.5	9.0	44.3	1.1	0.0	14.5	2013
Orson Charles	1.3	4.0	0.0	9.3	112.4	0.4	0.0	14.2	2013
Da'Rel Scott	21.3	89.1	0.3	3.6	27.9	0.0	0.1	13.8	2013
Darrel Young	12.9	54.7	0.4	4.9	44.0	0.0	0.0	12.5	2013
Le'Ron McClain	17.6	48.0	0.5	7.6	48.9	0.0	0.0	12.4	2013
Ryan Torain	15.7	66.7	0.3	3.7	22.3	0.0	0.0	10.9	2013
Rex Burkhead	15.8	61.1	0.6	1.0	5.5	0.0	0.0	10.4	2013
Travaris Cadet	10.0	39.6	0.2	4.6	38.3	0.1	0.1	9.5	2013
Henry Hynoski	5.0	17.9	0.3	7.7	40.4	0.3	0.0	8.9	2013
Evan Rodriguez	4.7	19.7	0.0	7.0	68.3	0.0	0.0	8.8	2013
Chris Thompson	14.1	61.7	0.1	3.1	19.6	0.0	0.1	8.7	2013
Jeremy Stewart	12.4	52.4	0.1	3.7	28.0	0.0	0.1	8.4	2013
Stanley Havili	4.0	12.3	0.4	6.7	43.7	0.0	0.0	8.2	2013
Miguel Maysonet	14.8	57.0	0.4	0.0	0.0	0.0	0.2	7.9	2013
Cyrus Gray	9.4	48.3	0.3	1.3	11.7	0.0	0.0	7.9	2013
Jerome Felton	7.0	19.5	0.3	5.7	41.5	0.0	0.0	7.7	2013
Benny Cunningham	10.2	39.0	0.2	2.4	18.6	0.1	0.2	7.7	2013
Dorin Dickerson	1.3	6.2	0.0	7.1	70.2	0.0	0.0	7.6	2013
Anthony Allen	11.6	49.5	0.3	1.5	11.3	0.0	0.0	7.6	2013
Cierre Wood	16.0	62.6	0.2	0.5	4.3	0.0	0.1	7.5	2013
Matthew Tucker	13.3	51.7	0.5	0.0	0.0	0.0	0.2	7.5	2013
Michael Cox	10.9	42.8	0.5	0.0	0.0	0.0	0.1	6.9	2013
Chad Spann	12.6	49.1	0.4	0.0	0.0	0.0	0.2	6.8	2013
Bruce Miller	4.4	12.7	0.0	8.0	53.3	0.0	0.0	6.6	2013
Darius Reynaud	3.7	15.4	0.1	4.8	44.9	0.1	0.1	6.6	2013
Jordan Todman	13.0	50.8	0.3	0.0	0.0	0.0	0.2	6.5	2013
Harvey Unga	12.1	47.1	0.4	0.0	0.0	0.0	0.2	6.5	2013
Chris Pressley	4.9	14.3	0.3	2.7	25.0	0.0	0.0	5.9	2013
Kerwynn Williams	11.4	51.2	0.1	0.0	0.0	0.0	0.1	5.6	2013
Shaun Chapas	4.0	11.1	0.0	2.0	42.7	0.0	0.0	5.4	2013
Matt Asiata	6.9	25.6	0.2	2.2	14.6	0.1	0.1	5.3	2013
Owen Marecic	3.6	11.7	0.0	2.7	41.3	0.0	0.0	5.3	2013
Quinn Johnson	4.9	12.3	0.0	5.3	40.5	0.0	0.0	5.3	2013
Tommy Bohanon	1.4	5.4	0.0	4.7	44.7	0.0	0.0	5.0	2013
Michael Smith	10.7	41.8	0.0	1.3	8.0	0.0	0.0	5.0	2013
Jackie Battle	8.8	32.7	0.3	0.0	0.0	0.0	0.1	5.0	2013
Antone Smith	9.2	35.8	0.3	0.0	0.0	0.0	0.1	5.0	2013
Marcus Thigpen	7.0	32.7	0.0	2.3	19.0	0.0	0.3	4.5	2013
Lex Hilliard	7.4	26.0	0.0	2.0	16.7	0.0	0.0	4.3	2013
John Griffin	2.7	12.7	0.0	3.4	28.7	0.0	0.0	4.1	2013
Dan Herron	11.0	41.0	0.0	0.0	0.0	0.0	0.0	4.1	2013
Theo Riddick	8.7	32.9	0.2	0.0	0.0	0.0	0.1	4.1	2013
Anthony Sherman	2.2	8.9	0.0	4.4	30.2	0.0	0.0	3.9	2013
Jalen Parmele	10.7	38.7	0.0	0.0	0.0	0.0	0.0	3.9	2013
Bradie Ewing	3.6	12.0	0.0	3.1	20.4	0.0	0.0	3.2	2013
Erik Lorig	3.6	13.8	0.0	3.1	16.9	0.0	0.0	3.1	2013
James Develin	0.0	0.0	0.0	4.7	30.0	0.0	0.0	3.0	2013
Tony Fiammetta	2.7	12.7	0.0	2.0	16.0	0.0	0.0	2.9	2013
Jamie McCoy	0.0	0.0	0.0	2.0	22.0	0.0	0.0	2.2	2013
Kyle Juszczyk	0.0	0.0	0.0	2.7	21.4	0.0	0.0	2.1	2013
Tyler Clutts	0.0	0.0	0.0	2.7	20.7	0.0	0.0	2.1	2013
Will Ta'ufo'ou	2.0	5.4	0.0	3.4	14.7	0.0	0.0	2.0	2013
John Conner	4.7	19.4	0.0	0.0	0.0	0.0	0.0	1.9	2013
Chris Gronkowski	1.4	4.0	0.0	2.0	10.0	0.0	0.0	1.4	2013
Armond Smith	4.0	12.0	0.0	0.0	0.0	0.0	0.0	1.2	2013
Reagan Maui'a	0.0	0.0	0.0	0.7	8.7	0.0	0.0	0.9	2013
Eddie Williams	0.7	0.7	0.0	0.0	5.4	0.0	0.0	0.6	2013
Robert Hughes	0.7	3.4	0.0	0.7	2.0	0.0	0.0	0.5	2013
Josh Vaughan	1.3	4.4	0.0	0.0	0.0	0.0	0.0	0.4	2013
Allen Bradford	1.4	4.0	0.0	0.0	0.0	0.0	0.0	0.4	2013
Ronnie Wingo	0.0	0.0	0.0	0.0	0.0	0.0	0.0	0.0	2013
Michael Hill	0.0	0.0	0.0	0.0	0.0	0.0	0.0	0.0	2013
Kahlil Bell	0.0	0.0	0.0	0.0	0.0	0.0	0.0	0.0	2013
Davin Meggett	0.0	0.0	0.0	0.0	0.0	0.0	0.0	0.0	2013
Steven Miller	0.0	0.0	0.0	0.0	0.0	0.0	0.0	0.0	2013
Bobby Rainey	0.0	0.0	0.0	0.0	0.0	0.0	0.0	0.0	2013
C.J. Anderson	0.0	0.0	0.0	0.0	0.0	0.0	0.0	0.0	2013
Alfonso Smith	0.0	0.0	0.0	0.0	0.0	0.0	0.0	0.0	2013
Ray Graham	0.0	0.0	0.0	0.0	0.0	0.0	0.0	0.0	2013
Jawan Jamison	0.0	0.0	0.0	0.0	0.0	0.0	0.0	0.0	2013
Tauren Poole	0.0	0.0	0.0	0.0	0.0	0.0	0.0	0.0	2013
Jeremiah Johnson	0.0	0.0	0.0	0.0	0.0	0.0	0.0	0.0	2013
Marcus Lattimore	0.0	0.0	0.0	0.0	0.0	0.0	0.0	0.0	2013
Jeff Demps	0.0	0.0	0.0	0.0	0.0	0.0	0.0	0.0	2013
Khiry Robinson	0.0	0.0	0.0	0.0	0.0	0.0	0.0	0.0	2013
Jonathan Grimes	0.0	0.0	0.0	0.0	0.0	0.0	0.0	0.0	2013
Dominique Whaley	0.0	0.0	0.0	0.0	0.0	0.0	0.0	0.0	2013
Deji Karim	0.0	0.0	0.0	0.0	0.0	0.0	0.0	0.0	2013
D.J. Harper	0.0	0.0	0.0	0.0	0.0	0.0	0.0	0.0	2013
Michael Ford	0.0	0.0	0.0	0.0	0.0	0.0	0.0	0.0	2013
