name	pos	proj	week
Jimmy Graham	TE	15.0	1
Jordan Cameron	TE	12.0	1
Antonio Gates	TE	11.0	1
Greg Olsen	TE	11.0	1
Jared Cook	TE	10.0	1
Anthony Fasano	TE	9.0	1
Jermaine Gresham	TE	9.0	1
Kyle Rudolph	TE	8.0	1
Jason Witten	TE	7.0	1
Vernon Davis	TE	5.0	1
Martellus Bennett	TE	4.0	1
Brent Celek	TE	4.0	1
Brandon Pettigrew	TE	4.0	1
Julius Thomas	TE	4.0	1
Dwayne Allen	TE	3.0	1
Scott Chandler	TE	3.0	1
Charles Clay	TE	3.0	1
Tyler Eifert	TE	3.0	1
Coby Fleener	TE	3.0	1
Zach Miller	TE	3.0	1
Zach Ertz	TE	2.0	1
Luke Stocker	TE	2.0	1
Jacob Tamme	TE	2.0	1
Delanie Walker	TE	2.0	1
Garrett Graham	TE	1.0	1
Travis Kelce	TE	1.0	1
Lance Kendricks	TE	1.0	1
Vance McDonald	TE	1.0	1
Phil Dawson	K	14.0	1
Dan Bailey	K	12.0	1
Randy Bullock	K	12.0	1
Mason Crosby	K	11.0	1
Billy Cundiff	K	11.0	1
Steve Hauschka	K	11.0	1
Mike Nugent	K	11.0	1
Kai Forbath	K	9.0	1
Stephen Gostkowski	K	9.0	1
Adam Vinatieri	K	9.0	1
Robbie Gould	K	8.0	1
Nick Novak	K	8.0	1
Josh Scobee	K	8.0	1
Caleb Sturgis	K	8.0	1
Matt Bryant	K	7.0	1
Dan Carpenter	K	7.0	1
Nick Folk	K	7.0	1
Josh Brown	K	6.0	1
Greg Zuerlein	K	6.0	1
Graham Gano	K	5.0	1
Shaun Suisham	K	5.0	1
Justin Tucker	K	5.0	1
Blair Walsh	K	5.0	1
Sebastian Janikowski	K	4.0	1
Drew Brees	QB	31.6	1
Matt Ryan	QB	30.4	1
Cam Newton	QB	25.6	1
Aaron Rodgers	QB	25.6	1
Robert Griffin III	QB	25.0	1
Peyton Manning	QB	24.4	1
Andrew Luck	QB	23.8	1
Tom Brady	QB	23.2	1
Andy Dalton	QB	23.0	1
Eli Manning	QB	22.8	1
Matthew Stafford	QB	22.4	1
Alex Smith	QB	21.8	1
Tony Romo	QB	21.6	1
Ben Roethlisberger	QB	20.8	1
Carson Palmer	QB	20.4	1
Sam Bradford	QB	20.0	1
Philip Rivers	QB	20.0	1
Colin Kaepernick	QB	19.6	1
Russell Wilson	QB	17.8	1
Jay Cutler	QB	14.6	1
Jake Locker	QB	14.4	1
Joe Flacco	QB	13.6	1
Ryan Tannehill	QB	13.2	1
Christian Ponder	QB	12.6	1
Geno Smith	QB	12.6	1
EJ Manuel	QB	11.0	1
Adrian Peterson	RB	20.0	1
Jamaal Charles	RB	19.0	1
Doug Martin	RB	19.0	1
LeSean McCoy	RB	19.0	1
Frank Gore	RB	18.0	1
C.J. Spiller	RB	18.0	1
Matt Forte	RB	17.0	1
Marshawn Lynch	RB	17.0	1
DeMarco Murray	RB	17.0	1
Reggie Bush	RB	16.0	1
Arian Foster	RB	16.0	1
Steven Jackson	RB	16.0	1
Darren McFadden	RB	16.0	1
Lamar Miller	RB	16.0	1
Alfred Morris	RB	16.0	1
Stevan Ridley	RB	16.0	1
David Wilson	RB	16.0	1
Montee Ball	RB	11.0	1
Ryan Mathews	RB	8.0	1
DeAngelo Williams	RB	8.0	1
Eddie Lacy	RB	7.0	1
Giovani Bernard	RB	6.0	1
Ahmad Bradshaw	RB	6.0	1
Chris Ivory	RB	6.0	1
Bilal Powell	RB	6.0	1
Vick Ballard	RB	5.0	1
Shane Vereen	RB	5.0	1
Danny Woodhead	RB	5.0	1
Joique Bell	RB	4.0	1
Mark Ingram	RB	4.0	1
Marcel Reece	RB	4.0	1
Denard Robinson	RB	4.0	1
Pierre Thomas	RB	4.0	1
Shonn Greene	RB	3.0	1
Roy Helu	RB	3.0	1
Ronnie Hillman	RB	3.0	1
Kendall Hunter	RB	3.0	1
Fred Jackson	RB	3.0	1
Bernard Pierce	RB	3.0	1
Jordan Todman	RB	3.0	1
Mike Tolbert	RB	3.0	1
Joseph Randle	RB	2.0	1
Jacquizz Rodgers	RB	2.0	1
Daniel Thomas	RB	2.0	1
Robert Turbin	RB	2.0	1
Knile Davis	RB	1.0	1
James Starks	RB	1.0	1
Christine Michael	RB	0.0	1
Dez Bryant	WR	17.0	1
Calvin Johnson	WR	17.0	1
Julio Jones	WR	17.0	1
Antonio Brown	WR	16.0	1
Andre Johnson	WR	16.0	1
Danny Amendola	WR	15.0	1
Larry Fitzgerald	WR	15.0	1
Pierre Garcon	WR	15.0	1
A.J. Green	WR	15.0	1
Vincent Jackson	WR	15.0	1
Demaryius Thomas	WR	15.0	1
Dwayne Bowe	WR	14.0	1
Marques Colston	WR	14.0	1
Victor Cruz	WR	14.0	1
Chris Givens	WR	14.0	1
Brandon Marshall	WR	14.0	1
Reggie Wayne	WR	14.0	1
Roddy White	WR	14.0	1
Jordy Nelson	WR	13.0	1
Cecil Shorts	WR	13.0	1
Torrey Smith	WR	13.0	1
Anquan Boldin	WR	12.0	1
Brian Hartline	WR	12.0	1
T.Y. Hilton	WR	12.0	1
Randall Cobb	WR	8.0	1
Tavon Austin	WR	6.0	1
Michael Floyd	WR	6.0	1
Greg Jennings	WR	6.0	1
Mike Wallace	WR	6.0	1
Wes Welker	WR	6.0	1
Malcom Floyd	WR	5.0	1
Alshon Jeffery	WR	5.0	1
Denarius Moore	WR	5.0	1
Nate Washington	WR	5.0	1
Donnie Avery	WR	4.0	1
Riley Cooper	WR	4.0	1
Brandon Gibson	WR	4.0	1
Jacoby Jones	WR	4.0	1
Jeremy Kerley	WR	4.0	1
Rueben Randle	WR	4.0	1
Mohamed Sanu	WR	4.0	1
Kenny Stills	WR	4.0	1
Doug Baldwin	WR	3.0	1
Marlon Brown	WR	3.0	1
Aaron Dobson	WR	3.0	1
DeAndre Hopkins	WR	3.0	1
Keshawn Martin	WR	3.0	1
Santana Moss	WR	3.0	1
Cordarrelle Patterson	WR	3.0	1
Quinton Patton	WR	3.0	1
Jimmy Graham	TE	14.0	2
Jason Witten	TE	13.0	2
Jared Cook	TE	12.0	2
Greg Olsen	TE	11.0	2
Julius Thomas	TE	11.0	2
Brent Celek	TE	10.0	2
Zach Miller	TE	10.0	2
Jordan Cameron	TE	7.0	2
Vernon Davis	TE	7.0	2
Martellus Bennett	TE	5.0	2
Antonio Gates	TE	5.0	2
Charles Clay	TE	4.0	2
Tyler Eifert	TE	4.0	2
Coby Fleener	TE	4.0	2
Jermaine Gresham	TE	4.0	2
Brandon Pettigrew	TE	4.0	2
Scott Chandler	TE	3.0	2
Anthony Fasano	TE	3.0	2
Jordan Reed	TE	3.0	2
Delanie Walker	TE	3.0	2
Zach Ertz	TE	2.0	2
Kyle Rudolph	TE	2.0	2
Luke Stocker	TE	2.0	2
Dwayne Allen	TE	1.0	2
Garrett Graham	TE	1.0	2
Travis Kelce	TE	1.0	2
Lance Kendricks	TE	1.0	2
Vance McDonald	TE	1.0	2
Steve Hauschka	K	14.0	2
Randy Bullock	K	12.0	2
Mason Crosby	K	12.0	2
Josh Brown	K	11.0	2
Sebastian Janikowski	K	11.0	2
Greg Zuerlein	K	11.0	2
Matt Bryant	K	9.0	2
Stephen Gostkowski	K	9.0	2
Robbie Gould	K	9.0	2
Adam Vinatieri	K	9.0	2
Dan Carpenter	K	8.0	2
Kai Forbath	K	8.0	2
Nick Novak	K	8.0	2
Billy Cundiff	K	7.0	2
Blair Walsh	K	7.0	2
Dan Bailey	K	6.0	2
Phil Dawson	K	6.0	2
Mike Nugent	K	6.0	2
Justin Tucker	K	6.0	2
Nick Folk	K	5.0	2
Graham Gano	K	5.0	2
Caleb Sturgis	K	5.0	2
Josh Scobee	K	4.0	2
Peyton Manning	QB	31.2	2
Drew Brees	QB	30.8	2
Robert Griffin III	QB	27.0	2
Colin Kaepernick	QB	26.4	2
Aaron Rodgers	QB	26.4	2
Andrew Luck	QB	24.6	2
Eli Manning	QB	24.0	2
Cam Newton	QB	23.8	2
Matt Ryan	QB	23.6	2
Andy Dalton	QB	23.4	2
Tom Brady	QB	22.4	2
Matthew Stafford	QB	22.4	2
Jay Cutler	QB	21.8	2
Philip Rivers	QB	21.2	2
Sam Bradford	QB	20.8	2
Carson Palmer	QB	20.8	2
Tony Romo	QB	20.8	2
Ben Roethlisberger	QB	19.2	2
Russell Wilson	QB	17.8	2
EJ Manuel	QB	16.6	2
Alex Smith	QB	15.8	2
Jake Locker	QB	14.8	2
Chad Henne	QB	14.0	2
Ryan Tannehill	QB	14.0	2
Joe Flacco	QB	12.8	2
Geno Smith	QB	12.6	2
Christian Ponder	QB	6.6	2
LeSean McCoy	RB	19.0	2
Adrian Peterson	RB	19.0	2
Reggie Bush	RB	18.0	2
Jamaal Charles	RB	18.0	2
Matt Forte	RB	18.0	2
Steven Jackson	RB	18.0	2
Doug Martin	RB	17.0	2
Darren McFadden	RB	17.0	2
Arian Foster	RB	16.0	2
Marshawn Lynch	RB	16.0	2
DeMarco Murray	RB	16.0	2
C.J. Spiller	RB	16.0	2
Frank Gore	RB	15.0	2
Eddie Lacy	RB	15.0	2
Ahmad Bradshaw	RB	14.0	2
Stevan Ridley	RB	14.0	2
Bernard Pierce	RB	11.0	2
Montee Ball	RB	10.0	2
DeAngelo Williams	RB	9.0	2
David Wilson	RB	9.0	2
Lamar Miller	RB	8.0	2
Alfred Morris	RB	8.0	2
Bilal Powell	RB	7.0	2
Ryan Mathews	RB	6.0	2
Pierre Thomas	RB	6.0	2
Joique Bell	RB	5.0	2
Giovani Bernard	RB	5.0	2
Fred Jackson	RB	5.0	2
Chris Ivory	RB	4.0	2
Marcel Reece	RB	4.0	2
Jackie Battle	RB	3.0	2
Roy Helu	RB	3.0	2
Kendall Hunter	RB	3.0	2
Mark Ingram	RB	3.0	2
Stepfan Taylor	RB	3.0	2
Jordan Todman	RB	3.0	2
Mike Tolbert	RB	3.0	2
Robert Turbin	RB	3.0	2
Danny Woodhead	RB	3.0	2
Ronnie Hillman	RB	2.0	2
Jacquizz Rodgers	RB	2.0	2
Daniel Thomas	RB	2.0	2
Cyrus Gray	RB	1.0	2
Isaiah Pead	RB	1.0	2
James Starks	RB	1.0	2
Vincent Jackson	WR	17.0	2
Calvin Johnson	WR	17.0	2
Randall Cobb	WR	16.0	2
Victor Cruz	WR	16.0	2
A.J. Green	WR	16.0	2
Demaryius Thomas	WR	16.0	2
Anquan Boldin	WR	15.0	2
Antonio Brown	WR	15.0	2
Julian Edelman	WR	15.0	2
Pierre Garcon	WR	15.0	2
Andre Johnson	WR	15.0	2
Brandon Marshall	WR	15.0	2
Jordy Nelson	WR	15.0	2
Reggie Wayne	WR	15.0	2
Dez Bryant	WR	14.0	2
Marques Colston	WR	14.0	2
Larry Fitzgerald	WR	14.0	2
Michael Floyd	WR	14.0	2
Brian Hartline	WR	14.0	2
Julio Jones	WR	14.0	2
Cecil Shorts	WR	14.0	2
Tavon Austin	WR	13.0	2
Dwayne Bowe	WR	13.0	2
Torrey Smith	WR	13.0	2
Wes Welker	WR	13.0	2
Malcom Floyd	WR	12.0	2
Alshon Jeffery	WR	12.0	2
Rod Streater	WR	12.0	2
Nate Washington	WR	12.0	2
Chris Givens	WR	6.0	2
T.Y. Hilton	WR	6.0	2
Rueben Randle	WR	6.0	2
Mike Wallace	WR	6.0	2
Doug Baldwin	WR	5.0	2
Harry Douglas	WR	5.0	2
Greg Jennings	WR	5.0	2
Denarius Moore	WR	5.0	2
Eddie Royal	WR	5.0	2
Jerome Simpson	WR	5.0	2
Donnie Avery	WR	4.0	2
Brandon Gibson	WR	4.0	2
DeAndre Hopkins	WR	4.0	2
Mohamed Sanu	WR	4.0	2
Kenny Stills	WR	4.0	2
Roddy White	WR	4.0	2
Robert Woods	WR	4.0	2
Riley Cooper	WR	3.0	2
Aaron Dobson	WR	3.0	2
Santana Moss	WR	3.0	2
Austin Pettis	WR	3.0	2
Jimmy Graham	TE	15.0	3
Jared Cook	TE	13.0	3
Greg Olsen	TE	13.0	3
Martellus Bennett	TE	11.0	3
Tyler Eifert	TE	11.0	3
Antonio Gates	TE	11.0	3
Julius Thomas	TE	11.0	3
Jason Witten	TE	7.0	3
Jordan Cameron	TE	6.0	3
Coby Fleener	TE	5.0	3
Jermaine Gresham	TE	5.0	3
Brent Celek	TE	4.0	3
Charles Clay	TE	4.0	3
Vernon Davis	TE	4.0	3
Zach Miller	TE	4.0	3
Brandon Pettigrew	TE	4.0	3
Jordan Reed	TE	4.0	3
Scott Chandler	TE	3.0	3
Zach Ertz	TE	3.0	3
Robert Housler	TE	3.0	3
Heath Miller	TE	3.0	3
Delanie Walker	TE	3.0	3
Garrett Graham	TE	2.0	3
Travis Kelce	TE	2.0	3
Vance McDonald	TE	2.0	3
Mychal Rivera	TE	2.0	3
Kyle Rudolph	TE	2.0	3
Luke Stocker	TE	2.0	3
Rob Gronkowski	TE	1.0	3
Lance Kendricks	TE	1.0	3
Dan Bailey	K	12.0	3
Nick Novak	K	12.0	3
Matt Bryant	K	11.0	3
Randy Bullock	K	11.0	3
Stephen Gostkowski	K	11.0	3
Robbie Gould	K	11.0	3
Mike Nugent	K	11.0	3
Adam Vinatieri	K	11.0	3
Phil Dawson	K	9.0	3
Steve Hauschka	K	9.0	3
Josh Brown	K	8.0	3
Caleb Sturgis	K	8.0	3
Justin Tucker	K	8.0	3
Sebastian Janikowski	K	7.0	3
Mason Crosby	K	6.0	3
Billy Cundiff	K	6.0	3
Graham Gano	K	6.0	3
Josh Scobee	K	6.0	3
Blair Walsh	K	6.0	3
Greg Zuerlein	K	6.0	3
Nick Folk	K	5.0	3
Shaun Suisham	K	5.0	3
Dan Carpenter	K	4.0	3
Aaron Rodgers	QB	32.8	3
Peyton Manning	QB	31.6	3
Drew Brees	QB	30.8	3
Robert Griffin III	QB	25.2	3
Andy Dalton	QB	24.6	3
Eli Manning	QB	24.4	3
Cam Newton	QB	24.2	3
Matt Ryan	QB	24.0	3
Colin Kaepernick	QB	23.8	3
Alex Smith	QB	23.6	3
Philip Rivers	QB	23.2	3
Tom Brady	QB	22.8	3
Matthew Stafford	QB	22.4	3
Andrew Luck	QB	22.0	3
Tony Romo	QB	22.0	3
Sam Bradford	QB	21.6	3
Jay Cutler	QB	21.4	3
Carson Palmer	QB	20.8	3
Ryan Tannehill	QB	20.4	3
Ben Roethlisberger	QB	19.6	3
EJ Manuel	QB	16.2	3
Jake Locker	QB	15.2	3
Russell Wilson	QB	15.0	3
Geno Smith	QB	14.4	3
Joe Flacco	QB	14.0	3
Brian Hoyer	QB	6.6	3
Christian Ponder	QB	6.2	3
Chad Henne	QB	5.2	3
Adrian Peterson	RB	25.0	3
Jamaal Charles	RB	19.0	3
Matt Forte	RB	18.0	3
Marshawn Lynch	RB	18.0	3
Doug Martin	RB	18.0	3
LeSean McCoy	RB	18.0	3
Joique Bell	RB	17.0	3
Frank Gore	RB	17.0	3
DeMarco Murray	RB	16.0	3
Bernard Pierce	RB	15.0	3
DeAngelo Williams	RB	15.0	3
Alfred Morris	RB	14.0	3
Bilal Powell	RB	14.0	3
Darren McFadden	RB	10.0	3
C.J. Spiller	RB	10.0	3
Arian Foster	RB	9.0	3
Lamar Miller	RB	9.0	3
Ryan Mathews	RB	7.0	3
Stevan Ridley	RB	7.0	3
James Starks	RB	7.0	3
Giovani Bernard	RB	6.0	3
Jacquizz Rodgers	RB	6.0	3
Pierre Thomas	RB	6.0	3
David Wilson	RB	6.0	3
Ahmad Bradshaw	RB	5.0	3
Reggie Bush	RB	5.0	3
Andre Ellington	RB	5.0	3
Chris Ivory	RB	5.0	3
Fred Jackson	RB	5.0	3
Danny Woodhead	RB	5.0	3
Montee Ball	RB	4.0	3
Jordan Todman	RB	4.0	3
Robert Turbin	RB	4.0	3
Jackie Battle	RB	3.0	3
Kendall Hunter	RB	3.0	3
Isaiah Pead	RB	3.0	3
Trent Richardson	RB	3.0	3
Mike Tolbert	RB	3.0	3
Roy Helu	RB	2.0	3
Marcel Reece	RB	2.0	3
Daniel Thomas	RB	2.0	3
Cyrus Gray	RB	1.0	3
Ronnie Hillman	RB	1.0	3
Mark Ingram	RB	1.0	3
Calvin Johnson	WR	19.0	3
A.J. Green	WR	17.0	3
Demaryius Thomas	WR	17.0	3
Dez Bryant	WR	16.0	3
Victor Cruz	WR	16.0	3
Pierre Garcon	WR	16.0	3
Julio Jones	WR	16.0	3
Dwayne Bowe	WR	15.0	3
Julian Edelman	WR	15.0	3
Andre Johnson	WR	15.0	3
Jordy Nelson	WR	15.0	3
Anquan Boldin	WR	14.0	3
Marques Colston	WR	14.0	3
Michael Floyd	WR	14.0	3
Chris Givens	WR	14.0	3
Vincent Jackson	WR	14.0	3
Torrey Smith	WR	14.0	3
Mike Wallace	WR	14.0	3
Reggie Wayne	WR	14.0	3
Antonio Brown	WR	13.0	3
Larry Fitzgerald	WR	13.0	3
Brian Hartline	WR	13.0	3
Eddie Royal	WR	13.0	3
Wes Welker	WR	13.0	3
Nate Washington	WR	12.0	3
Jerome Simpson	WR	11.0	3
Randall Cobb	WR	10.0	3
DeAndre Hopkins	WR	8.0	3
Brandon Marshall	WR	7.0	3
Rod Streater	WR	7.0	3
Tavon Austin	WR	6.0	3
Alshon Jeffery	WR	6.0	3
Rueben Randle	WR	6.0	3
Kendall Wright	WR	6.0	3
Doug Baldwin	WR	5.0	3
Marlon Brown	WR	5.0	3
Harry Douglas	WR	5.0	3
T.Y. Hilton	WR	5.0	3
Greg Jennings	WR	5.0	3
Denarius Moore	WR	5.0	3
Donnie Avery	WR	4.0	3
Brandon Gibson	WR	4.0	3
Josh Gordon	WR	4.0	3
Austin Pettis	WR	4.0	3
Mohamed Sanu	WR	4.0	3
Cecil Shorts	WR	4.0	3
Kenny Stills	WR	4.0	3
Roddy White	WR	4.0	3
Keenan Allen	WR	3.0	3
Riley Cooper	WR	3.0	3
Jimmy Graham	TE	15.0	4
Jason Witten	TE	13.0	4
Jared Cook	TE	12.0	4
Antonio Gates	TE	12.0	4
Martellus Bennett	TE	11.0	4
Coby Fleener	TE	10.0	4
Heath Miller	TE	10.0	4
Charles Clay	TE	9.0	4
Kyle Rudolph	TE	8.0	4
Jordan Cameron	TE	7.0	4
Vernon Davis	TE	5.0	4
Julius Thomas	TE	5.0	4
Brent Celek	TE	4.0	4
Scott Chandler	TE	4.0	4
Rob Gronkowski	TE	4.0	4
Zach Miller	TE	4.0	4
Tyler Eifert	TE	3.0	4
Zach Ertz	TE	3.0	4
Jermaine Gresham	TE	3.0	4
Robert Housler	TE	3.0	4
Marcedes Lewis	TE	3.0	4
Brandon Pettigrew	TE	3.0	4
Mychal Rivera	TE	3.0	4
Delanie Walker	TE	3.0	4
Garrett Graham	TE	2.0	4
Vance McDonald	TE	2.0	4
Jordan Reed	TE	2.0	4
Lance Kendricks	TE	1.0	4
Shaun Suisham	K	14.0	4
Dan Bailey	K	12.0	4
Blair Walsh	K	11.0	4
Greg Zuerlein	K	11.0	4
Robbie Gould	K	9.0	4
Nick Novak	K	9.0	4
Justin Tucker	K	9.0	4
Adam Vinatieri	K	9.0	4
Josh Brown	K	8.0	4
Dan Carpenter	K	8.0	4
Phil Dawson	K	8.0	4
Stephen Gostkowski	K	8.0	4
Steve Hauschka	K	8.0	4
Caleb Sturgis	K	8.0	4
Billy Cundiff	K	7.0	4
Josh Scobee	K	7.0	4
Matt Bryant	K	6.0	4
Sebastian Janikowski	K	6.0	4
Mike Nugent	K	6.0	4
Randy Bullock	K	5.0	4
Nick Folk	K	5.0	4
Peyton Manning	QB	31.6	4
Drew Brees	QB	31.2	4
Robert Griffin III	QB	26.0	4
Tony Romo	QB	24.4	4
Matthew Stafford	QB	24.4	4
Andy Dalton	QB	23.8	4
Eli Manning	QB	23.6	4
Matt Ryan	QB	23.2	4
Sam Bradford	QB	22.8	4
Tom Brady	QB	22.8	4
Joe Flacco	QB	22.0	4
Jake Locker	QB	21.8	4
Jay Cutler	QB	21.4	4
Andrew Luck	QB	20.8	4
Philip Rivers	QB	20.4	4
Ben Roethlisberger	QB	20.4	4
Ryan Tannehill	QB	20.0	4
Colin Kaepernick	QB	18.2	4
EJ Manuel	QB	17.2	4
Alex Smith	QB	16.8	4
Russell Wilson	QB	16.2	4
Geno Smith	QB	14.8	4
Brian Hoyer	QB	14.2	4
Carson Palmer	QB	13.6	4
Mike Glennon	QB	12.8	4
Matt Cassel	QB	12.4	4
Jamaal Charles	RB	20.0	4
Darren McFadden	RB	19.0	4
Matt Forte	RB	18.0	4
Doug Martin	RB	18.0	4
LeSean McCoy	RB	18.0	4
Adrian Peterson	RB	18.0	4
Frank Gore	RB	17.0	4
Marshawn Lynch	RB	17.0	4
Reggie Bush	RB	16.0	4
DeMarco Murray	RB	16.0	4
Bilal Powell	RB	16.0	4
Trent Richardson	RB	16.0	4
Giovani Bernard	RB	14.0	4
Joique Bell	RB	13.0	4
Alfred Morris	RB	13.0	4
Arian Foster	RB	12.0	4
Lamar Miller	RB	8.0	4
Brandon Bolden	RB	7.0	4
C.J. Spiller	RB	7.0	4
Pierre Thomas	RB	7.0	4
Fred Jackson	RB	6.0	4
Ryan Mathews	RB	6.0	4
Jacquizz Rodgers	RB	6.0	4
Le'Veon Bell	RB	5.0	4
Isaiah Pead	RB	5.0	4
Bernard Pierce	RB	5.0	4
Stevan Ridley	RB	5.0	4
David Wilson	RB	5.0	4
Danny Woodhead	RB	5.0	4
Andre Ellington	RB	4.0	4
Daniel Thomas	RB	4.0	4
Montee Ball	RB	3.0	4
Jackie Battle	RB	3.0	4
Roy Helu	RB	3.0	4
Kendall Hunter	RB	3.0	4
Jordan Todman	RB	3.0	4
Ronnie Hillman	RB	2.0	4
Marcel Reece	RB	2.0	4
Robert Turbin	RB	2.0	4
Knile Davis	RB	1.0	4
Mark Ingram	RB	1.0	4
Demaryius Thomas	WR	18.0	4
Dez Bryant	WR	17.0	4
Calvin Johnson	WR	17.0	4
Julio Jones	WR	17.0	4
Victor Cruz	WR	16.0	4
Brandon Marshall	WR	16.0	4
Antonio Brown	WR	15.0	4
Pierre Garcon	WR	15.0	4
Torrey Smith	WR	15.0	4
Mike Wallace	WR	15.0	4
Anquan Boldin	WR	14.0	4
Dwayne Bowe	WR	14.0	4
Josh Gordon	WR	14.0	4
A.J. Green	WR	14.0	4
Denarius Moore	WR	14.0	4
Marques Colston	WR	13.0	4
Vincent Jackson	WR	13.0	4
Eddie Royal	WR	13.0	4
Reggie Wayne	WR	13.0	4
Wes Welker	WR	13.0	4
Kendall Wright	WR	13.0	4
Marlon Brown	WR	12.0	4
Chris Givens	WR	12.0	4
Rod Streater	WR	12.0	4
Doug Baldwin	WR	11.0	4
Julian Edelman	WR	7.0	4
Brian Hartline	WR	7.0	4
Andre Johnson	WR	7.0	4
Nate Washington	WR	7.0	4
Tavon Austin	WR	6.0	4
Larry Fitzgerald	WR	6.0	4
Michael Floyd	WR	6.0	4
Donnie Avery	WR	5.0	4
Aaron Dobson	WR	5.0	4
Harry Douglas	WR	5.0	4
DeAndre Hopkins	WR	5.0	4
Greg Jennings	WR	5.0	4
Santana Moss	WR	5.0	4
Rueben Randle	WR	5.0	4
Mohamed Sanu	WR	5.0	4
Cecil Shorts	WR	5.0	4
Ryan Broyles	WR	4.0	4
Riley Cooper	WR	4.0	4
T.Y. Hilton	WR	4.0	4
Alshon Jeffery	WR	4.0	4
Jerome Simpson	WR	4.0	4
Kenny Stills	WR	4.0	4
Terrance Williams	WR	4.0	4
Robert Woods	WR	4.0	4
Keenan Allen	WR	3.0	4
Jimmy Graham	TE	14.0	5
Jordan Cameron	TE	13.0	5
Jared Cook	TE	12.0	5
Antonio Gates	TE	12.0	5
Julius Thomas	TE	12.0	5
Martellus Bennett	TE	11.0	5
Coby Fleener	TE	11.0	5
Greg Olsen	TE	11.0	5
Charles Clay	TE	10.0	5
Vernon Davis	TE	7.0	5
Jason Witten	TE	7.0	5
Brent Celek	TE	4.0	5
Jermaine Gresham	TE	4.0	5
Scott Chandler	TE	3.0	5
Tyler Eifert	TE	3.0	5
Garrett Graham	TE	3.0	5
Robert Housler	TE	3.0	5
Marcedes Lewis	TE	3.0	5
Brandon Pettigrew	TE	3.0	5
Mychal Rivera	TE	3.0	5
Delanie Walker	TE	3.0	5
Zach Ertz	TE	2.0	5
Zach Miller	TE	2.0	5
Rob Gronkowski	TE	1.0	5
Billy Cundiff	K	14.0	5
Phil Dawson	K	11.0	5
Graham Gano	K	11.0	5
Mike Nugent	K	11.0	5
Justin Tucker	K	11.0	5
Adam Vinatieri	K	11.0	5
Dan Bailey	K	9.0	5
Josh Brown	K	9.0	5
Mason Crosby	K	9.0	5
Robbie Gould	K	9.0	5
Greg Zuerlein	K	9.0	5
Randy Bullock	K	8.0	5
Dan Carpenter	K	8.0	5
Steve Hauschka	K	8.0	5
Sebastian Janikowski	K	8.0	5
Nick Folk	K	7.0	5
Matt Bryant	K	6.0	5
Stephen Gostkowski	K	6.0	5
Nick Novak	K	6.0	5
Caleb Sturgis	K	6.0	5
Josh Scobee	K	4.0	5
Peyton Manning	QB	38.4	5
Aaron Rodgers	QB	31.0	5
Tony Romo	QB	24.8	5
Cam Newton	QB	24.6	5
Drew Brees	QB	24.4	5
Matthew Stafford	QB	24.4	5
Eli Manning	QB	23.6	5
Matt Ryan	QB	23.2	5
Tom Brady	QB	22.8	5
Brian Hoyer	QB	22.8	5
Ryan Tannehill	QB	22.6	5
Sam Bradford	QB	22.4	5
Joe Flacco	QB	22.4	5
Philip Rivers	QB	22.0	5
Carson Palmer	QB	21.2	5
Jay Cutler	QB	20.4	5
Andrew Luck	QB	20.2	5
Colin Kaepernick	QB	18.2	5
Alex Smith	QB	17.6	5
Russell Wilson	QB	17.0	5
Andy Dalton	QB	16.6	5
EJ Manuel	QB	16.4	5
Geno Smith	QB	13.8	5
Jamaal Charles	RB	19.0	5
LeSean McCoy	RB	18.0	5
Reggie Bush	RB	17.0	5
Matt Forte	RB	17.0	5
Arian Foster	RB	16.0	5
Frank Gore	RB	16.0	5
Marshawn Lynch	RB	16.0	5
DeMarco Murray	RB	15.0	5
Eddie Lacy	RB	14.0	5
Lamar Miller	RB	14.0	5
Joique Bell	RB	13.0	5
Giovani Bernard	RB	13.0	5
Fred Jackson	RB	13.0	5
Trent Richardson	RB	9.0	5
David Wilson	RB	9.0	5
Bilal Powell	RB	8.0	5
Ryan Mathews	RB	7.0	5
DeAngelo Williams	RB	7.0	5
C.J. Spiller	RB	6.0	5
Brandon Bolden	RB	5.0	5
Andre Ellington	RB	5.0	5
Jacquizz Rodgers	RB	5.0	5
Pierre Thomas	RB	5.0	5
Danny Woodhead	RB	5.0	5
Isaiah Pead	RB	4.0	5
Jackie Battle	RB	3.0	5
Ronnie Hillman	RB	3.0	5
Kendall Hunter	RB	3.0	5
Bernard Pierce	RB	3.0	5
Daniel Thomas	RB	3.0	5
Montee Ball	RB	2.0	5
Marcel Reece	RB	2.0	5
Zac Stacy	RB	2.0	5
Jordan Todman	RB	2.0	5
Mike Tolbert	RB	2.0	5
Robert Turbin	RB	2.0	5
Benny Cunningham	RB	1.0	5
Knile Davis	RB	1.0	5
Dez Bryant	WR	17.0	5
Calvin Johnson	WR	17.0	5
Demaryius Thomas	WR	17.0	5
Victor Cruz	WR	16.0	5
Brandon Marshall	WR	16.0	5
Randall Cobb	WR	15.0	5
Josh Gordon	WR	15.0	5
Julio Jones	WR	15.0	5
Torrey Smith	WR	15.0	5
Marques Colston	WR	14.0	5
Larry Fitzgerald	WR	14.0	5
Wes Welker	WR	14.0	5
Anquan Boldin	WR	13.0	5
A.J. Green	WR	13.0	5
Denarius Moore	WR	13.0	5
Jordy Nelson	WR	13.0	5
Nate Washington	WR	13.0	5
Kendall Wright	WR	13.0	5
Tavon Austin	WR	12.0	5
Julian Edelman	WR	12.0	5
Reggie Wayne	WR	12.0	5
Donnie Avery	WR	11.0	5
Andre Johnson	WR	8.0	5
Brian Hartline	WR	7.0	5
Cecil Shorts	WR	7.0	5
Mike Wallace	WR	7.0	5
Dwayne Bowe	WR	6.0	5
Jeremy Kerley	WR	6.0	5
Eddie Royal	WR	6.0	5
Terrance Williams	WR	6.0	5
Marlon Brown	WR	5.0	5
Harry Douglas	WR	5.0	5
Michael Floyd	WR	5.0	5
Chris Givens	WR	5.0	5
DeAndre Hopkins	WR	5.0	5
Alshon Jeffery	WR	5.0	5
Austin Pettis	WR	5.0	5
Mohamed Sanu	WR	5.0	5
Rod Streater	WR	5.0	5
Robert Woods	WR	5.0	5
Danny Amendola	WR	4.0	5
Doug Baldwin	WR	4.0	5
Justin Blackmon	WR	4.0	5
Ryan Broyles	WR	4.0	5
Aaron Dobson	WR	4.0	5
T.Y. Hilton	WR	4.0	5
Rueben Randle	WR	4.0	5
Kenny Stills	WR	4.0	5
Keenan Allen	WR	3.0	5
Brandon Gibson	WR	3.0	5
Jimmy Graham	TE	15.0	6
Vernon Davis	TE	13.0	6
Jason Witten	TE	13.0	6
Antonio Gates	TE	12.0	6
Heath Miller	TE	12.0	6
Greg Olsen	TE	12.0	6
Martellus Bennett	TE	11.0	6
Garrett Graham	TE	11.0	6
Julius Thomas	TE	11.0	6
Brent Celek	TE	10.0	6
Jordan Cameron	TE	7.0	6
Tyler Eifert	TE	4.0	6
Coby Fleener	TE	4.0	6
Brandon Pettigrew	TE	4.0	6
Jordan Reed	TE	4.0	6
Delanie Walker	TE	4.0	6
Scott Chandler	TE	3.0	6
Jeff Cumberland	TE	3.0	6
Jermaine Gresham	TE	3.0	6
Rob Gronkowski	TE	3.0	6
Clay Harbor	TE	3.0	6
Jared Cook	TE	2.0	6
Zach Ertz	TE	2.0	6
Robert Housler	TE	2.0	6
Lance Kendricks	TE	2.0	6
Mychal Rivera	TE	2.0	6
Kyle Rudolph	TE	2.0	6
Robbie Gould	K	12.0	6
Nick Folk	K	11.0	6
Adam Vinatieri	K	11.0	6
Mason Crosby	K	9.0	6
Nick Novak	K	9.0	6
Josh Brown	K	8.0	6
Graham Gano	K	8.0	6
Steve Hauschka	K	8.0	6
Justin Tucker	K	8.0	6
Dan Bailey	K	7.0	6
Greg Zuerlein	K	7.0	6
Randy Bullock	K	6.0	6
Phil Dawson	K	6.0	6
Kai Forbath	K	6.0	6
Stephen Gostkowski	K	6.0	6
Mike Nugent	K	6.0	6
Blair Walsh	K	6.0	6
Billy Cundiff	K	5.0	6
Sebastian Janikowski	K	5.0	6
Shaun Suisham	K	5.0	6
Dan Carpenter	K	4.0	6
Josh Scobee	K	3.0	6
Peyton Manning	QB	32.0	6
Tony Romo	QB	30.8	6
Robert Griffin III	QB	25.0	6
Cam Newton	QB	25.0	6
Drew Brees	QB	24.8	6
Aaron Rodgers	QB	24.6	6
Eli Manning	QB	23.2	6
Alex Smith	QB	23.2	6
Andy Dalton	QB	23.0	6
Andrew Luck	QB	22.6	6
Tom Brady	QB	22.4	6
Philip Rivers	QB	22.0	6
Jay Cutler	QB	21.6	6
Chad Henne	QB	20.8	6
Ben Roethlisberger	QB	20.4	6
Russell Wilson	QB	17.0	6
Matthew Stafford	QB	16.8	6
Nick Foles	QB	16.0	6
Colin Kaepernick	QB	15.6	6
Mike Glennon	QB	15.2	6
Joe Flacco	QB	14.4	6
Geno Smith	QB	14.2	6
Matt Cassel	QB	12.8	6
Sam Bradford	QB	12.4	6
Carson Palmer	QB	12.4	6
Arian Foster	RB	19.0	6
Jamaal Charles	RB	18.0	6
Matt Forte	RB	17.0	6
Doug Martin	RB	17.0	6
LeSean McCoy	RB	17.0	6
Adrian Peterson	RB	17.0	6
Frank Gore	RB	16.0	6
Marshawn Lynch	RB	16.0	6
DeMarco Murray	RB	16.0	6
Giovani Bernard	RB	14.0	6
Fred Jackson	RB	14.0	6
Eddie Lacy	RB	14.0	6
Joique Bell	RB	13.0	6
Trent Richardson	RB	9.0	6
Le'Veon Bell	RB	8.0	6
Reggie Bush	RB	8.0	6
DeAngelo Williams	RB	8.0	6
Alfred Morris	RB	7.0	6
C.J. Spiller	RB	7.0	6
Pierre Thomas	RB	7.0	6
Danny Woodhead	RB	7.0	6
Bilal Powell	RB	6.0	6
Andre Ellington	RB	5.0	6
Zac Stacy	RB	5.0	6
Montee Ball	RB	4.0	6
Brandon Bolden	RB	4.0	6
Stevan Ridley	RB	4.0	6
Jackie Battle	RB	3.0	6
Roy Helu	RB	3.0	6
Ronnie Hillman	RB	3.0	6
Kendall Hunter	RB	3.0	6
Chris Ivory	RB	3.0	6
Bernard Pierce	RB	3.0	6
Marcel Reece	RB	3.0	6
Jordan Todman	RB	2.0	6
Mike Tolbert	RB	2.0	6
Knile Davis	RB	1.0	6
Darren McFadden	RB	1.0	6
Joseph Randle	RB	1.0	6
Robert Turbin	RB	1.0	6
Dez Bryant	WR	17.0	6
Victor Cruz	WR	16.0	6
Pierre Garcon	WR	16.0	6
Demaryius Thomas	WR	16.0	6
Vincent Jackson	WR	15.0	6
Andre Johnson	WR	15.0	6
Calvin Johnson	WR	15.0	6
Brandon Marshall	WR	15.0	6
Cecil Shorts	WR	15.0	6
Torrey Smith	WR	15.0	6
Justin Blackmon	WR	14.0	6
Randall Cobb	WR	14.0	6
Josh Gordon	WR	14.0	6
A.J. Green	WR	14.0	6
Jordy Nelson	WR	14.0	6
Reggie Wayne	WR	14.0	6
Wes Welker	WR	14.0	6
Greg Jennings	WR	13.0	6
Denarius Moore	WR	13.0	6
Dwayne Bowe	WR	12.0	6
T.Y. Hilton	WR	12.0	6
Santana Moss	WR	12.0	6
Austin Pettis	WR	11.0	6
Terrance Williams	WR	11.0	6
Danny Amendola	WR	8.0	6
Antonio Brown	WR	8.0	6
Alshon Jeffery	WR	8.0	6
Marques Colston	WR	7.0	6
Larry Fitzgerald	WR	7.0	6
Anquan Boldin	WR	6.0	6
Jeremy Kerley	WR	6.0	6
Robert Woods	WR	6.0	6
Kendall Wright	WR	6.0	6
Keenan Allen	WR	5.0	6
Donnie Avery	WR	5.0	6
Marlon Brown	WR	5.0	6
Michael Floyd	WR	5.0	6
Chris Givens	WR	5.0	6
DeAndre Hopkins	WR	5.0	6
Rueben Randle	WR	5.0	6
Eddie Royal	WR	5.0	6
Mohamed Sanu	WR	5.0	6
Jerome Simpson	WR	5.0	6
Rod Streater	WR	5.0	6
Nate Washington	WR	5.0	6
Tavon Austin	WR	4.0	6
Doug Baldwin	WR	4.0	6
Kenny Stills	WR	4.0	6
Ryan Broyles	WR	3.0	6
Julian Edelman	WR	3.0	6
Antonio Gates	TE	13.0	7
Jason Witten	TE	12.0	7
Martellus Bennett	TE	11.0	7
Rob Gronkowski	TE	11.0	7
Heath Miller	TE	11.0	7
Jordan Reed	TE	11.0	7
Julius Thomas	TE	11.0	7
Scott Chandler	TE	10.0	7
Charles Clay	TE	10.0	7
Kyle Rudolph	TE	9.0	7
Joseph Fauria	TE	8.0	7
Vernon Davis	TE	7.0	7
Jordan Cameron	TE	6.0	7
Greg Olsen	TE	5.0	7
Jeff Cumberland	TE	4.0	7
Zach Ertz	TE	4.0	7
Coby Fleener	TE	4.0	7
Garrett Graham	TE	4.0	7
Zach Miller	TE	4.0	7
Robert Housler	TE	3.0	7
Marcedes Lewis	TE	3.0	7
Brandon Pettigrew	TE	3.0	7
Delanie Walker	TE	3.0	7
Brent Celek	TE	2.0	7
Jared Cook	TE	2.0	7
Tyler Eifert	TE	2.0	7
Jermaine Gresham	TE	2.0	7
Lance Kendricks	TE	2.0	7
Anthony Fasano	TE	1.0	7
Robbie Gould	K	12.0	7
Nick Folk	K	11.0	7
Graham Gano	K	11.0	7
Steve Hauschka	K	11.0	7
Mike Nugent	K	11.0	7
Justin Tucker	K	11.0	7
Mason Crosby	K	9.0	7
Nick Novak	K	9.0	7
Shaun Suisham	K	9.0	7
Adam Vinatieri	K	9.0	7
Matt Bryant	K	8.0	7
Dan Carpenter	K	8.0	7
Phil Dawson	K	8.0	7
Josh Scobee	K	8.0	7
Dan Bailey	K	7.0	7
Josh Brown	K	6.0	7
Stephen Gostkowski	K	6.0	7
Caleb Sturgis	K	6.0	7
Randy Bullock	K	5.0	7
Billy Cundiff	K	5.0	7
Greg Zuerlein	K	5.0	7
Kai Forbath	K	3.0	7
Blair Walsh	K	3.0	7
Peyton Manning	QB	31.4	7
Tony Romo	QB	30.4	7
Andrew Luck	QB	25.6	7
Robert Griffin III	QB	25.4	7
Aaron Rodgers	QB	24.2	7
Philip Rivers	QB	22.4	7
Matt Ryan	QB	22.4	7
Matthew Stafford	QB	22.4	7
Jay Cutler	QB	22.2	7
Nick Foles	QB	21.8	7
Mike Glennon	QB	21.6	7
Eli Manning	QB	21.6	7
Chad Henne	QB	20.8	7
Tom Brady	QB	20.4	7
Ryan Tannehill	QB	20.4	7
Ben Roethlisberger	QB	20.0	7
Russell Wilson	QB	18.8	7
Cam Newton	QB	18.6	7
Alex Smith	QB	17.8	7
Colin Kaepernick	QB	17.4	7
Andy Dalton	QB	16.6	7
Geno Smith	QB	14.0	7
Sam Bradford	QB	13.6	7
Joe Flacco	QB	13.2	7
Carson Palmer	QB	10.8	7
Adrian Peterson	RB	26.0	7
LeSean McCoy	RB	19.0	7
Jamaal Charles	RB	18.0	7
Reggie Bush	RB	17.0	7
Arian Foster	RB	17.0	7
Frank Gore	RB	17.0	7
Matt Forte	RB	16.0	7
Fred Jackson	RB	16.0	7
Marshawn Lynch	RB	16.0	7
Doug Martin	RB	16.0	7
DeAngelo Williams	RB	16.0	7
Eddie Lacy	RB	15.0	7
Bilal Powell	RB	15.0	7
Giovani Bernard	RB	14.0	7
Alfred Morris	RB	13.0	7
Stevan Ridley	RB	12.0	7
Zac Stacy	RB	8.0	7
Le'Veon Bell	RB	7.0	7
Lamar Miller	RB	7.0	7
Joseph Randle	RB	7.0	7
Andre Ellington	RB	6.0	7
Ryan Mathews	RB	6.0	7
Trent Richardson	RB	6.0	7
Jacquizz Rodgers	RB	6.0	7
C.J. Spiller	RB	6.0	7
Danny Woodhead	RB	6.0	7
Chris Ivory	RB	5.0	7
Brandon Bolden	RB	4.0	7
Ronnie Hillman	RB	4.0	7
Jackie Battle	RB	3.0	7
Joique Bell	RB	3.0	7
Roy Helu	RB	3.0	7
Kendall Hunter	RB	3.0	7
Bernard Pierce	RB	2.0	7
Daniel Thomas	RB	2.0	7
Mike Tolbert	RB	2.0	7
Montee Ball	RB	1.0	7
Knile Davis	RB	1.0	7
Robert Turbin	RB	1.0	7
Dez Bryant	WR	18.0	7
Victor Cruz	WR	17.0	7
Justin Blackmon	WR	16.0	7
Brandon Marshall	WR	16.0	7
Reggie Wayne	WR	16.0	7
Keenan Allen	WR	15.0	7
Pierre Garcon	WR	15.0	7
Josh Gordon	WR	15.0	7
Vincent Jackson	WR	15.0	7
Jordy Nelson	WR	15.0	7
Demaryius Thomas	WR	15.0	7
Julian Edelman	WR	14.0	7
A.J. Green	WR	14.0	7
T.Y. Hilton	WR	14.0	7
Torrey Smith	WR	14.0	7
Mike Wallace	WR	14.0	7
Wes Welker	WR	14.0	7
Antonio Brown	WR	13.0	7
Harry Douglas	WR	13.0	7
Calvin Johnson	WR	13.0	7
Terrance Williams	WR	13.0	7
Kendall Wright	WR	13.0	7
Donnie Avery	WR	11.0	7
Anquan Boldin	WR	11.0	7
Andre Johnson	WR	8.0	7
Brian Hartline	WR	7.0	7
Alshon Jeffery	WR	7.0	7
Jarrett Boykin	WR	6.0	7
Mike Brown	WR	6.0	7
Larry Fitzgerald	WR	6.0	7
Greg Jennings	WR	6.0	7
Jeremy Kerley	WR	6.0	7
Rueben Randle	WR	6.0	7
Dwayne Bowe	WR	5.0	7
Marlon Brown	WR	5.0	7
Michael Floyd	WR	5.0	7
Mohamed Sanu	WR	5.0	7
Jerome Simpson	WR	5.0	7
Nate Washington	WR	5.0	7
Doug Baldwin	WR	4.0	7
Riley Cooper	WR	4.0	7
Drew Davis	WR	4.0	7
Aaron Dobson	WR	4.0	7
Brandon Gibson	WR	4.0	7
Chris Givens	WR	4.0	7
DeAndre Hopkins	WR	4.0	7
Jacoby Jones	WR	4.0	7
Santana Moss	WR	4.0	7
Austin Pettis	WR	4.0	7
Robert Woods	WR	4.0	7
Rob Gronkowski	TE	14.0	8
Vernon Davis	TE	13.0	8
Jordan Reed	TE	13.0	8
Julius Thomas	TE	13.0	8
Charles Clay	TE	11.0	8
Greg Olsen	TE	11.0	8
Zach Ertz	TE	10.0	8
Zach Miller	TE	10.0	8
Anthony Fasano	TE	9.0	8
Jason Witten	TE	6.0	8
Jordan Cameron	TE	5.0	8
Heath Miller	TE	5.0	8
Scott Chandler	TE	4.0	8
Jeff Cumberland	TE	4.0	8
Robert Housler	TE	4.0	8
Andrew Quarless	TE	4.0	8
Brandon Bostick	TE	3.0	8
Tyler Eifert	TE	3.0	8
Jimmy Graham	TE	3.0	8
Jermaine Gresham	TE	3.0	8
Marcedes Lewis	TE	3.0	8
Brandon Pettigrew	TE	3.0	8
Mychal Rivera	TE	3.0	8
Kyle Rudolph	TE	3.0	8
Brent Celek	TE	2.0	8
Jared Cook	TE	2.0	8
Lance Kendricks	TE	2.0	8
Joseph Fauria	TE	1.0	8
Dan Bailey	K	14.0	8
Phil Dawson	K	12.0	8
Steve Hauschka	K	12.0	8
Graham Gano	K	11.0	8
Mike Nugent	K	11.0	8
Shaun Suisham	K	11.0	8
Mason Crosby	K	9.0	8
Dan Carpenter	K	8.0	8
Nick Folk	K	8.0	8
Blair Walsh	K	8.0	8
Billy Cundiff	K	7.0	8
Kai Forbath	K	7.0	8
Greg Zuerlein	K	7.0	8
Josh Brown	K	6.0	8
Matt Bryant	K	6.0	8
Stephen Gostkowski	K	6.0	8
Sebastian Janikowski	K	6.0	8
Caleb Sturgis	K	5.0	8
Josh Scobee	K	2.0	8
Peyton Manning	QB	32.2	8
Matthew Stafford	QB	30.4	8
Drew Brees	QB	30.0	8
Robert Griffin III	QB	30.0	8
Tony Romo	QB	24.0	8
Aaron Rodgers	QB	23.8	8
Russell Wilson	QB	23.8	8
Eli Manning	QB	21.2	8
Tom Brady	QB	20.8	8
Matt Ryan	QB	20.0	8
Chad Henne	QB	19.8	8
Ryan Tannehill	QB	19.6	8
Mike Glennon	QB	19.2	8
Colin Kaepernick	QB	18.4	8
Cam Newton	QB	17.8	8
Alex Smith	QB	17.4	8
Andy Dalton	QB	15.0	8
Geno Smith	QB	14.4	8
Christian Ponder	QB	13.8	8
Carson Palmer	QB	13.6	8
Ben Roethlisberger	QB	13.6	8
Frank Gore	RB	19.0	8
LeSean McCoy	RB	19.0	8
Jamaal Charles	RB	18.0	8
Eddie Lacy	RB	18.0	8
Marshawn Lynch	RB	18.0	8
Adrian Peterson	RB	17.0	8
Stevan Ridley	RB	17.0	8
Le'Veon Bell	RB	16.0	8
Fred Jackson	RB	16.0	8
Zac Stacy	RB	15.0	8
Pierre Thomas	RB	15.0	8
Alfred Morris	RB	13.0	8
Reggie Bush	RB	11.0	8
Mike Tolbert	RB	9.0	8
Giovani Bernard	RB	8.0	8
Andre Ellington	RB	8.0	8
Peyton Hillis	RB	8.0	8
Steven Jackson	RB	8.0	8
Mike James	RB	8.0	8
Darren McFadden	RB	8.0	8
DeMarco Murray	RB	8.0	8
DeAngelo Williams	RB	8.0	8
Chris Ivory	RB	7.0	8
Roy Helu	RB	6.0	8
Lamar Miller	RB	6.0	8
Joique Bell	RB	4.0	8
Brandon Bolden	RB	4.0	8
Bilal Powell	RB	4.0	8
Jacquizz Rodgers	RB	4.0	8
Daniel Thomas	RB	4.0	8
Montee Ball	RB	3.0	8
Kendall Hunter	RB	3.0	8
Joseph Randle	RB	3.0	8
Marcel Reece	RB	2.0	8
Stepfan Taylor	RB	2.0	8
Knile Davis	RB	1.0	8
Lance Dunbar	RB	1.0	8
James Starks	RB	1.0	8
Robert Turbin	RB	1.0	8
Calvin Johnson	WR	17.0	8
Dez Bryant	WR	16.0	8
Victor Cruz	WR	16.0	8
Pierre Garcon	WR	16.0	8
Demaryius Thomas	WR	16.0	8
Justin Blackmon	WR	15.0	8
Vincent Jackson	WR	15.0	8
Jarrett Boykin	WR	14.0	8
Antonio Brown	WR	14.0	8
Marques Colston	WR	14.0	8
A.J. Green	WR	14.0	8
Jordy Nelson	WR	14.0	8
Cecil Shorts	WR	14.0	8
Harry Douglas	WR	13.0	8
Larry Fitzgerald	WR	13.0	8
Josh Gordon	WR	13.0	8
Jeremy Kerley	WR	13.0	8
Denarius Moore	WR	13.0	8
Rueben Randle	WR	13.0	8
Terrance Williams	WR	13.0	8
Anquan Boldin	WR	7.0	8
Mike Wallace	WR	7.0	8
Wes Welker	WR	7.0	8
Brian Hartline	WR	6.0	8
Danny Amendola	WR	5.0	8
Donnie Avery	WR	5.0	8
Michael Floyd	WR	5.0	8
Greg Jennings	WR	5.0	8
Marvin Jones	WR	5.0	8
Tavon Austin	WR	4.0	8
Doug Baldwin	WR	4.0	8
Mike Brown	WR	4.0	8
Riley Cooper	WR	4.0	8
Drew Davis	WR	4.0	8
Julian Edelman	WR	4.0	8
Brandon Gibson	WR	4.0	8
Santana Moss	WR	4.0	8
Jerome Simpson	WR	4.0	8
Kenny Stills	WR	4.0	8
Rod Streater	WR	4.0	8
Robert Woods	WR	4.0	8
Cole Beasley	WR	3.0	8
Dwayne Bowe	WR	3.0	8
Chris Givens	WR	3.0	8
Junior Hemingway	WR	3.0	8
Cordarrelle Patterson	WR	3.0	8
Austin Pettis	WR	3.0	8
Aaron Dobson	WR	2.0	8
Brian Quick	WR	2.0	8
Mohamed Sanu	WR	2.0	8
Jordan Cameron	TE	13.0	9
Rob Gronkowski	TE	13.0	9
Jordan Reed	TE	13.0	9
Antonio Gates	TE	12.0	9
Jimmy Graham	TE	11.0	9
Heath Miller	TE	11.0	9
Scott Chandler	TE	10.0	9
Charles Clay	TE	10.0	9
Delanie Walker	TE	10.0	9
Greg Olsen	TE	5.0	9
Jason Witten	TE	5.0	9
Martellus Bennett	TE	4.0	9
Zach Ertz	TE	4.0	9
Coby Fleener	TE	4.0	9
Garrett Graham	TE	4.0	9
Zach Miller	TE	4.0	9
Jared Cook	TE	3.0	9
Tyler Eifert	TE	3.0	9
Anthony Fasano	TE	3.0	9
Andrew Quarless	TE	3.0	9
Kyle Rudolph	TE	3.0	9
Zach Sudfeld	TE	3.0	9
Ben Watson	TE	3.0	9
Brent Celek	TE	2.0	9
Jermaine Gresham	TE	2.0	9
Lance Kendricks	TE	2.0	9
Mychal Rivera	TE	2.0	9
Adam Vinatieri	K	14.0	9
Mason Crosby	K	12.0	9
Sebastian Janikowski	K	11.0	9
Caleb Sturgis	K	11.0	9
Shaun Suisham	K	11.0	9
Steve Hauschka	K	9.0	9
Mike Nugent	K	9.0	9
Dan Carpenter	K	8.0	9
Nick Folk	K	8.0	9
Robbie Gould	K	8.0	9
Justin Tucker	K	8.0	9
Blair Walsh	K	8.0	9
Dan Bailey	K	7.0	9
Nick Novak	K	7.0	9
Randy Bullock	K	6.0	9
Kai Forbath	K	6.0	9
Graham Gano	K	6.0	9
Stephen Gostkowski	K	6.0	9
Matt Bryant	K	5.0	9
Billy Cundiff	K	5.0	9
Greg Zuerlein	K	5.0	9
Philip Rivers	QB	30.8	9
Robert Griffin III	QB	27.0	9
Drew Brees	QB	24.4	9
Aaron Rodgers	QB	24.4	9
Cam Newton	QB	24.2	9
Andy Dalton	QB	23.8	9
Russell Wilson	QB	23.8	9
Tony Romo	QB	23.6	9
Jake Locker	QB	20.2	9
Nick Foles	QB	20.0	9
Matt Ryan	QB	20.0	9
Alex Smith	QB	17.8	9
Andrew Luck	QB	17.6	9
Ben Roethlisberger	QB	14.0	9
Tom Brady	QB	13.6	9
Joe Flacco	QB	13.6	9
Christian Ponder	QB	13.4	9
Ryan Tannehill	QB	13.2	9
Geno Smith	QB	13.0	9
Jeff Tuel	QB	13.0	9
Mike Glennon	QB	10.4	9
Jamaal Charles	RB	18.0	9
LeSean McCoy	RB	18.0	9
Eddie Lacy	RB	17.0	9
Marshawn Lynch	RB	17.0	9
Adrian Peterson	RB	16.0	9
Zac Stacy	RB	16.0	9
DeMarco Murray	RB	15.0	9
Giovani Bernard	RB	14.0	9
Fred Jackson	RB	14.0	9
Ryan Mathews	RB	14.0	9
Alfred Morris	RB	14.0	9
Stevan Ridley	RB	14.0	9
Pierre Thomas	RB	14.0	9
Trent Richardson	RB	13.0	9
Danny Woodhead	RB	13.0	9
Matt Forte	RB	10.0	9
Darren McFadden	RB	10.0	9
Le'Veon Bell	RB	9.0	9
Mike Tolbert	RB	9.0	9
Mike James	RB	7.0	9
Lamar Miller	RB	7.0	9
DeAngelo Williams	RB	6.0	9
Steven Jackson	RB	5.0	9
Bilal Powell	RB	5.0	9
C.J. Spiller	RB	5.0	9
Brandon Bolden	RB	4.0	9
Roy Helu	RB	4.0	9
Chris Ivory	RB	4.0	9
Jacquizz Rodgers	RB	4.0	9
Jonathan Stewart	RB	4.0	9
Shonn Greene	RB	3.0	9
Bernard Pierce	RB	3.0	9
James Starks	RB	3.0	9
Daniel Thomas	RB	3.0	9
Arian Foster	RB	2.0	9
Marcel Reece	RB	2.0	9
Robert Turbin	RB	2.0	9
Knile Davis	RB	1.0	9
Lance Dunbar	RB	1.0	9
Joseph Randle	RB	1.0	9
Dez Bryant	WR	17.0	9
Harry Douglas	WR	15.0	9
A.J. Green	WR	15.0	9
Denarius Moore	WR	15.0	9
Jordy Nelson	WR	15.0	9
Keenan Allen	WR	14.0	9
Josh Gordon	WR	14.0	9
Brandon Marshall	WR	14.0	9
Torrey Smith	WR	14.0	9
Jarrett Boykin	WR	13.0	9
Brian Hartline	WR	13.0	9
T.Y. Hilton	WR	13.0	9
DeAndre Hopkins	WR	13.0	9
Terrance Williams	WR	13.0	9
Kendall Wright	WR	13.0	9
Jeremy Kerley	WR	12.0	9
Kenny Stills	WR	12.0	9
Marvin Jones	WR	11.0	9
Antonio Brown	WR	8.0	9
Andre Johnson	WR	8.0	9
Pierre Garcon	WR	7.0	9
Vincent Jackson	WR	7.0	9
Mike Wallace	WR	7.0	9
Nate Washington	WR	6.0	9
Drew Davis	WR	5.0	9
Aaron Dobson	WR	5.0	9
Rod Streater	WR	5.0	9
Danny Amendola	WR	4.0	9
Tavon Austin	WR	4.0	9
Donnie Avery	WR	4.0	9
Doug Baldwin	WR	4.0	9
Dwayne Bowe	WR	4.0	9
Marques Colston	WR	4.0	9
Riley Cooper	WR	4.0	9
Julian Edelman	WR	4.0	9
Alshon Jeffery	WR	4.0	9
Greg Jennings	WR	4.0	9
Santana Moss	WR	4.0	9
Austin Pettis	WR	4.0	9
Eddie Royal	WR	4.0	9
Jerome Simpson	WR	4.0	9
Cole Beasley	WR	3.0	9
LaVon Brazill	WR	3.0	9
Marlon Brown	WR	3.0	9
Chris Givens	WR	3.0	9
Marquise Goodwin	WR	3.0	9
Jacoby Jones	WR	3.0	9
Jermaine Kearse	WR	3.0	9
Cordarrelle Patterson	WR	3.0	9
Myles White	WR	3.0	9
Jimmy Graham	TE	16.0	10
Jordan Reed	TE	14.0	10
Antonio Gates	TE	13.0	10
Vernon Davis	TE	12.0	10
Martellus Bennett	TE	11.0	10
Greg Olsen	TE	11.0	10
Charles Clay	TE	10.0	10
Garrett Graham	TE	10.0	10
Jason Witten	TE	6.0	10
Julius Thomas	TE	5.0	10
Scott Chandler	TE	4.0	10
Jared Cook	TE	4.0	10
Tyler Eifert	TE	4.0	10
Coby Fleener	TE	4.0	10
Heath Miller	TE	4.0	10
Delanie Walker	TE	4.0	10
Brent Celek	TE	3.0	10
Zach Ertz	TE	3.0	10
Robert Housler	TE	3.0	10
Zach Miller	TE	3.0	10
Andrew Quarless	TE	3.0	10
Joseph Fauria	TE	2.0	10
Lance Kendricks	TE	2.0	10
Mychal Rivera	TE	2.0	10
Ben Watson	TE	2.0	10
Jermaine Gresham	TE	1.0	10
Marcedes Lewis	TE	1.0	10
Adam Vinatieri	K	14.0	10
Mason Crosby	K	11.0	10
Phil Dawson	K	11.0	10
Nick Novak	K	11.0	10
Blair Walsh	K	11.0	10
Josh Brown	K	9.0	10
Kai Forbath	K	9.0	10
Mike Nugent	K	9.0	10
Randy Bullock	K	8.0	10
Graham Gano	K	8.0	10
Caleb Sturgis	K	8.0	10
Dan Bailey	K	7.0	10
Josh Scobee	K	7.0	10
Robbie Gould	K	6.0	10
Steve Hauschka	K	6.0	10
Shaun Suisham	K	6.0	10
Matt Bryant	K	5.0	10
Dan Carpenter	K	5.0	10
Sebastian Janikowski	K	5.0	10
Justin Tucker	K	5.0	10
Greg Zuerlein	K	5.0	10
Drew Brees	QB	32.4	10
Peyton Manning	QB	31.2	10
Philip Rivers	QB	31.2	10
Robert Griffin III	QB	26.2	10
Matthew Stafford	QB	25.2	10
Colin Kaepernick	QB	24.6	10
Cam Newton	QB	24.2	10
Russell Wilson	QB	24.2	10
Tony Romo	QB	24.0	10
Andy Dalton	QB	23.8	10
Nick Foles	QB	21.8	10
Mike Glennon	QB	21.4	10
Ben Roethlisberger	QB	21.2	10
Jay Cutler	QB	21.0	10
Eli Manning	QB	20.8	10
Joe Flacco	QB	20.4	10
Ryan Tannehill	QB	19.6	10
Andrew Luck	QB	16.0	10
Jake Locker	QB	15.8	10
EJ Manuel	QB	15.2	10
Christian Ponder	QB	13.8	10
Matt Ryan	QB	13.6	10
Carson Palmer	QB	12.8	10
Chad Henne	QB	12.0	10
Reggie Bush	RB	19.0	10
Adrian Peterson	RB	19.0	10
Zac Stacy	RB	18.0	10
Matt Forte	RB	17.0	10
Eddie Lacy	RB	17.0	10
LeSean McCoy	RB	17.0	10
Giovani Bernard	RB	16.0	10
Mike James	RB	16.0	10
Marshawn Lynch	RB	16.0	10
C.J. Spiller	RB	16.0	10
Le'Veon Bell	RB	15.0	10
Andre Ellington	RB	15.0	10
DeMarco Murray	RB	15.0	10
Pierre Thomas	RB	15.0	10
Steven Jackson	RB	14.0	10
Alfred Morris	RB	14.0	10
Danny Woodhead	RB	14.0	10
Trent Richardson	RB	12.0	10
Frank Gore	RB	10.0	10
Shonn Greene	RB	10.0	10
Lamar Miller	RB	9.0	10
Fred Jackson	RB	8.0	10
Ryan Mathews	RB	7.0	10
DeAngelo Williams	RB	7.0	10
Jonathan Stewart	RB	6.0	10
Joique Bell	RB	5.0	10
Peyton Hillis	RB	5.0	10
Jacquizz Rodgers	RB	4.0	10
James Starks	RB	4.0	10
Daniel Thomas	RB	4.0	10
Roy Helu	RB	3.0	10
Kendall Hunter	RB	3.0	10
Bernard Pierce	RB	3.0	10
Marcel Reece	RB	3.0	10
Denard Robinson	RB	3.0	10
Mike Tolbert	RB	3.0	10
Montee Ball	RB	2.0	10
Lance Dunbar	RB	1.0	10
Joseph Randle	RB	1.0	10
Robert Turbin	RB	1.0	10
Calvin Johnson	WR	18.0	10
Keenan Allen	WR	17.0	10
Dez Bryant	WR	16.0	10
A.J. Green	WR	16.0	10
Antonio Brown	WR	15.0	10
Victor Cruz	WR	15.0	10
T.Y. Hilton	WR	15.0	10
Andre Johnson	WR	15.0	10
Brandon Marshall	WR	15.0	10
Demaryius Thomas	WR	15.0	10
Larry Fitzgerald	WR	14.0	10
Pierre Garcon	WR	14.0	10
Vincent Jackson	WR	14.0	10
Denarius Moore	WR	14.0	10
Jordy Nelson	WR	14.0	10
Cecil Shorts	WR	14.0	10
Torrey Smith	WR	14.0	10
Wes Welker	WR	14.0	10
Mike Wallace	WR	13.0	10
Kendall Wright	WR	13.0	10
Greg Jennings	WR	12.0	10
Marvin Jones	WR	12.0	10
Kenny Stills	WR	12.0	10
Terrance Williams	WR	12.0	10
Riley Cooper	WR	11.0	10
Anquan Boldin	WR	7.0	10
Harry Douglas	WR	7.0	10
Doug Baldwin	WR	6.0	10
DeAndre Hopkins	WR	6.0	10
Alshon Jeffery	WR	6.0	10
Rueben Randle	WR	6.0	10
Marlon Brown	WR	5.0	10
Mike Brown	WR	5.0	10
Marques Colston	WR	5.0	10
Brian Hartline	WR	5.0	10
Eddie Royal	WR	5.0	10
Nate Washington	WR	5.0	10
Roddy White	WR	5.0	10
Cole Beasley	WR	4.0	10
Jarrett Boykin	WR	4.0	10
Michael Floyd	WR	4.0	10
Chris Givens	WR	4.0	10
Marquise Goodwin	WR	4.0	10
Jacoby Jones	WR	4.0	10
Jermaine Kearse	WR	4.0	10
Cordarrelle Patterson	WR	4.0	10
Austin Pettis	WR	4.0	10
Jerome Simpson	WR	4.0	10
Rod Streater	WR	4.0	10
Tavon Austin	WR	3.0	10
Rob Gronkowski	TE	14.0	11
Jimmy Graham	TE	13.0	11
Jordan Reed	TE	13.0	11
Jordan Cameron	TE	12.0	11
Delanie Walker	TE	10.0	11
Vernon Davis	TE	7.0	11
Antonio Gates	TE	6.0	11
Scott Chandler	TE	5.0	11
Greg Olsen	TE	5.0	11
Julius Thomas	TE	5.0	11
Martellus Bennett	TE	4.0	11
Charles Clay	TE	4.0	11
Jeff Cumberland	TE	4.0	11
Coby Fleener	TE	4.0	11
Garrett Graham	TE	4.0	11
Robert Housler	TE	4.0	11
Heath Miller	TE	4.0	11
Brandon Pettigrew	TE	4.0	11
Brent Celek	TE	3.0	11
Tyler Eifert	TE	3.0	11
Zach Ertz	TE	3.0	11
Anthony Fasano	TE	3.0	11
Brandon Bostick	TE	2.0	11
Joseph Fauria	TE	2.0	11
Jermaine Gresham	TE	2.0	11
Marcedes Lewis	TE	2.0	11
Zach Miller	TE	2.0	11
Andrew Quarless	TE	2.0	11
Mychal Rivera	TE	2.0	11
Matt Bryant	K	11.0	11
Phil Dawson	K	11.0	11
Kai Forbath	K	11.0	11
Robbie Gould	K	11.0	11
Adam Vinatieri	K	11.0	11
Nick Novak	K	9.0	11
Mason Crosby	K	8.0	11
Nick Folk	K	8.0	11
Stephen Gostkowski	K	8.0	11
Caleb Sturgis	K	8.0	11
Shaun Suisham	K	8.0	11
Randy Bullock	K	7.0	11
Dan Carpenter	K	7.0	11
Steve Hauschka	K	7.0	11
Josh Brown	K	6.0	11
Graham Gano	K	6.0	11
Mike Nugent	K	6.0	11
Billy Cundiff	K	5.0	11
Sebastian Janikowski	K	5.0	11
Josh Scobee	K	5.0	11
Justin Tucker	K	5.0	11
Blair Walsh	K	5.0	11
Peyton Manning	QB	30.8	11
Drew Brees	QB	25.2	11
Russell Wilson	QB	24.6	11
Nick Foles	QB	24.2	11
Cam Newton	QB	24.2	11
Philip Rivers	QB	23.6	11
Matthew Stafford	QB	23.6	11
Robert Griffin III	QB	23.4	11
Joe Flacco	QB	21.6	11
Ben Roethlisberger	QB	21.2	11
Mike Glennon	QB	20.6	11
Matt Ryan	QB	20.4	11
Andy Dalton	QB	20.2	11
Eli Manning	QB	20.0	11
Carson Palmer	QB	20.0	11
Ryan Tannehill	QB	19.6	11
Colin Kaepernick	QB	18.6	11
Alex Smith	QB	18.6	11
Tom Brady	QB	16.0	11
Andrew Luck	QB	15.6	11
EJ Manuel	QB	14.0	11
Scott Tolzien	QB	14.0	11
Geno Smith	QB	13.4	11
Matt McGloin	QB	12.6	11
Chad Henne	QB	12.4	11
Christian Ponder	QB	10.6	11
LeSean McCoy	RB	19.0	11
Jamaal Charles	RB	18.0	11
Marshawn Lynch	RB	17.0	11
Adrian Peterson	RB	17.0	11
Matt Forte	RB	16.0	11
Frank Gore	RB	16.0	11
Eddie Lacy	RB	16.0	11
Giovani Bernard	RB	15.0	11
Andre Ellington	RB	15.0	11
Alfred Morris	RB	14.0	11
Pierre Thomas	RB	14.0	11
Danny Woodhead	RB	14.0	11
Ryan Mathews	RB	12.0	11
Stevan Ridley	RB	12.0	11
Trent Richardson	RB	11.0	11
Le'Veon Bell	RB	10.0	11
Reggie Bush	RB	10.0	11
Lamar Miller	RB	8.0	11
C.J. Spiller	RB	8.0	11
Chris Ivory	RB	7.0	11
Fred Jackson	RB	7.0	11
Steven Jackson	RB	6.0	11
DeAngelo Williams	RB	6.0	11
Bilal Powell	RB	5.0	11
Jacquizz Rodgers	RB	5.0	11
Jonathan Stewart	RB	5.0	11
Shane Vereen	RB	5.0	11
Joique Bell	RB	4.0	11
Bernard Pierce	RB	4.0	11
Bobby Rainey	RB	4.0	11
Daniel Thomas	RB	4.0	11
Mike Tolbert	RB	4.0	11
Roy Helu	RB	3.0	11
Kendall Hunter	RB	3.0	11
Marcel Reece	RB	3.0	11
Denard Robinson	RB	3.0	11
James Starks	RB	3.0	11
Montee Ball	RB	2.0	11
Shonn Greene	RB	2.0	11
Peyton Hillis	RB	2.0	11
Mark Ingram	RB	2.0	11
Robert Turbin	RB	2.0	11
Andre Johnson	WR	17.0	11
Antonio Brown	WR	16.0	11
Calvin Johnson	WR	16.0	11
Keenan Allen	WR	15.0	11
Victor Cruz	WR	15.0	11
Pierre Garcon	WR	15.0	11
Vincent Jackson	WR	15.0	11
Brandon Marshall	WR	15.0	11
Harry Douglas	WR	14.0	11
Larry Fitzgerald	WR	14.0	11
Josh Gordon	WR	14.0	11
A.J. Green	WR	14.0	11
T.Y. Hilton	WR	14.0	11
Donnie Avery	WR	13.0	11
Riley Cooper	WR	13.0	11
Jordy Nelson	WR	13.0	11
Torrey Smith	WR	13.0	11
Demaryius Thomas	WR	13.0	11
Wes Welker	WR	13.0	11
Kendall Wright	WR	13.0	11
Doug Baldwin	WR	12.0	11
Brian Hartline	WR	12.0	11
DeAndre Hopkins	WR	12.0	11
Rueben Randle	WR	12.0	11
Mike Brown	WR	11.0	11
Marvin Jones	WR	11.0	11
Marques Colston	WR	7.0	11
Alshon Jeffery	WR	7.0	11
Denarius Moore	WR	7.0	11
Cecil Shorts	WR	7.0	11
Danny Amendola	WR	6.0	11
Anquan Boldin	WR	6.0	11
Dwayne Bowe	WR	6.0	11
Jarrett Boykin	WR	6.0	11
Kenny Stills	WR	6.0	11
Mike Wallace	WR	6.0	11
Aaron Dobson	WR	5.0	11
Marquise Goodwin	WR	5.0	11
Greg Jennings	WR	5.0	11
Eddie Royal	WR	5.0	11
Rod Streater	WR	5.0	11
Nate Washington	WR	5.0	11
Roddy White	WR	5.0	11
Marlon Brown	WR	4.0	11
Michael Floyd	WR	4.0	11
Jacoby Jones	WR	4.0	11
Jerome Simpson	WR	4.0	11
Drew Davis	WR	3.0	11
Julian Edelman	WR	3.0	11
Jermaine Kearse	WR	3.0	11
Rob Gronkowski	TE	15.0	12
Vernon Davis	TE	13.0	12
Coby Fleener	TE	12.0	12
Antonio Gates	TE	12.0	12
Jimmy Graham	TE	12.0	12
Greg Olsen	TE	12.0	12
Garrett Graham	TE	11.0	12
Robert Housler	TE	11.0	12
Heath Miller	TE	11.0	12
Delanie Walker	TE	11.0	12
Jason Witten	TE	11.0	12
Charles Clay	TE	10.0	12
Brandon Pettigrew	TE	10.0	12
Jordan Cameron	TE	5.0	12
Martellus Bennett	TE	4.0	12
Jeff Cumberland	TE	4.0	12
Logan Paulsen	TE	4.0	12
Mychal Rivera	TE	4.0	12
Brandon Bostick	TE	3.0	12
Jared Cook	TE	3.0	12
Anthony Fasano	TE	3.0	12
Julius Thomas	TE	3.0	12
Joseph Fauria	TE	2.0	12
Marcedes Lewis	TE	2.0	12
Andrew Quarless	TE	1.0	12
Phil Dawson	K	12.0	12
Mason Crosby	K	11.0	12
Robbie Gould	K	11.0	12
Justin Tucker	K	11.0	12
Josh Brown	K	9.0	12
Randy Bullock	K	9.0	12
Stephen Gostkowski	K	9.0	12
Matt Bryant	K	8.0	12
Billy Cundiff	K	8.0	12
Kai Forbath	K	8.0	12
Nick Novak	K	8.0	12
Caleb Sturgis	K	8.0	12
Blair Walsh	K	8.0	12
Dan Bailey	K	6.0	12
Graham Gano	K	6.0	12
Sebastian Janikowski	K	6.0	12
Shaun Suisham	K	6.0	12
Greg Zuerlein	K	6.0	12
Nick Folk	K	5.0	12
Josh Scobee	K	5.0	12
Adam Vinatieri	K	5.0	12
Peyton Manning	QB	31.6	12
Drew Brees	QB	31.2	12
Matthew Stafford	QB	24.4	12
Cam Newton	QB	24.2	12
Tom Brady	QB	23.6	12
Colin Kaepernick	QB	23.6	12
Andrew Luck	QB	23.2	12
Tony Romo	QB	22.8	12
Ben Roethlisberger	QB	22.4	12
Joe Flacco	QB	21.6	12
Eli Manning	QB	21.2	12
Mike Glennon	QB	20.6	12
Matt Ryan	QB	20.4	12
Carson Palmer	QB	20.0	12
Alex Smith	QB	17.8	12
Robert Griffin III	QB	17.0	12
Philip Rivers	QB	16.4	12
Christian Ponder	QB	15.2	12
Scott Tolzien	QB	14.4	12
Geno Smith	QB	13.6	12
Ryan Tannehill	QB	12.8	12
Chad Henne	QB	12.4	12
Matt McGloin	QB	12.4	12
Zac Stacy	RB	24.0	12
Matt Forte	RB	19.0	12
Reggie Bush	RB	18.0	12
Jamaal Charles	RB	18.0	12
Eddie Lacy	RB	17.0	12
Frank Gore	RB	16.0	12
Adrian Peterson	RB	16.0	12
Pierre Thomas	RB	15.0	12
Chris Ivory	RB	14.0	12
Alfred Morris	RB	14.0	12
DeMarco Murray	RB	14.0	12
Shane Vereen	RB	14.0	12
Ryan Mathews	RB	12.0	12
Stevan Ridley	RB	12.0	12
Mike Tolbert	RB	10.0	12
Le'Veon Bell	RB	9.0	12
Andre Ellington	RB	7.0	12
Lamar Miller	RB	7.0	12
Bobby Rainey	RB	7.0	12
DeAngelo Williams	RB	6.0	12
Danny Woodhead	RB	6.0	12
Mark Ingram	RB	5.0	12
Steven Jackson	RB	5.0	12
Trent Richardson	RB	5.0	12
Daniel Thomas	RB	5.0	12
Joique Bell	RB	4.0	12
Roy Helu	RB	4.0	12
Bilal Powell	RB	4.0	12
Jacquizz Rodgers	RB	4.0	12
Jonathan Stewart	RB	4.0	12
Kendall Hunter	RB	3.0	12
Bernard Pierce	RB	3.0	12
James Starks	RB	3.0	12
Montee Ball	RB	2.0	12
Shonn Greene	RB	2.0	12
Marcel Reece	RB	2.0	12
Knile Davis	RB	1.0	12
Denard Robinson	RB	1.0	12
Demaryius Thomas	WR	17.0	12
Victor Cruz	WR	16.0	12
Andre Johnson	WR	16.0	12
Calvin Johnson	WR	16.0	12
Harry Douglas	WR	15.0	12
Josh Gordon	WR	15.0	12
Vincent Jackson	WR	15.0	12
Brandon Marshall	WR	15.0	12
Wes Welker	WR	15.0	12
Dez Bryant	WR	14.0	12
Marques Colston	WR	14.0	12
Jordy Nelson	WR	14.0	12
Kendall Wright	WR	14.0	12
Larry Fitzgerald	WR	13.0	12
Kenny Stills	WR	13.0	12
Dwayne Bowe	WR	12.0	12
Torrey Smith	WR	12.0	12
Rod Streater	WR	12.0	12
Rueben Randle	WR	11.0	12
Keenan Allen	WR	8.0	12
Pierre Garcon	WR	8.0	12
Jarrett Boykin	WR	7.0	12
Antonio Brown	WR	7.0	12
T.Y. Hilton	WR	7.0	12
Cecil Shorts	WR	7.0	12
Anquan Boldin	WR	6.0	12
Aaron Dobson	WR	6.0	12
Michael Floyd	WR	6.0	12
Alshon Jeffery	WR	6.0	12
Danny Amendola	WR	5.0	12
Chris Givens	WR	5.0	12
DeAndre Hopkins	WR	5.0	12
Rishard Matthews	WR	5.0	12
Cordarrelle Patterson	WR	5.0	12
Mike Wallace	WR	5.0	12
Roddy White	WR	5.0	12
Tavon Austin	WR	4.0	12
Donnie Avery	WR	4.0	12
Marlon Brown	WR	4.0	12
Mike Brown	WR	4.0	12
Brian Hartline	WR	4.0	12
David Nelson	WR	4.0	12
Austin Pettis	WR	4.0	12
Eddie Royal	WR	4.0	12
Ace Sanders	WR	4.0	12
Jerome Simpson	WR	4.0	12
Nate Washington	WR	4.0	12
Terrance Williams	WR	4.0	12
Julian Edelman	WR	3.0	12
Justin Hunter	WR	3.0	12
Rob Gronkowski	TE	15.0	13
Jimmy Graham	TE	13.0	13
Vernon Davis	TE	12.0	13
Jordan Reed	TE	12.0	13
Julius Thomas	TE	12.0	13
Jason Witten	TE	12.0	13
Jordan Cameron	TE	11.0	13
Garrett Graham	TE	11.0	13
Robert Housler	TE	11.0	13
Heath Miller	TE	11.0	13
Greg Olsen	TE	11.0	13
Delanie Walker	TE	11.0	13
Anthony Fasano	TE	10.0	13
Mychal Rivera	TE	10.0	13
Coby Fleener	TE	6.0	13
Antonio Gates	TE	5.0	13
Martellus Bennett	TE	4.0	13
Scott Chandler	TE	4.0	13
Charles Clay	TE	4.0	13
Brandon Pettigrew	TE	4.0	13
Brent Celek	TE	3.0	13
Jared Cook	TE	3.0	13
Jeff Cumberland	TE	3.0	13
Tyler Eifert	TE	3.0	13
Zach Ertz	TE	3.0	13
Jermaine Gresham	TE	3.0	13
Zach Miller	TE	3.0	13
Joseph Fauria	TE	2.0	13
Ladarius Green	TE	2.0	13
Marcedes Lewis	TE	2.0	13
Andrew Quarless	TE	2.0	13
Kai Forbath	K	14.0	13
Nick Novak	K	11.0	13
Caleb Sturgis	K	11.0	13
Adam Vinatieri	K	11.0	13
Blair Walsh	K	11.0	13
Dan Bailey	K	9.0	13
Josh Brown	K	9.0	13
Graham Gano	K	9.0	13
Stephen Gostkowski	K	9.0	13
Robbie Gould	K	9.0	13
Steve Hauschka	K	9.0	13
Mike Nugent	K	9.0	13
Matt Bryant	K	8.0	13
Billy Cundiff	K	8.0	13
Sebastian Janikowski	K	8.0	13
Justin Tucker	K	8.0	13
Josh Scobee	K	7.0	13
Dan Carpenter	K	6.0	13
Mason Crosby	K	6.0	13
Phil Dawson	K	6.0	13
Randy Bullock	K	5.0	13
Nick Folk	K	5.0	13
Shaun Suisham	K	5.0	13
Greg Zuerlein	K	5.0	13
Matthew Stafford	QB	25.2	13
Cam Newton	QB	25.0	13
Alex Smith	QB	24.4	13
Peyton Manning	QB	24.0	13
Russell Wilson	QB	23.8	13
Drew Brees	QB	23.2	13
Carson Palmer	QB	23.2	13
Tom Brady	QB	22.8	13
Tony Romo	QB	22.8	13
Colin Kaepernick	QB	22.0	13
Joe Flacco	QB	21.6	13
Andy Dalton	QB	21.4	13
Nick Foles	QB	21.4	13
Matt Flynn	QB	20.4	13
Mike Glennon	QB	20.2	13
Eli Manning	QB	20.0	13
Ben Roethlisberger	QB	20.0	13
Andrew Luck	QB	17.2	13
Robert Griffin III	QB	16.2	13
Philip Rivers	QB	14.8	13
EJ Manuel	QB	13.8	13
Christian Ponder	QB	13.8	13
Matt Ryan	QB	13.2	13
Ryan Tannehill	QB	13.2	13
Geno Smith	QB	12.2	13
Matt McGloin	QB	12.0	13
Chad Henne	QB	6.4	13
Jamaal Charles	RB	19.0	13
Matt Forte	RB	19.0	13
Adrian Peterson	RB	18.0	13
Reggie Bush	RB	17.0	13
Frank Gore	RB	17.0	13
Eddie Lacy	RB	17.0	13
Marshawn Lynch	RB	17.0	13
Giovani Bernard	RB	15.0	13
Lamar Miller	RB	15.0	13
Alfred Morris	RB	15.0	13
DeMarco Murray	RB	15.0	13
Zac Stacy	RB	15.0	13
Danny Woodhead	RB	15.0	13
Fred Jackson	RB	14.0	13
C.J. Spiller	RB	14.0	13
Chris Ivory	RB	13.0	13
Le'Veon Bell	RB	10.0	13
LeSean McCoy	RB	10.0	13
Mike Tolbert	RB	10.0	13
Pierre Thomas	RB	8.0	13
Shane Vereen	RB	8.0	13
Jonathan Stewart	RB	7.0	13
Andre Ellington	RB	6.0	13
Steven Jackson	RB	6.0	13
Bobby Rainey	RB	6.0	13
Ryan Mathews	RB	5.0	13
Bernard Pierce	RB	5.0	13
Trent Richardson	RB	5.0	13
Joique Bell	RB	4.0	13
Roy Helu	RB	4.0	13
Bilal Powell	RB	4.0	13
Jacquizz Rodgers	RB	4.0	13
Brandon Bolden	RB	3.0	13
James Starks	RB	3.0	13
Montee Ball	RB	2.0	13
Benny Cunningham	RB	2.0	13
Shonn Greene	RB	2.0	13
Kendall Hunter	RB	2.0	13
Mark Ingram	RB	2.0	13
Darren McFadden	RB	2.0	13
Stevan Ridley	RB	2.0	13
Robert Turbin	RB	2.0	13
Knile Davis	RB	1.0	13
Denard Robinson	RB	1.0	13
Antone Smith	RB	1.0	13
DeAngelo Williams	RB	1.0	13
Calvin Johnson	WR	19.0	13
Josh Gordon	WR	16.0	13
A.J. Green	WR	16.0	13
Brandon Marshall	WR	16.0	13
Demaryius Thomas	WR	16.0	13
Keenan Allen	WR	15.0	13
Antonio Brown	WR	15.0	13
Dez Bryant	WR	15.0	13
Riley Cooper	WR	14.0	13
Harry Douglas	WR	14.0	13
T.Y. Hilton	WR	14.0	13
Vincent Jackson	WR	14.0	13
Jordy Nelson	WR	14.0	13
Mike Wallace	WR	14.0	13
Anquan Boldin	WR	13.0	13
Jarrett Boykin	WR	13.0	13
Victor Cruz	WR	13.0	13
Larry Fitzgerald	WR	13.0	13
Alshon Jeffery	WR	13.0	13
Torrey Smith	WR	13.0	13
Dwayne Bowe	WR	12.0	13
Rueben Randle	WR	12.0	13
Danny Amendola	WR	11.0	13
Cordarrelle Patterson	WR	11.0	13
Michael Floyd	WR	8.0	13
Pierre Garcon	WR	8.0	13
Kendall Wright	WR	8.0	13
Andre Johnson	WR	7.0	13
Rod Streater	WR	7.0	13
Wes Welker	WR	7.0	13
Tavon Austin	WR	6.0	13
Marques Colston	WR	6.0	13
Cecil Shorts	WR	6.0	13
Donnie Avery	WR	5.0	13
Julian Edelman	WR	5.0	13
Brian Hartline	WR	5.0	13
Greg Jennings	WR	5.0	13
Jacoby Jones	WR	5.0	13
Ace Sanders	WR	5.0	13
Doug Baldwin	WR	4.0	13
Mike Brown	WR	4.0	13
Chris Givens	WR	4.0	13
Marquise Goodwin	WR	4.0	13
DeAndre Hopkins	WR	4.0	13
Justin Hunter	WR	4.0	13
Marvin Jones	WR	4.0	13
Rishard Matthews	WR	4.0	13
Eddie Royal	WR	4.0	13
Kenny Stills	WR	4.0	13
Roddy White	WR	4.0	13
Jimmy Graham	TE	14.0	14
Rob Gronkowski	TE	14.0	14
Vernon Davis	TE	12.0	14
Coby Fleener	TE	12.0	14
Heath Miller	TE	12.0	14
Julius Thomas	TE	12.0	14
Ladarius Green	TE	11.0	14
Jason Witten	TE	11.0	14
Greg Olsen	TE	10.0	14
Jordan Cameron	TE	5.0	14
Jordan Reed	TE	5.0	14
Martellus Bennett	TE	4.0	14
Scott Chandler	TE	4.0	14
Charles Clay	TE	4.0	14
Jared Cook	TE	4.0	14
Antonio Gates	TE	4.0	14
Garrett Graham	TE	4.0	14
Zach Miller	TE	4.0	14
Brandon Pettigrew	TE	4.0	14
Tyler Eifert	TE	3.0	14
Zach Ertz	TE	3.0	14
Jermaine Gresham	TE	3.0	14
Robert Housler	TE	3.0	14
Marcedes Lewis	TE	3.0	14
Mychal Rivera	TE	3.0	14
Brent Celek	TE	2.0	14
Jeff Cumberland	TE	2.0	14
Joseph Fauria	TE	2.0	14
Dennis Pitta	TE	2.0	14
Andrew Quarless	TE	2.0	14
Delanie Walker	TE	2.0	14
Steve Hauschka	K	14.0	14
Justin Tucker	K	14.0	14
Stephen Gostkowski	K	12.0	14
Robbie Gould	K	12.0	14
Randy Bullock	K	11.0	14
Shaun Suisham	K	11.0	14
Dan Bailey	K	9.0	14
Mason Crosby	K	9.0	14
Nick Novak	K	9.0	14
Josh Brown	K	8.0	14
Dan Carpenter	K	8.0	14
Kai Forbath	K	8.0	14
Sebastian Janikowski	K	8.0	14
Blair Walsh	K	8.0	14
Greg Zuerlein	K	8.0	14
Matt Bryant	K	6.0	14
Phil Dawson	K	6.0	14
Mike Nugent	K	6.0	14
Josh Scobee	K	6.0	14
Billy Cundiff	K	5.0	14
Nick Folk	K	5.0	14
Graham Gano	K	5.0	14
Caleb Sturgis	K	5.0	14
Adam Vinatieri	K	5.0	14
Matthew Stafford	QB	30.8	14
Nick Foles	QB	30.2	14
Cam Newton	QB	25.2	14
Peyton Manning	QB	24.8	14
Alex Smith	QB	24.0	14
Andy Dalton	QB	23.8	14
Drew Brees	QB	23.6	14
Tom Brady	QB	22.8	14
Carson Palmer	QB	22.0	14
Tony Romo	QB	22.0	14
Colin Kaepernick	QB	21.8	14
Joe Flacco	QB	21.6	14
Philip Rivers	QB	21.2	14
Ben Roethlisberger	QB	20.8	14
Matt Ryan	QB	20.4	14
Mike Glennon	QB	20.2	14
Matt Flynn	QB	19.2	14
Russell Wilson	QB	17.8	14
Robert Griffin III	QB	17.2	14
Andrew Luck	QB	16.8	14
EJ Manuel	QB	13.8	14
Eli Manning	QB	13.6	14
Matt McGloin	QB	13.6	14
Ryan Tannehill	QB	13.6	14
Matt Cassel	QB	13.4	14
Chad Henne	QB	12.4	14
Geno Smith	QB	6.8	14
Jamaal Charles	RB	20.0	14
Matt Forte	RB	18.0	14
Eddie Lacy	RB	18.0	14
Marshawn Lynch	RB	17.0	14
Adrian Peterson	RB	17.0	14
Reggie Bush	RB	16.0	14
LeSean McCoy	RB	16.0	14
DeMarco Murray	RB	16.0	14
Zac Stacy	RB	16.0	14
Frank Gore	RB	15.0	14
Alfred Morris	RB	15.0	14
Danny Woodhead	RB	15.0	14
Giovani Bernard	RB	14.0	14
Chris Ivory	RB	14.0	14
Fred Jackson	RB	14.0	14
Steven Jackson	RB	14.0	14
Bobby Rainey	RB	14.0	14
Shane Vereen	RB	14.0	14
Ryan Mathews	RB	13.0	14
Le'Veon Bell	RB	11.0	14
Lamar Miller	RB	8.0	14
Pierre Thomas	RB	8.0	14
C.J. Spiller	RB	6.0	14
Montee Ball	RB	5.0	14
Joique Bell	RB	5.0	14
Jonathan Stewart	RB	5.0	14
DeAngelo Williams	RB	5.0	14
Roy Helu	RB	4.0	14
Bernard Pierce	RB	4.0	14
Bilal Powell	RB	4.0	14
Jacquizz Rodgers	RB	4.0	14
Mike Tolbert	RB	4.0	14
Brandon Bolden	RB	3.0	14
Andre Ellington	RB	3.0	14
Trent Richardson	RB	3.0	14
James Starks	RB	3.0	14
Benny Cunningham	RB	2.0	14
Shonn Greene	RB	2.0	14
Kendall Hunter	RB	2.0	14
Mark Ingram	RB	2.0	14
Marcel Reece	RB	2.0	14
Antone Smith	RB	2.0	14
Robert Turbin	RB	2.0	14
Knile Davis	RB	1.0	14
Joseph Randle	RB	1.0	14
Calvin Johnson	WR	24.0	14
A.J. Green	WR	17.0	14
Vincent Jackson	WR	16.0	14
Brandon Marshall	WR	16.0	14
Antonio Brown	WR	15.0	14
Torrey Smith	WR	15.0	14
Dez Bryant	WR	14.0	14
Victor Cruz	WR	14.0	14
Larry Fitzgerald	WR	14.0	14
Michael Floyd	WR	14.0	14
Pierre Garcon	WR	14.0	14
Jordy Nelson	WR	14.0	14
Demaryius Thomas	WR	14.0	14
Mike Wallace	WR	14.0	14
Kendall Wright	WR	14.0	14
Jarrett Boykin	WR	13.0	14
Josh Gordon	WR	13.0	14
Alshon Jeffery	WR	13.0	14
Andre Johnson	WR	13.0	14
Cecil Shorts	WR	13.0	14
Rod Streater	WR	13.0	14
Roddy White	WR	13.0	14
Dwayne Bowe	WR	12.0	14
Michael Crabtree	WR	12.0	14
Harry Douglas	WR	12.0	14
Robert Woods	WR	12.0	14
Keenan Allen	WR	9.0	14
T.Y. Hilton	WR	7.0	14
Andre Holmes	WR	7.0	14
Wes Welker	WR	7.0	14
Doug Baldwin	WR	6.0	14
Anquan Boldin	WR	6.0	14
Marques Colston	WR	6.0	14
Riley Cooper	WR	6.0	14
Brian Hartline	WR	6.0	14
Nate Washington	WR	6.0	14
Danny Amendola	WR	5.0	14
Tavon Austin	WR	5.0	14
Julian Edelman	WR	5.0	14
DeAndre Hopkins	WR	5.0	14
Greg Jennings	WR	5.0	14
Jacoby Jones	WR	5.0	14
Jeremy Kerley	WR	5.0	14
Cordarrelle Patterson	WR	5.0	14
Rueben Randle	WR	5.0	14
Ace Sanders	WR	5.0	14
Donnie Avery	WR	4.0	14
Chris Givens	WR	4.0	14
Marquise Goodwin	WR	4.0	14
Justin Hunter	WR	4.0	14
Vernon Davis	TE	13.0	15
Jimmy Graham	TE	13.0	15
Jordan Cameron	TE	12.0	15
Greg Olsen	TE	12.0	15
Charles Clay	TE	11.0	15
Coby Fleener	TE	11.0	15
Dennis Pitta	TE	11.0	15
Julius Thomas	TE	11.0	15
Delanie Walker	TE	11.0	15
Ladarius Green	TE	10.0	15
Logan Paulsen	TE	10.0	15
Joseph Fauria	TE	8.0	15
Heath Miller	TE	6.0	15
Martellus Bennett	TE	4.0	15
Scott Chandler	TE	4.0	15
Jared Cook	TE	4.0	15
Antonio Gates	TE	4.0	15
Marcedes Lewis	TE	4.0	15
Zach Miller	TE	4.0	15
Brandon Pettigrew	TE	4.0	15
Jason Witten	TE	4.0	15
Brent Celek	TE	3.0	15
Zach Ertz	TE	3.0	15
Garrett Graham	TE	3.0	15
Jermaine Gresham	TE	3.0	15
Mychal Rivera	TE	3.0	15
Jacob Tamme	TE	3.0	15
Jeff Cumberland	TE	2.0	15
Tyler Eifert	TE	2.0	15
Andrew Quarless	TE	2.0	15
Robert Housler	TE	1.0	15
Jordan Reed	TE	1.0	15
Dan Carpenter	K	14.0	15
Graham Gano	K	11.0	15
Mike Nugent	K	11.0	15
Dan Bailey	K	9.0	15
Matt Bryant	K	9.0	15
Phil Dawson	K	9.0	15
Josh Scobee	K	9.0	15
Billy Cundiff	K	8.0	15
Stephen Gostkowski	K	8.0	15
Justin Tucker	K	8.0	15
Greg Zuerlein	K	8.0	15
Nick Folk	K	7.0	15
Robbie Gould	K	6.0	15
Steve Hauschka	K	6.0	15
Sebastian Janikowski	K	6.0	15
Nick Novak	K	6.0	15
Caleb Sturgis	K	6.0	15
Shaun Suisham	K	6.0	15
Adam Vinatieri	K	6.0	15
Blair Walsh	K	6.0	15
Josh Brown	K	5.0	15
Randy Bullock	K	5.0	15
Kai Forbath	K	5.0	15
Mason Crosby	K	3.0	15
Peyton Manning	QB	30.8	15
Colin Kaepernick	QB	30.6	15
Nick Foles	QB	25.0	15
Russell Wilson	QB	24.2	15
Andrew Luck	QB	23.4	15
Drew Brees	QB	23.2	15
Ben Roethlisberger	QB	23.2	15
Matthew Stafford	QB	23.2	15
Andy Dalton	QB	23.0	15
Matt Ryan	QB	22.8	15
Alex Smith	QB	22.8	15
Matt Cassel	QB	22.2	15
Tony Romo	QB	22.0	15
Ryan Tannehill	QB	21.6	15
Kirk Cousins	QB	20.8	15
Jay Cutler	QB	20.8	15
Matt Flynn	QB	20.6	15
Philip Rivers	QB	20.0	15
Cam Newton	QB	19.6	15
Joe Flacco	QB	19.2	15
Tom Brady	QB	16.0	15
Mike Glennon	QB	14.8	15
Chad Henne	QB	13.6	15
Carson Palmer	QB	13.6	15
Eli Manning	QB	12.8	15
Matt McGloin	QB	12.4	15
EJ Manuel	QB	7.0	15
Geno Smith	QB	6.2	15
Jamaal Charles	RB	18.0	15
LeSean McCoy	RB	18.0	15
Matt Forte	RB	17.0	15
Marshawn Lynch	RB	17.0	15
Eddie Lacy	RB	16.0	15
Zac Stacy	RB	16.0	15
Pierre Thomas	RB	16.0	15
Fred Jackson	RB	15.0	15
Steven Jackson	RB	15.0	15
DeMarco Murray	RB	15.0	15
Bobby Rainey	RB	15.0	15
Jordan Todman	RB	15.0	15
Shane Vereen	RB	15.0	15
C.J. Spiller	RB	14.0	15
Joique Bell	RB	13.0	15
Ryan Mathews	RB	13.0	15
Alfred Morris	RB	13.0	15
Stevan Ridley	RB	11.0	15
Mike Tolbert	RB	11.0	15
Montee Ball	RB	10.0	15
Le'Veon Bell	RB	9.0	15
Giovani Bernard	RB	9.0	15
Frank Gore	RB	8.0	15
Lamar Miller	RB	8.0	15
Reggie Bush	RB	7.0	15
Chris Ivory	RB	7.0	15
Danny Woodhead	RB	7.0	15
Adrian Peterson	RB	6.0	15
James Starks	RB	6.0	15
DeAngelo Williams	RB	6.0	15
Andre Ellington	RB	5.0	15
Roy Helu	RB	4.0	15
Bilal Powell	RB	4.0	15
Trent Richardson	RB	4.0	15
Jacquizz Rodgers	RB	4.0	15
Daniel Thomas	RB	4.0	15
Knile Davis	RB	3.0	15
Shonn Greene	RB	3.0	15
Kendall Hunter	RB	3.0	15
Bernard Pierce	RB	3.0	15
Marcel Reece	RB	3.0	15
Benny Cunningham	RB	2.0	15
Mark Ingram	RB	2.0	15
Robert Turbin	RB	2.0	15
Joseph Randle	RB	1.0	15
Demaryius Thomas	WR	18.0	15
Antonio Brown	WR	16.0	15
Josh Gordon	WR	16.0	15
Alshon Jeffery	WR	16.0	15
Calvin Johnson	WR	16.0	15
Dez Bryant	WR	15.0	15
Andre Johnson	WR	15.0	15
Roddy White	WR	15.0	15
Keenan Allen	WR	14.0	15
Anquan Boldin	WR	14.0	15
Larry Fitzgerald	WR	14.0	15
Pierre Garcon	WR	14.0	15
A.J. Green	WR	14.0	15
Greg Jennings	WR	14.0	15
Torrey Smith	WR	14.0	15
Riley Cooper	WR	13.0	15
T.Y. Hilton	WR	13.0	15
Vincent Jackson	WR	13.0	15
Brandon Marshall	WR	13.0	15
Jordy Nelson	WR	13.0	15
Rod Streater	WR	13.0	15
Kendall Wright	WR	13.0	15
Doug Baldwin	WR	12.0	15
Dwayne Bowe	WR	12.0	15
Cordarrelle Patterson	WR	12.0	15
Brian Hartline	WR	11.0	15
Julian Edelman	WR	8.0	15
Michael Floyd	WR	8.0	15
Marques Colston	WR	7.0	15
Cecil Shorts	WR	7.0	15
Danny Amendola	WR	6.0	15
Jarrett Boykin	WR	6.0	15
Victor Cruz	WR	6.0	15
Aldrick Robinson	WR	6.0	15
Mike Wallace	WR	6.0	15
Mike Brown	WR	5.0	15
Michael Crabtree	WR	5.0	15
Harry Douglas	WR	5.0	15
DeAndre Hopkins	WR	5.0	15
Justin Hunter	WR	5.0	15
Jeremy Kerley	WR	5.0	15
Rishard Matthews	WR	5.0	15
Ace Sanders	WR	5.0	15
Donnie Avery	WR	4.0	15
Marlon Brown	WR	4.0	15
Chris Givens	WR	4.0	15
Andre Holmes	WR	4.0	15
Marvin Jones	WR	4.0	15
Denarius Moore	WR	4.0	15
Rueben Randle	WR	4.0	15
Vernon Davis	TE	13.0	16
Jimmy Graham	TE	13.0	16
Julius Thomas	TE	12.0	16
Charles Clay	TE	11.0	16
Antonio Gates	TE	11.0	16
Zach Miller	TE	11.0	16
Dennis Pitta	TE	11.0	16
Delanie Walker	TE	11.0	16
Jason Witten	TE	11.0	16
Logan Paulsen	TE	10.0	16
Joseph Fauria	TE	9.0	16
Greg Olsen	TE	6.0	16
Heath Miller	TE	5.0	16
Martellus Bennett	TE	4.0	16
Jared Cook	TE	4.0	16
Coby Fleener	TE	4.0	16
Ryan Griffin	TE	4.0	16
Marcedes Lewis	TE	4.0	16
Brent Celek	TE	3.0	16
Scott Chandler	TE	3.0	16
Zach Ertz	TE	3.0	16
Robert Housler	TE	3.0	16
Andrew Quarless	TE	3.0	16
Mychal Rivera	TE	3.0	16
Jeff Cumberland	TE	2.0	16
Tyler Eifert	TE	2.0	16
Anthony Fasano	TE	2.0	16
Ladarius Green	TE	2.0	16
Jermaine Gresham	TE	2.0	16
Michael Hoomanawanui	TE	2.0	16
Lance Kendricks	TE	2.0	16
Steve Hauschka	K	14.0	16
Dan Bailey	K	12.0	16
Nick Folk	K	11.0	16
Stephen Gostkowski	K	11.0	16
Greg Zuerlein	K	11.0	16
Mason Crosby	K	9.0	16
Kai Forbath	K	9.0	16
Nick Novak	K	9.0	16
Caleb Sturgis	K	9.0	16
Matt Bryant	K	8.0	16
Dan Carpenter	K	8.0	16
Shayne Graham	K	8.0	16
Sebastian Janikowski	K	8.0	16
Blair Walsh	K	8.0	16
Josh Brown	K	7.0	16
Phil Dawson	K	7.0	16
Mike Nugent	K	7.0	16
Graham Gano	K	6.0	16
Shaun Suisham	K	6.0	16
Justin Tucker	K	6.0	16
Randy Bullock	K	5.0	16
Billy Cundiff	K	5.0	16
Josh Scobee	K	5.0	16
Adam Vinatieri	K	5.0	16
Robbie Gould	K	4.0	16
Peyton Manning	QB	31.2	16
Jay Cutler	QB	28.0	16
Cam Newton	QB	26.0	16
Andy Dalton	QB	24.2	16
Nick Foles	QB	23.8	16
Drew Brees	QB	23.6	16
Colin Kaepernick	QB	23.6	16
Alex Smith	QB	23.6	16
Matthew Stafford	QB	23.6	16
Philip Rivers	QB	23.2	16
Tom Brady	QB	22.8	16
Ben Roethlisberger	QB	22.8	16
Ryan Tannehill	QB	22.4	16
Kirk Cousins	QB	22.0	16
Joe Flacco	QB	22.0	16
Tony Romo	QB	21.6	16
Andrew Luck	QB	21.2	16
Matt Flynn	QB	21.0	16
Matt Ryan	QB	20.0	16
Russell Wilson	QB	18.8	16
Mike Glennon	QB	14.4	16
Matt Cassel	QB	14.2	16
Matt McGloin	QB	13.2	16
Carson Palmer	QB	13.2	16
Eli Manning	QB	12.8	16
Geno Smith	QB	12.8	16
Chad Henne	QB	12.0	16
LeSean McCoy	RB	21.0	16
Le'Veon Bell	RB	18.0	16
Jamaal Charles	RB	18.0	16
DeMarco Murray	RB	18.0	16
Reggie Bush	RB	17.0	16
Matt Forte	RB	17.0	16
Eddie Lacy	RB	17.0	16
Giovani Bernard	RB	16.0	16
Marshawn Lynch	RB	16.0	16
Zac Stacy	RB	16.0	16
Jordan Todman	RB	16.0	16
Fred Jackson	RB	15.0	16
Ryan Mathews	RB	15.0	16
Alfred Morris	RB	15.0	16
Adrian Peterson	RB	15.0	16
Bobby Rainey	RB	15.0	16
DeAngelo Williams	RB	15.0	16
Frank Gore	RB	14.0	16
Pierre Thomas	RB	9.0	16
Shane Vereen	RB	9.0	16
Steven Jackson	RB	8.0	16
Lamar Miller	RB	8.0	16
Andre Ellington	RB	7.0	16
Chris Ivory	RB	7.0	16
Danny Woodhead	RB	7.0	16
Trent Richardson	RB	6.0	16
C.J. Spiller	RB	6.0	16
Joique Bell	RB	5.0	16
Bilal Powell	RB	5.0	16
Mike Tolbert	RB	5.0	16
Montee Ball	RB	4.0	16
Roy Helu	RB	4.0	16
Kendall Hunter	RB	4.0	16
Bernard Pierce	RB	4.0	16
Marcel Reece	RB	4.0	16
Stevan Ridley	RB	4.0	16
Knile Davis	RB	3.0	16
Shonn Greene	RB	3.0	16
Darren McFadden	RB	3.0	16
Jacquizz Rodgers	RB	3.0	16
Daniel Thomas	RB	3.0	16
Benny Cunningham	RB	2.0	16
Mark Ingram	RB	2.0	16
James Starks	RB	2.0	16
Robert Turbin	RB	2.0	16
Chris Polk	RB	1.0	16
A.J. Green	WR	18.0	16
Calvin Johnson	WR	18.0	16
Brandon Marshall	WR	17.0	16
Antonio Brown	WR	16.0	16
Pierre Garcon	WR	16.0	16
Josh Gordon	WR	16.0	16
Andre Johnson	WR	16.0	16
Demaryius Thomas	WR	16.0	16
Keenan Allen	WR	15.0	16
Dez Bryant	WR	15.0	16
Alshon Jeffery	WR	15.0	16
Danny Amendola	WR	14.0	16
Michael Crabtree	WR	14.0	16
Julian Edelman	WR	14.0	16
Jordy Nelson	WR	14.0	16
Torrey Smith	WR	14.0	16
Mike Wallace	WR	14.0	16
Roddy White	WR	14.0	16
Kendall Wright	WR	14.0	16
Marques Colston	WR	13.0	16
T.Y. Hilton	WR	13.0	16
Vincent Jackson	WR	13.0	16
Rod Streater	WR	13.0	16
Dwayne Bowe	WR	12.0	16
Riley Cooper	WR	12.0	16
Larry Fitzgerald	WR	12.0	16
Cordarrelle Patterson	WR	12.0	16
Robert Woods	WR	12.0	16
Rueben Randle	WR	11.0	16
Doug Baldwin	WR	7.0	16
Michael Floyd	WR	7.0	16
Greg Jennings	WR	7.0	16
Anquan Boldin	WR	6.0	16
DeAndre Hopkins	WR	6.0	16
Mike Brown	WR	5.0	16
Harry Douglas	WR	5.0	16
Marquise Goodwin	WR	5.0	16
Brian Hartline	WR	5.0	16
Justin Hunter	WR	5.0	16
Jeremy Kerley	WR	5.0	16
Denarius Moore	WR	5.0	16
Aldrick Robinson	WR	5.0	16
Ace Sanders	WR	5.0	16
Donnie Avery	WR	4.0	16
Jarrett Boykin	WR	4.0	16
Marlon Brown	WR	4.0	16
Andre Caldwell	WR	4.0	16
Chris Givens	WR	4.0	16
Andre Holmes	WR	4.0	16
Jacoby Jones	WR	4.0	16
Jimmy Graham	TE	14.0	17
Vernon Davis	TE	12.0	17
Greg Olsen	TE	12.0	17
Joseph Fauria	TE	11.0	17
Ryan Griffin	TE	11.0	17
Heath Miller	TE	11.0	17
Julius Thomas	TE	11.0	17
Delanie Walker	TE	11.0	17
Logan Paulsen	TE	10.0	17
Andrew Quarless	TE	9.0	17
Mychal Rivera	TE	9.0	17
Martellus Bennett	TE	5.0	17
Charles Clay	TE	5.0	17
Jared Cook	TE	4.0	17
Coby Fleener	TE	4.0	17
Antonio Gates	TE	4.0	17
Marcedes Lewis	TE	4.0	17
Zach Miller	TE	4.0	17
Dennis Pitta	TE	4.0	17
Jason Witten	TE	4.0	17
Brent Celek	TE	3.0	17
Scott Chandler	TE	3.0	17
Zach Ertz	TE	3.0	17
Jeff Cumberland	TE	2.0	17
Ladarius Green	TE	2.0	17
Michael Hoomanawanui	TE	2.0	17
Lance Kendricks	TE	2.0	17
Jacob Tamme	TE	2.0	17
Tyler Eifert	TE	1.0	17
Jermaine Gresham	TE	1.0	17
Robert Housler	TE	1.0	17
Josh Brown	K	11.0	17
Caleb Sturgis	K	11.0	17
Dan Bailey	K	9.0	17
Kai Forbath	K	9.0	17
Stephen Gostkowski	K	9.0	17
Robbie Gould	K	9.0	17
Nick Novak	K	9.0	17
Shaun Suisham	K	9.0	17
Adam Vinatieri	K	9.0	17
Randy Bullock	K	8.0	17
Dan Carpenter	K	8.0	17
Nick Folk	K	8.0	17
Sebastian Janikowski	K	8.0	17
Justin Tucker	K	8.0	17
Billy Cundiff	K	7.0	17
Shayne Graham	K	7.0	17
Mason Crosby	K	6.0	17
Graham Gano	K	6.0	17
Steve Hauschka	K	6.0	17
Mike Nugent	K	6.0	17
Blair Walsh	K	6.0	17
Matt Bryant	K	5.0	17
Phil Dawson	K	5.0	17
Josh Scobee	K	5.0	17
Greg Zuerlein	K	5.0	17
Drew Brees	QB	30.8	17
Peyton Manning	QB	30.0	17
Nick Foles	QB	24.4	17
Cam Newton	QB	24.2	17
Russell Wilson	QB	24.2	17
Aaron Rodgers	QB	23.4	17
Andy Dalton	QB	23.0	17
Andrew Luck	QB	22.6	17
Matthew Stafford	QB	22.4	17
Tom Brady	QB	22.0	17
Kirk Cousins	QB	22.0	17
Philip Rivers	QB	22.0	17
Ben Roethlisberger	QB	22.0	17
Matt Cassel	QB	21.4	17
Jay Cutler	QB	21.4	17
Ryan Tannehill	QB	21.2	17
Colin Kaepernick	QB	20.8	17
Eli Manning	QB	20.4	17
Carson Palmer	QB	18.8	17
Mike Glennon	QB	15.6	17
Matt Ryan	QB	14.0	17
Chase Daniel	QB	13.4	17
Geno Smith	QB	13.4	17
Joe Flacco	QB	13.2	17
Chad Henne	QB	12.8	17
Le'Veon Bell	RB	18.0	17
LeSean McCoy	RB	18.0	17
Eddie Lacy	RB	17.0	17
Matt Forte	RB	16.0	17
Marshawn Lynch	RB	16.0	17
DeMarco Murray	RB	16.0	17
C.J. Spiller	RB	16.0	17
Zac Stacy	RB	16.0	17
Montee Ball	RB	15.0	17
Joique Bell	RB	15.0	17
Fred Jackson	RB	15.0	17
Ryan Mathews	RB	15.0	17
Alfred Morris	RB	15.0	17
Pierre Thomas	RB	15.0	17
Knile Davis	RB	14.0	17
Steven Jackson	RB	14.0	17
Shane Vereen	RB	14.0	17
Chris Ivory	RB	13.0	17
DeAngelo Williams	RB	13.0	17
Bobby Rainey	RB	9.0	17
Giovani Bernard	RB	8.0	17
Lamar Miller	RB	8.0	17
Andre Ellington	RB	7.0	17
Frank Gore	RB	7.0	17
Jonathan Grimes	RB	7.0	17
Matt Asiata	RB	6.0	17
Reggie Bush	RB	6.0	17
Danny Woodhead	RB	6.0	17
Bilal Powell	RB	5.0	17
Trent Richardson	RB	5.0	17
Mike Tolbert	RB	5.0	17
Shonn Greene	RB	4.0	17
Bernard Pierce	RB	4.0	17
Daniel Thomas	RB	4.0	17
Jordan Todman	RB	4.0	17
Joe Banyard	RB	3.0	17
Jamaal Charles	RB	3.0	17
Roy Helu	RB	3.0	17
Peyton Hillis	RB	3.0	17
Darren McFadden	RB	3.0	17
Stevan Ridley	RB	3.0	17
James Starks	RB	3.0	17
Benny Cunningham	RB	2.0	17
Kendall Hunter	RB	2.0	17
Mark Ingram	RB	2.0	17
Robert Turbin	RB	2.0	17
Joseph Randle	RB	1.0	17
Marcel Reece	RB	1.0	17
Pierre Garcon	WR	16.0	17
Josh Gordon	WR	16.0	17
Keenan Allen	WR	15.0	17
Antonio Brown	WR	15.0	17
Dez Bryant	WR	15.0	17
A.J. Green	WR	15.0	17
Vincent Jackson	WR	15.0	17
Andre Johnson	WR	15.0	17
Brandon Marshall	WR	15.0	17
Anquan Boldin	WR	14.0	17
Julian Edelman	WR	14.0	17
Larry Fitzgerald	WR	14.0	17
T.Y. Hilton	WR	14.0	17
Greg Jennings	WR	14.0	17
Jerrel Jernigan	WR	14.0	17
Jordy Nelson	WR	14.0	17
Torrey Smith	WR	14.0	17
Demaryius Thomas	WR	14.0	17
Mike Wallace	WR	14.0	17
Roddy White	WR	14.0	17
Doug Baldwin	WR	13.0	17
Marques Colston	WR	13.0	17
Alshon Jeffery	WR	13.0	17
Cordarrelle Patterson	WR	13.0	17
Mike Brown	WR	12.0	17
Michael Floyd	WR	12.0	17
Kendall Wright	WR	8.0	17
Jarrett Boykin	WR	6.0	17
Junior Hemingway	WR	6.0	17
Ace Sanders	WR	6.0	17
Rod Streater	WR	6.0	17
Robert Woods	WR	6.0	17
Danny Amendola	WR	5.0	17
Riley Cooper	WR	5.0	17
Michael Crabtree	WR	5.0	17
Brian Hartline	WR	5.0	17
DeAndre Hopkins	WR	5.0	17
Jeremy Kerley	WR	5.0	17
Nate Washington	WR	5.0	17
Donnie Avery	WR	4.0	17
Marlon Brown	WR	4.0	17
Andre Caldwell	WR	4.0	17
Harry Douglas	WR	4.0	17
Chris Givens	WR	4.0	17
Marvin Jones	WR	4.0	17
Jermaine Kearse	WR	4.0	17
Rueben Randle	WR	4.0	17
Cole Beasley	WR	3.0	17
Aaron Dobson	WR	3.0	17
Marquise Goodwin	WR	3.0	17
