, ,Player,ADP
1,RB,"Adrian Peterson, MIN",1.01
2,RB,"Arian Foster, HOU",1.02
3,RB,"Doug Martin, TB",1.03
4,RB,"Jamaal Charles, KC",1.04
5,RB,"Marshawn Lynch, SEA",1.05
6,RB,"C.J. Spiller, BUF",1.07
7,RB,"Ray Rice, BAL",1.07
8,WR,"Calvin Johnson, DET",1.08
9,RB,"LeSean McCoy, PHI",1.08
10,RB,"Trent Richardson, CLE",1.1
11,RB,"Alfred Morris, WAS",2.01
12,RB,"Steven Jackson, ATL",2.03
13,WR,"A.J. Green, CIN",2.04
14,RB,"Matt Forte, CHI",2.04
15,WR,"Dez Bryant, DAL",2.06
16,RB,"Stevan Ridley, NE",2.06
17,RB,"Chris Johnson, TEN",2.08
18,WR,"Brandon Marshall, CHI",2.08
19,RB,"Maurice Jones-Drew, JAX",2.09
20,TE,"Jimmy Graham, NO",2.09
21,QB,"Aaron Rodgers, GB",2.1
22,WR,"Julio Jones, ATL",3.01
23,WR,"Demaryius Thomas, DEN",3.04
24,RB,"Reggie Bush, DET",3.04
25,RB,"Frank Gore, SF",3.05
26,QB,"Drew Brees, NO",3.05
27,WR,"Larry Fitzgerald, ARZ",3.07
28,RB,"DeMarco Murray, DAL",3.08
29,RB,"Lamar Miller, MIA",3.09
30,WR,"Randall Cobb, GB",3.1
31,WR,"Percy Harvin, SEA",4.02
32,RB,"Darren McFadden, OAK",4.02
33,WR,"Roddy White, ATL",4.03
34,WR,"Andre Johnson, HOU",4.04
35,RB,"David Wilson, NYG",4.04
36,QB,"Peyton Manning, DEN",4.05
37,WR,"Victor Cruz, NYG",4.06
38,RB,"Darren Sproles, NO",4.08
39,WR,"Vincent Jackson, TB",4.08
40,TE,"Rob Gronkowski, NE (I)",5.01
41,RB,"Montee Ball, DEN",5.02
42,WR,"Jordy Nelson, GB",5.02
43,RB,"Le’Veon Bell, PIT",5.03
44,WR,"Marques Colston, NO",5.03
45,WR,"Dwayne Bowe, KC",5.05
46,WR,"Wes Welker, DEN",5.05
47,QB,"Cam Newton, CAR",5.07
48,RB,"Chris Ivory, NYJ",5.07
49,WR,"Danny Amendola, NE",5.08
50,WR,"Hakeem Nicks, NYG",5.1
51,WR,"Reggie Wayne, IND",6.01
52,QB,"Tom Brady, NE",6.02
53,RB,"Ahmad Bradshaw, IND",6.03
54,QB,"Matt Ryan, ATL",6.04
55,WR,"Mike Wallace, MIA",6.04
56,RB,"Ryan Mathews, SD",6.05
57,TE,"Jason Witten, DAL",6.07
58,WR,"Torrey Smith, BAL",6.08
59,RB,"Eddie Lacy, GB (I)",6.09
60,TE,"Vernon Davis, SF",6.09
61,WR,"Pierre Garcon, WAS",6.1
62,WR,"Antonio Brown, PIT",7.02
63,RB,"Rashard Mendenhall, ARZ",7.02
64,WR,"Eric Decker, DEN",7.03
65,TE,"Tony Gonzalez, ATL",7.03
66,QB,"Matthew Stafford, DET",7.06
67,RB,"Giovani Bernard, CIN",7.06
68,WR,"Steve Smith, CAR",7.08
69,WR,"Tavon Austin, STL",7.08
70,QB,"Colin Kaepernick, SF",7.09
71,RB,"Shane Vereen, NE",7.09
72,WR,"James Jones, GB",7.1
73,QB,"Robert Griffin III, WAS (I)",8.03
74,WR,"Greg Jennings, MIN",8.03
75,RB,"BenJarvus Green-Ellis, CIN",8.05
76,TE,"Dennis Pitta, BAL",8.05
77,QB,"Russell Wilson, SEA",8.06
78,RB,"Daryl Richardson, STL",8.06
79,WR,"T.Y. Hilton, IND",8.08
80,QB,"Andrew Luck, IND",8.08
81,WR,"Anquan Boldin, SF",8.09
82,RB,"Andre Brown, NYG",8.09
83,WR,"Cecil Shorts, JAX",9.01
84,WR,"Danario Alexander, SD",9.04
85,WR,"DeSean Jackson, PHI",9.04
86,QB,"Tony Romo, DAL",9.05
87,WR,"Miles Austin, DAL",9.06
88,D,Seahawks,9.07
89,TE,"Kyle Rudolph, MIN",9.07
90,WR,"Stevie Johnson, BUF",9.08
91,RB,"Jonathan Stewart, CAR (I)",9.08
92,RB,"Ben Tate, HOU",9.1
93,WR,"Kenny Britt, TEN",10.02
94,WR,"Josh Gordon, CLE (S)",10.04
95,D,49ers,10.04
96,RB,"Bryce Brown, PHI",10.05
97,WR,"Mike Williams, TB",10.06
98,RB,"Mark Ingram, NO",10.07
99,QB,"Eli Manning, NYG",10.07
100,RB,"Fred Jackson, BUF",10.09
101,WR,"Jeremy Maclin, PHI",10.09
102,D,Broncos,10.1
103,TE,"Jared Cook, STL",10.1
104,WR,"Lance Moore, NO",11.02
105,D,Texans,11.03
106,RB,"Bernard Pierce, BAL",11.03
107,TE,"Antonio Gates, SD",11.03
108,WR,"DeAndre Hopkins, HOU",11.05
109,RB,"Danny Woodhead, SD",11.07
110,D,Bears,11.08
111,RB,"Vick Ballard, IND",11.09
112,TE,"Jermichael Finley, GB",11.09
113,WR,"Vincent Brown, SD",11.1
114,WR,"Emmanuel Sanders, PIT",12.01
115,TE,"Greg Olsen, CAR",12.02
116,QB,"Michael Vick, PHI",12.03
117,RB,"DeAngelo Williams, CAR",12.02
118,RB,"Isaiah Pead, STL",12.04
119,WR,"Michael Floyd, ARZ",12.04
120,QB,"Andy Dalton, CIN",12.04
121,WR,"Denarius Moore, OAK",12.06
122,RB,"Mikel Leshoure, DET",12.07
123,WR,"Justin Blackmon, JAX (S)",12.09
124,D,Bengals,12.1
125,RB,"Johnathan Franklin, GB",12.1
126,K,"Stephen Gostkowski, NE",12.1
127,WR,"Aaron Dobson, NE",12.1
128,TE,"Brandon Myers, NYG",12.1
129,QB,"Ben Roethlisberger, PIT",13.01
130,RB,"Zac Stacy, STL",13.01
131,TE,"Owen Daniels, HOU",13.03
132,WR,"Ryan Broyles, DET (I)",13.04
133,QB,"Jay Cutler, CHI",13.04
134,TE,"Heath Miller, PIT (I)",13.05
135,K,"Blair Walsh, MIN",13.05
136,RB,"Pierre Thomas, NO",13.06
137,D,Patriots,13.06
138,RB,"Jacquizz Rodgers, ATL",13.06
139,WR,"Sidney Rice, SEA",13.06
140,TE,"Martellus Bennett, CHI",13.06
141,RB,"Ronnie Hillman, DEN",13.07
142,TE,"Jake Ballard, NE",13.07
143,WR,"Alshon Jeffery, CHI",13.08
144,QB,"Joe Flacco, BAL",13.08
145,WR,"Julian Edelman, NE ",13.08
146,D,Buccaneers,13.09
147,WR,"Chris Givens, STL",13.09
148,RB,"LaMichael James, SF",13.09
149,QB,"Josh Freeman, TB",13.1
150,TE,"Fred Davis, WAS",13.12
