RunningBacks
111.0	7.4	27	KC-6	Charles,Jamaal
108.4	6.8	26	PHI-7	McCoy,LeSean
97.6	6.1	28	CHI-9	Forte,Matt
84.9	5.3	27	MIA-5	Moreno,Knowshon
80.6	5.0	28	SEA-4	Lynch,Marshawn
80.5	5.7	26	DAL-11	Murray,DeMarco
71.4	4.8	24	GB-9	Lacy,Eddie
70.5	5.0	29	MIN-10	Peterson(Min),Adrian
68.3	4.3	33	BUF-9	Jackson,Fred
66.6	4.8	29	DET-9	Bush,Reggie
65.3	4.1	26	SD-10	Mathews,Ryan
63.0	3.9	28	NYJ-11	Johnson(NYJ),Chris
59.6	3.7	22	CIN-4	Bernard,Giovani
58.1	3.6	25	WAS-10	Morris,Alfred
57.5	3.6	28	DET-9	Bell,Joique
56.6	4.4	22	PIT-12	Bell,Le'Veon
56.1	3.5	31	SF-8	Gore,Frank
52.9	3.5	25	ARI-4	Ellington,Andre
52.6	3.5	29	NYG-8	Jennings,Rashad
52.4	3.3	29	SD-10	Woodhead,Danny
51.1	3.2	29	NO-6	Thomas,Pierre
50.6	3.6	23	STL-4	Stacy,Zac
48.0	3.2	31	CAR-12	Williams,DeAngelo
47.7	3.2	27	BUF-9	Spiller,C.J.
46.5	3.1	29	RAI-5	Jones-Drew,Maurice
46.1	2.9	27	SD-10	Brown,Donald
42.7	2.8	31	PHI-7	Sproles,Darren
42.1	2.6	27	PIT-12	Blount,LeGarrette
39.8	2.8	26	CLE-4	Tate,Ben
39.8	2.5	25	NYJ-11	Powell,Bilal
37.1	2.7	25	NE-10	Ridley,Stevan
37.1	2.5	27	BAL-11	Rice,Ray
36.9	3.1	31	ATL-9	Jackson,Steven
36.9	2.5	26	NYJ-11	Ivory,Chris
34.5	4.3	25	NE-10	Vereen,Shane
34.5	2.2	23	MIA-5	Miller,Lamar
32.4	4.1	28	HOU-10	Foster,Arian
32.1	2.0	24	IND-10	Richardson,Trent
32.0	2.5	28	GB-9	Starks,James
31.7	2.1	24	ATL-9	Rodgers,Jacquizz
31.4	2.0	23	DEN-4	Ball,Montee
30.9	1.9	28	CAR-12	Tolbert,Mike
30.5	1.9	29	CIN-4	Green-Ellis,BenJarvus
30.0	1.9	25	WAS-10	Helu,Roy
28.5	1.9	26	TB-7	Rainey,Bobby
26.9	1.8	26	TEN-9	McCluster,Dexter
25.1	1.7	26	MIA-5	Thomas,Daniel
24.3	2.4	27	RAI-5	McFadden,Darren
24.2	2.0	24	NE-10	Bolden,Brandon
21.2	1.5	27	JAC-11	Gerhart,Toby
20.8	2.6	27	HOU-10	Brown,Andre
20.5	1.9	24	NO-6	Ingram,Mark
18.7	1.2	23	BUF-9	Brown,Bryce
18.5	3.1	25	TB-7	Martin,Doug
18.3	1.7	29	TEN-9	Greene,Shonn
17.8	1.1	25	SF-8	Hunter,Kendall
17.4	1.1	24	BAL-11	Pierce,Bernard
17.1	1.1	24	JAC-11	Todman,Jordan
16.0	1.0	22	KC-6	Davis,Knile
15.4	1.9	23	TB-7	James,Mike
14.8	1.1	24	STL-4	Cunningham,Benny
13.5	1.9	28	NYG-8	Hillis,Peyton
13.2	1.3	22	DEN-4	Hillman,Ronnie
12.8	4.3	28	IND-10	Bradshaw,Ahmad
10.1	0.6	24	SEA-4	Turbin,Robert
10.1	0.8	22	DAL-11	Randle,Joseph
9.8	0.9	27	MIN-10	Asiata,Matt
9.3	0.9	24	NO-6	Robinson,Khiry
7.9	1.3	27	CAR-12	Stewart,Jonathan
7.6	0.8	24	DAL-11	Dunbar,Lance
6.3	0.4	23	ARI-4	Taylor,Stepfan
3.6	0.3	23	DET-9	Riddick,Theo
2.9	0.6	23	NYG-8	Wilson,David
2.8	0.7	23	SEA-4	Michael,Christine
2.4	2.4	24	IND-10	Ballard,Vick
1.6	0.3	23	DEN-4	Anderson,C.J.
