season	week	pos	name	beta	proj	pts	llh	P05	P25	P50	P75	P95	hilow
2013	1	QB	Aaron Rodgers	3.39	20.36	25.62	0.76	8.88	14.33	19.25	25.19	35.66	0
2013	2	QB	Aaron Rodgers	3.96	23.83	34.9	0.87	10.39	16.77	22.52	29.48	41.73	-1.79
2013	3	QB	Aaron Rodgers	4.45	26.76	14.16	0.1	11.67	18.83	25.3	33.1	46.87	-8.14
2013	5	QB	Aaron Rodgers	4.02	24.16	15.76	0.2	10.53	16.99	22.83	29.88	42.31	10
2013	6	QB	Aaron Rodgers	3.57	21.44	17.7	0.38	9.35	15.08	20.26	26.52	37.55	5.68
2013	7	QB	Aaron Rodgers	3.59	21.61	23.6	0.64	9.42	15.2	20.43	26.73	37.85	3.91
2013	8	QB	Aaron Rodgers	3.74	22.51	22.5	0.55	9.81	15.84	21.28	27.85	39.43	-1.09
2013	9	QB	Aaron Rodgers	3.98	23.92	1.98	0	10.43	16.83	22.61	29.59	41.9	1.42
2013	1	QB	Andrew Luck	2.89	17.35	24.92	0.86	7.56	12.21	16.4	21.46	30.38	0
2013	2	QB	Andrew Luck	3.43	20.63	19.64	0.51	8.99	14.51	19.49	25.51	36.12	-4.29
2013	3	QB	Andrew Luck	3.40	20.47	14.96	0.28	8.93	14.4	19.35	25.32	35.85	0.83
2013	4	QB	Andrew Luck	3.20	19.24	20	0.59	8.39	13.54	18.19	23.8	33.7	4.28
2013	5	QB	Andrew Luck	3.42	20.54	18.06	0.43	8.95	14.45	19.41	25.4	35.97	0.54
2013	6	QB	Andrew Luck	3.41	20.52	8.98	0.05	8.94	14.43	19.39	25.38	35.93	2.46
2013	7	QB	Andrew Luck	3.03	18.23	30.02	0.93	7.95	12.83	17.23	22.55	31.93	9.25
2013	9	QB	Andrew Luck	3.30	19.82	24.84	0.76	8.64	13.95	18.74	24.52	34.72	-10.2
2013	10	QB	Andrew Luck	3.76	22.62	16.82	0.29	9.86	15.91	21.37	27.97	39.61	-2.22
2013	11	QB	Andrew Luck	3.44	20.68	18.38	0.44	9.02	14.55	19.55	25.58	36.22	3.86
2013	12	QB	Andrew Luck	3.46	20.83	14.62	0.25	9.08	14.65	19.69	25.77	36.48	2.45
2013	13	QB	Andrew Luck	3.39	20.39	11.2	0.12	8.89	14.34	19.27	25.22	35.7	5.77
2013	14	QB	Andrew Luck	2.91	17.52	32.24	0.96	7.64	12.33	16.56	21.67	30.69	6.32
2013	15	QB	Andrew Luck	3.64	21.87	17.1	0.33	9.54	15.39	20.67	27.05	38.3	-10.37
2013	16	QB	Andrew Luck	3.43	20.64	14.14	0.23	9	14.52	19.51	25.53	36.15	3.54
2013	1	QB	Andy Dalton	2.41	14.5	17.48	0.73	6.32	10.2	13.71	17.94	25.4	0
2013	2	QB	Andy Dalton	2.80	16.85	16.2	0.52	7.35	11.86	15.93	20.84	29.51	-0.63
2013	3	QB	Andy Dalton	2.98	17.91	14.7	0.37	7.81	12.6	16.93	22.15	31.36	1.71
2013	4	QB	Andy Dalton	2.80	16.82	6.54	0.03	7.33	11.84	15.9	20.81	29.46	2.12
2013	5	QB	Andy Dalton	2.34	14.04	9.98	0.26	6.12	9.88	13.27	17.37	24.6	7.5
2013	6	QB	Andy Dalton	2.15	12.95	26.18	0.98	5.65	9.11	12.24	16.02	22.68	2.97
2013	7	QB	Andy Dalton	2.71	16.32	27.48	0.94	7.12	11.48	15.43	20.19	28.59	-9.86
2013	8	QB	Andy Dalton	3.38	20.31	32	0.91	8.86	14.29	19.2	25.13	35.58	-7.17
2013	9	QB	Andy Dalton	3.75	22.55	9.72	0.05	9.83	15.87	21.31	27.89	39.5	-9.45
2013	10	QB	Andy Dalton	3.23	19.41	18.16	0.49	8.46	13.65	18.34	24	33.98	9.69
2013	11	QB	Andy Dalton	3.44	20.65	13.72	0.21	9	14.53	19.52	25.55	36.17	2.49
2013	13	QB	Andy Dalton	3.11	18.68	11.5	0.17	8.15	13.14	17.66	23.11	32.72	4.96
2013	14	QB	Andy Dalton	3.07	18.45	30.1	0.92	8.05	12.98	17.44	22.83	32.32	6.95
2013	15	QB	Andy Dalton	3.35	20.14	19.2	0.51	8.78	14.17	19.04	24.91	35.28	-9.96
2013	16	QB	Andy Dalton	3.62	21.77	31.64	0.87	9.49	15.32	20.58	26.93	38.13	2.57
2013	2	QB	Armanti Edwards	3.22	19.37	2	0	8.45	13.63	18.31	23.97	33.93	0
2013	5	QB	Armanti Edwards	1.88	11.3	2	0	4.92	7.95	10.68	13.97	19.78	9.3
2013	9	QB	Armanti Edwards	1.35	8.14	2	0	3.55	5.73	7.69	10.07	14.26	6.14
2013	1	QB	Ben Roethlisberger	2.51	15.09	10.64	0.25	6.58	10.62	14.26	18.66	26.43	0
2013	2	QB	Ben Roethlisberger	2.20	13.22	13.64	0.58	5.76	9.3	12.5	16.36	23.16	2.58
2013	3	QB	Ben Roethlisberger	2.52	15.15	18.94	0.76	6.6	10.66	14.31	18.73	26.52	1.51
2013	4	QB	Ben Roethlisberger	2.71	16.3	16.32	0.56	7.11	11.47	15.4	20.16	28.54	-2.64
2013	6	QB	Ben Roethlisberger	2.85	17.14	15.66	0.47	7.47	12.06	16.2	21.2	30.02	0.82
2013	7	QB	Ben Roethlisberger	3.04	18.27	12.9	0.25	7.97	12.85	17.27	22.6	32	2.61
2013	8	QB	Ben Roethlisberger	2.72	16.38	13.1	0.35	7.14	11.52	15.48	20.26	28.68	3.48
2013	9	QB	Ben Roethlisberger	2.67	16.06	27.9	0.95	7	11.3	15.18	19.86	28.12	2.96
2013	10	QB	Ben Roethlisberger	3.37	20.28	11.16	0.12	8.84	14.26	19.16	25.08	35.51	-7.62
2013	11	QB	Ben Roethlisberger	3.10	18.61	31.88	0.94	8.11	13.09	17.59	23.02	32.6	7.45
2013	12	QB	Ben Roethlisberger	3.46	20.78	8	0.03	9.06	14.62	19.64	25.71	36.4	-11.1
2013	13	QB	Ben Roethlisberger	2.91	17.48	19.38	0.65	7.62	12.3	16.52	21.62	30.61	9.48
2013	14	QB	Ben Roethlisberger	3.14	18.86	19.4	0.58	8.22	13.27	17.82	23.33	33.03	-0.52
2013	15	QB	Ben Roethlisberger	3.32	19.96	10.64	0.1	8.7	14.04	18.87	24.69	34.96	0.56
2013	16	QB	Ben Roethlisberger	2.95	17.74	20.98	0.71	7.73	12.48	16.77	21.94	31.07	7.1
2013	1	QB	Blaine Gabbert	3.35	20.12	4.44	0	8.77	14.16	19.02	24.89	35.24	0
2013	4	QB	Blaine Gabbert	2.25	13.5	5.16	0.03	5.89	9.5	12.76	16.7	23.65	9.06
2013	5	QB	Blaine Gabbert	1.80	10.83	9.84	0.46	4.72	7.62	10.24	13.4	18.97	5.67
2013	14	QB	Brad Smith	3.35	20.16	2.3	0	8.79	14.18	19.05	24.93	35.3	0
2013	15	QB	Brad Smith	2.03	12.23	2.4	0	5.33	8.61	11.56	15.13	21.42	9.93
2013	1	QB	Brandon Weeden	2.47	14.88	12.56	0.4	6.49	10.47	14.06	18.4	26.06	0
2013	2	QB	Brandon Weeden	2.37	14.25	9.78	0.23	6.21	10.03	13.47	17.63	24.96	1.69
2013	5	QB	Brandon Weeden	2.31	13.91	11.88	0.41	6.06	9.78	13.15	17.2	24.36	4.13
2013	6	QB	Brandon Weeden	2.27	13.63	18.68	0.83	5.94	9.59	12.88	16.86	23.87	1.75
2013	7	QB	Brandon Weeden	2.50	15.01	10.96	0.28	6.54	10.56	14.18	18.56	26.28	-3.67
2013	12	QB	Brandon Weeden	2.53	15.21	4.32	0.01	6.63	10.7	14.37	18.81	26.63	4.25
2013	13	QB	Brandon Weeden	2.09	12.57	8	0.19	5.48	8.84	11.88	15.55	22.01	8.25
2013	3	QB	Brian Hoyer	3.25	19.56	21.64	0.65	8.53	13.76	18.48	24.19	34.25	0
2013	4	QB	Brian Hoyer	3.66	22	19.46	0.44	9.59	15.48	20.79	27.21	38.53	0.36
2013	5	QB	Brian Hoyer	3.68	22.13	2.1	0	9.65	15.57	20.92	27.37	38.76	2.67
2013	1	QB	Cam Newton	3.12	18.74	12.8	0.23	8.17	13.18	17.71	23.18	32.81	0
2013	2	QB	Cam Newton	2.79	16.8	17.66	0.6	7.33	11.82	15.88	20.78	29.43	4
2013	3	QB	Cam Newton	3.17	19.05	30.42	0.92	8.3	13.4	18	23.56	33.36	1.39
2013	5	QB	Cam Newton	3.66	22.01	9.82	0.05	9.6	15.49	20.8	27.23	38.55	-8.41
2013	6	QB	Cam Newton	3.13	18.84	30.68	0.92	8.21	13.26	17.81	23.3	33	9.02
2013	7	QB	Cam Newton	3.84	23.1	14.76	0.19	10.07	16.25	21.83	28.57	40.46	-7.58
2013	8	QB	Cam Newton	3.43	20.62	27.84	0.82	8.99	14.51	19.49	25.5	36.11	5.86
2013	9	QB	Cam Newton	3.96	23.83	20.16	0.4	10.39	16.77	22.53	29.48	41.74	-4.01
2013	10	QB	Cam Newton	3.71	22.33	7.46	0.02	9.74	15.71	21.11	27.62	39.11	2.17
2013	11	QB	Cam Newton	3.29	19.77	26.56	0.81	8.62	13.91	18.68	24.45	34.62	12.31
2013	12	QB	Cam Newton	3.39	20.36	21.06	0.59	8.88	14.32	19.24	25.18	35.65	-6.2
2013	13	QB	Cam Newton	3.74	22.5	29.32	0.79	9.81	15.83	21.26	27.83	39.4	1.44
2013	14	QB	Cam Newton	3.81	22.92	15.2	0.21	9.99	16.12	21.66	28.34	40.13	-6.4
2013	15	QB	Cam Newton	3.78	22.74	16.12	0.26	9.91	16	21.49	28.13	39.82	7.54
2013	16	QB	Cam Newton	3.61	21.73	10.84	0.08	9.48	15.29	20.54	26.88	38.06	5.61
2013	1	QB	Carson Palmer	2.35	14.15	18.08	0.78	6.17	9.95	13.37	17.5	24.78	0
2013	2	QB	Carson Palmer	2.82	16.94	12.72	0.3	7.39	11.92	16.01	20.95	29.67	-1.14
2013	3	QB	Carson Palmer	2.56	15.39	5.48	0.02	6.71	10.83	14.55	19.04	26.95	2.67
2013	4	QB	Carson Palmer	2.00	12.01	12.52	0.59	5.24	8.45	11.35	14.86	21.04	6.53
2013	5	QB	Carson Palmer	2.24	13.49	7.7	0.13	5.88	9.49	12.75	16.69	23.63	0.97
2013	6	QB	Carson Palmer	1.88	11.32	17.92	0.91	4.93	7.96	10.7	14	19.82	3.62
2013	7	QB	Carson Palmer	2.36	14.17	12.82	0.46	6.18	9.97	13.39	17.53	24.82	-3.75
2013	8	QB	Carson Palmer	2.44	14.64	14.78	0.56	6.38	10.3	13.84	18.11	25.65	1.82
2013	10	QB	Carson Palmer	2.46	14.78	14.44	0.53	6.45	10.4	13.97	18.29	25.89	0
2013	11	QB	Carson Palmer	2.44	14.65	24.46	0.93	6.39	10.31	13.85	18.12	25.66	0.21
2013	12	QB	Carson Palmer	2.98	17.92	20.56	0.68	7.81	12.61	16.94	22.17	31.39	-6.54
2013	13	QB	Carson Palmer	2.97	17.85	19.98	0.66	7.78	12.55	16.87	22.07	31.25	-2.71
2013	14	QB	Carson Palmer	3.13	18.84	14.66	0.33	8.21	13.25	17.8	23.3	32.99	-1.14
2013	15	QB	Carson Palmer	2.99	18	13.14	0.28	7.85	12.66	17.01	22.27	31.53	3.34
2013	16	QB	Carson Palmer	2.84	17.1	6.82	0.04	7.46	12.03	16.16	21.15	29.95	3.96
2013	7	QB	Case Keenum	3.19	19.17	13.84	0.27	8.36	13.49	18.12	23.72	33.58	0
2013	9	QB	Case Keenum	3.11	18.73	28.6	0.89	8.16	13.18	17.7	23.16	32.8	4.89
2013	10	QB	Case Keenum	3.55	21.35	19.34	0.46	9.31	15.02	20.18	26.41	37.4	-7.25
2013	11	QB	Case Keenum	3.77	22.64	9.8	0.05	9.87	15.93	21.4	28.01	39.65	3.3
2013	12	QB	Case Keenum	3.17	19.06	5.96	0.01	8.31	13.41	18.02	23.58	33.39	9.26
2013	13	QB	Case Keenum	2.57	15.46	16.48	0.62	6.74	10.88	14.62	19.13	27.08	9.5
2013	14	QB	Case Keenum	2.54	15.28	10.66	0.24	6.66	10.75	14.44	18.9	26.76	-1.2
2013	15	QB	Case Keenum	2.45	14.71	4.92	0.02	6.41	10.35	13.9	18.2	25.76	4.05
2013	1	QB	Chad Henne	3.35	20.12	1.44	0	8.77	14.16	19.02	24.89	35.24	0
2013	2	QB	Chad Henne	1.82	10.95	14.54	0.81	4.77	7.7	10.35	13.54	19.17	9.51
2013	3	QB	Chad Henne	2.08	12.49	7.9	0.18	5.45	8.79	11.81	15.45	21.88	-2.05
2013	5	QB	Chad Henne	1.98	11.92	7.76	0.2	5.2	8.39	11.27	14.75	20.88	4.02
2013	6	QB	Chad Henne	1.90	11.43	9.82	0.41	4.98	8.04	10.8	14.13	20.01	3.67
2013	7	QB	Chad Henne	2.05	12.35	12.22	0.54	5.38	8.69	11.67	15.28	21.63	2.53
2013	8	QB	Chad Henne	2.02	12.16	13.22	0.63	5.3	8.56	11.5	15.04	21.3	-0.06
2013	10	QB	Chad Henne	1.99	11.96	5.1	0.05	5.21	8.41	11.3	14.79	20.94	-1.26
2013	11	QB	Chad Henne	1.90	11.4	12.2	0.62	4.97	8.02	10.78	14.11	19.97	6.3
2013	12	QB	Chad Henne	1.86	11.17	9.86	0.44	4.87	7.86	10.55	13.81	19.56	-1.03
2013	13	QB	Chad Henne	1.88	11.32	7	0.17	4.93	7.96	10.7	14	19.82	1.46
2013	14	QB	Chad Henne	1.91	11.49	15.98	0.84	5.01	8.08	10.86	14.21	20.12	4.49
2013	15	QB	Chad Henne	2.05	12.34	17.68	0.86	5.38	8.68	11.66	15.26	21.6	-3.64
2013	16	QB	Chad Henne	2.21	13.26	16.58	0.76	5.78	9.33	12.54	16.41	23.23	-4.42
2013	15	QB	Chase Daniel	3.20	19.22	1.14	0	8.38	13.53	18.17	23.78	33.67	0
2013	1	QB	Christian Ponder	3.23	19.44	9.64	0.08	8.47	13.67	18.37	24.04	34.04	0
2013	2	QB	Christian Ponder	2.67	16.03	13.88	0.42	6.99	11.28	15.15	19.83	28.08	6.39
2013	3	QB	Christian Ponder	2.84	17.07	22.72	0.81	7.44	12.01	16.13	21.11	29.89	3.19
2013	8	QB	Christian Ponder	3.18	19.12	15.6	0.37	8.34	13.45	18.07	23.65	33.48	-3.6
2013	9	QB	Christian Ponder	3.03	18.21	19.34	0.61	7.94	12.81	17.21	22.52	31.89	2.61
2013	10	QB	Christian Ponder	3.25	19.55	15.26	0.33	8.52	13.76	18.48	24.18	34.24	0.21
2013	11	QB	Christian Ponder	2.92	17.54	5.16	0.01	7.65	12.34	16.58	21.7	30.72	2.28
2013	12	QB	Christian Ponder	2.39	14.4	12.82	0.44	6.28	10.13	13.61	17.81	25.22	9.24
2013	13	QB	Christian Ponder	2.52	15.16	1.6	0	6.61	10.67	14.33	18.76	26.56	2.34
2013	1	QB	Colin Kaepernick	2.99	17.97	30.68	0.94	7.84	12.64	16.99	22.23	31.48	0
2013	2	QB	Colin Kaepernick	3.55	21.36	8.78	0.04	9.31	15.03	20.19	26.43	37.42	-9.32
2013	3	QB	Colin Kaepernick	2.98	17.94	5	0.01	7.82	12.62	16.95	22.19	31.41	9.16
2013	4	QB	Colin Kaepernick	2.23	13.42	13.78	0.58	5.85	9.44	12.68	16.6	23.5	8.42
2013	5	QB	Colin Kaepernick	2.44	14.7	9.92	0.22	6.41	10.34	13.89	18.18	25.74	0.92
2013	6	QB	Colin Kaepernick	2.35	14.13	16.88	0.72	6.16	9.94	13.36	17.48	24.75	4.21
2013	7	QB	Colin Kaepernick	2.36	14.22	20.76	0.87	6.2	10	13.44	17.59	24.9	-2.66
2013	8	QB	Colin Kaepernick	2.79	16.8	27.96	0.93	7.32	11.82	15.88	20.78	29.42	-3.96
2013	10	QB	Colin Kaepernick	3.32	19.94	4.24	0	8.69	14.03	18.84	24.66	34.92	-8.02
2013	11	QB	Colin Kaepernick	2.58	15.53	14.58	0.49	6.77	10.92	14.68	19.21	27.19	11.29
2013	12	QB	Colin Kaepernick	2.69	16.14	23.4	0.86	7.04	11.36	15.26	19.97	28.27	1.56
2013	13	QB	Colin Kaepernick	3.10	18.64	17.1	0.47	8.13	13.11	17.62	23.05	32.64	-4.76
2013	14	QB	Colin Kaepernick	3.00	18.06	13.1	0.27	7.87	12.7	17.07	22.34	31.62	0.96
2013	15	QB	Colin Kaepernick	2.98	17.93	20.02	0.66	7.82	12.61	16.94	22.17	31.39	4.83
2013	16	QB	Colin Kaepernick	3.20	19.26	22.98	0.72	8.4	13.55	18.2	23.82	33.73	-0.76
2013	15	QB	Curtis Painter	3.26	19.58	1.2	0	8.54	13.78	18.51	24.22	34.3	0
2013	11	QB	Dominique Davis	3.29	19.81	3.36	0	8.63	13.93	18.72	24.5	34.69	0
2013	1	QB	Drew Brees	3.50	21.02	21.48	0.58	9.17	14.79	19.87	26	36.82	0
2013	2	QB	Drew Brees	3.59	21.58	14.88	0.24	9.41	15.18	20.39	26.69	37.79	0.1
2013	3	QB	Drew Brees	3.38	20.31	31.86	0.91	8.85	14.29	19.19	25.12	35.56	5.43
2013	4	QB	Drew Brees	4.04	24.3	32.72	0.82	10.59	17.09	22.96	30.05	42.55	-7.56
2013	5	QB	Drew Brees	4.39	26.38	19.52	0.29	11.5	18.56	24.93	32.63	46.2	-6.34
2013	6	QB	Drew Brees	4.07	24.49	17.54	0.26	10.68	17.23	23.14	30.29	42.89	4.97
2013	8	QB	Drew Brees	4.08	24.55	33.18	0.82	10.7	17.27	23.21	30.37	43	7.01
2013	9	QB	Drew Brees	4.40	26.48	21.18	0.35	11.54	18.63	25.03	32.75	46.37	-6.7
2013	10	QB	Drew Brees	4.40	26.49	31.68	0.72	11.55	18.63	25.03	32.76	46.38	5.31
2013	11	QB	Drew Brees	4.62	27.79	15.1	0.11	12.12	19.55	26.27	34.38	48.67	-3.89
2013	12	QB	Drew Brees	4.08	24.55	18.52	0.3	10.7	17.27	23.2	30.37	42.99	9.45
2013	13	QB	Drew Brees	3.82	23	7.78	0.02	10.03	16.18	21.73	28.44	40.27	4.48
2013	14	QB	Drew Brees	3.36	20.23	28.82	0.85	8.82	14.23	19.12	25.02	35.42	12.45
2013	15	QB	Drew Brees	3.63	21.81	22.52	0.58	9.51	15.35	20.62	26.98	38.2	-7.01
2013	16	QB	Drew Brees	3.73	22.41	14.14	0.18	9.77	15.77	21.18	27.72	39.25	-0.11
2013	1	QB	Eli Manning	2.50	15.02	31.8	0.99	6.55	10.56	14.19	18.57	26.3	0
2013	2	QB	Eli Manning	3.52	21.19	14.48	0.23	9.24	14.9	20.02	26.2	37.1	-10.61
2013	3	QB	Eli Manning	3.14	18.88	5.16	0.01	8.23	13.29	17.85	23.36	33.07	4.4
2013	4	QB	Eli Manning	2.31	13.87	8.88	0.19	6.05	9.76	13.11	17.15	24.29	8.71
2013	5	QB	Eli Manning	2.38	14.34	18.36	0.78	6.25	10.09	13.55	17.74	25.11	5.46
2013	6	QB	Eli Manning	2.43	14.6	10.56	0.27	6.36	10.27	13.8	18.05	25.56	-3.76
2013	7	QB	Eli Manning	2.53	15.21	12.5	0.37	6.63	10.7	14.38	18.82	26.64	4.65
2013	8	QB	Eli Manning	2.34	14.04	9.74	0.24	6.12	9.88	13.27	17.37	24.59	1.54
2013	10	QB	Eli Manning	2.39	14.4	8.3	0.14	6.28	10.13	13.61	17.81	25.22	4.66
2013	11	QB	Eli Manning	2.20	13.24	14.46	0.64	5.77	9.32	12.51	16.38	23.19	4.94
2013	12	QB	Eli Manning	2.35	14.11	14.96	0.61	6.15	9.93	13.34	17.46	24.72	-0.35
2013	13	QB	Eli Manning	2.33	14.02	12.4	0.44	6.11	9.86	13.25	17.34	24.55	-0.94
2013	14	QB	Eli Manning	2.20	13.25	12.36	0.49	5.78	9.32	12.53	16.39	23.21	0.85
2013	15	QB	Eli Manning	2.36	14.17	1.24	0	6.18	9.97	13.4	17.53	24.82	1.81
2013	16	QB	Eli Manning	1.85	11.14	13.04	0.7	4.86	7.84	10.53	13.78	19.51	9.9
2013	1	QB	Geno Smith	3.41	20.5	15.94	0.33	8.94	14.42	19.37	25.35	35.89	0
2013	2	QB	Geno Smith	3.04	18.31	7.26	0.03	7.98	12.88	17.3	22.65	32.06	2.37
2013	3	QB	Geno Smith	2.57	15.48	26.64	0.94	6.75	10.89	14.63	19.15	27.11	8.22
2013	4	QB	Geno Smith	3.02	18.17	10.26	0.13	7.92	12.79	17.18	22.48	31.83	-8.47
2013	5	QB	Geno Smith	2.71	16.27	22.06	0.82	7.09	11.44	15.37	20.12	28.49	6.01
2013	6	QB	Geno Smith	3.06	18.43	6.84	0.03	8.03	12.96	17.42	22.79	32.27	-3.63
2013	7	QB	Geno Smith	2.58	15.5	21.52	0.84	6.76	10.9	14.65	19.17	27.14	8.66
2013	8	QB	Geno Smith	2.79	16.78	5.16	0.01	7.31	11.8	15.86	20.75	29.38	-4.74
2013	9	QB	Geno Smith	2.36	14.2	12.4	0.43	6.19	9.99	13.42	17.56	24.86	9.04
2013	12	QB	Geno Smith	2.26	13.62	3.98	0.01	5.94	9.58	12.87	16.84	23.85	1.22
2013	14	QB	Geno Smith	2.09	12.54	22.76	0.96	5.47	8.82	11.85	15.51	21.96	8.56
2013	15	QB	Geno Smith	2.23	13.43	14.08	0.6	5.85	9.45	12.69	16.61	23.51	-9.33
2013	16	QB	Geno Smith	2.46	14.82	27.36	0.96	6.46	10.42	14	18.33	25.95	0.74
2013	1	QB	Jake Locker	3.13	18.83	5.3	0.01	8.21	13.25	17.79	23.29	32.97	0
2013	2	QB	Jake Locker	2.29	13.8	14.92	0.63	6.02	9.71	13.04	17.07	24.16	8.5
2013	3	QB	Jake Locker	2.65	15.92	28.76	0.96	6.94	11.2	15.05	19.7	27.89	1
2013	4	QB	Jake Locker	3.28	19.7	19.66	0.55	8.59	13.86	18.62	24.36	34.5	-9.06
2013	7	QB	Jake Locker	3.33	20.04	22.94	0.68	8.74	14.1	18.94	24.79	35.1	0.38
2013	9	QB	Jake Locker	3.45	20.74	12.4	0.15	9.04	14.59	19.61	25.66	36.33	-2.2
2013	8	QB	Jason Campbell	3.19	19.17	21.42	0.66	8.36	13.49	18.12	23.71	33.57	0
2013	9	QB	Jason Campbell	3.59	21.56	24.48	0.67	9.4	15.17	20.38	26.67	37.76	0.14
2013	11	QB	Jason Campbell	3.70	22.26	10.92	0.08	9.7	15.66	21.04	27.53	38.98	-2.22
2013	14	QB	Jason Campbell	3.19	19.16	30.34	0.91	8.35	13.48	18.1	23.69	33.55	8.24
2013	15	QB	Jason Campbell	3.92	23.54	14.62	0.17	10.26	16.56	22.25	29.12	41.23	-6.8
2013	16	QB	Jason Campbell	3.42	20.55	8.22	0.04	8.96	14.45	19.42	25.41	35.98	5.93
2013	1	QB	Jay Cutler	2.45	14.71	18.28	0.75	6.41	10.35	13.9	18.19	25.76	0
2013	2	QB	Jay Cutler	2.86	17.17	20.5	0.72	7.49	12.08	16.23	21.24	30.07	-1.11
2013	3	QB	Jay Cutler	2.90	17.42	11.46	0.21	7.6	12.26	16.47	21.55	30.52	-3.08
2013	4	QB	Jay Cutler	2.73	16.4	20.58	0.76	7.15	11.54	15.5	20.29	28.73	4.94
2013	5	QB	Jay Cutler	3.11	18.72	23.02	0.75	8.16	13.17	17.69	23.15	32.78	-1.86
2013	6	QB	Jay Cutler	3.56	21.38	20.48	0.51	9.32	15.04	20.21	26.45	37.45	-1.64
2013	10	QB	Jay Cutler	3.58	21.5	13	0.16	9.38	15.13	20.32	26.6	37.66	1.02
2013	15	QB	Jay Cutler	3.08	18.55	21.7	0.7	8.09	13.05	17.53	22.94	32.49	5.55
2013	16	QB	Jay Cutler	3.35	20.15	15.38	0.31	8.79	14.18	19.05	24.93	35.29	-1.55
2013	5	QB	Jeff Tuel	3.17	19.07	2.2	0	8.31	13.42	18.03	23.59	33.4	0
2013	9	QB	Jeff Tuel	2.00	12.05	12.86	0.62	5.25	8.48	11.39	14.91	21.11	9.85
2013	1	QB	Joe Flacco	2.30	13.85	20.48	0.88	6.04	9.75	13.09	17.14	24.26	0
2013	2	QB	Joe Flacco	2.96	17.79	13.04	0.28	7.76	12.52	16.82	22.01	31.16	-2.69
2013	3	QB	Joe Flacco	2.79	16.79	6.84	0.04	7.32	11.81	15.87	20.77	29.41	3.75
2013	4	QB	Joe Flacco	2.16	12.97	16.88	0.79	5.66	9.13	12.26	16.05	22.72	6.13
2013	5	QB	Joe Flacco	2.49	14.99	11.06	0.28	6.53	10.54	14.17	18.54	26.25	-1.89
2013	6	QB	Joe Flacco	2.55	15.34	20.28	0.8	6.69	10.79	14.5	18.97	26.87	4.28
2013	7	QB	Joe Flacco	2.58	15.5	14	0.46	6.76	10.91	14.65	19.18	27.15	-4.78
2013	9	QB	Joe Flacco	2.63	15.81	21.5	0.82	6.89	11.13	14.95	19.56	27.7	1.81
2013	10	QB	Joe Flacco	3.08	18.53	10	0.11	8.08	13.04	17.51	22.92	32.45	-2.97
2013	11	QB	Joe Flacco	2.68	16.12	10.48	0.2	7.03	11.34	15.24	19.94	28.24	6.12
2013	12	QB	Joe Flacco	2.70	16.21	13.92	0.41	7.07	11.4	15.32	20.05	28.39	5.73
2013	13	QB	Joe Flacco	2.67	16.04	14.74	0.47	6.99	11.29	15.16	19.84	28.09	2.12
2013	14	QB	Joe Flacco	2.77	16.68	23	0.83	7.27	11.73	15.77	20.63	29.21	1.94
2013	15	QB	Joe Flacco	2.84	17.05	10.18	0.15	7.43	11.99	16.11	21.09	29.86	-5.95
2013	16	QB	Joe Flacco	2.84	17.07	14.4	0.39	7.44	12.01	16.14	21.12	29.9	6.89
2013	1	QB	Josh Freeman	2.30	13.83	11.4	0.37	6.03	9.73	13.07	17.11	24.22	0
2013	2	QB	Josh Freeman	2.48	14.88	7.6	0.09	6.49	10.47	14.07	18.41	26.07	3.48
2013	3	QB	Josh Freeman	1.95	11.72	8.84	0.3	5.11	8.25	11.08	14.5	20.53	4.12
2013	7	QB	Josh Freeman	2.01	12.11	6.6	0.11	5.28	8.52	11.44	14.98	21.21	3.27
2013	8	QB	Josh Johnson	3.33	20.03	1.7	0	8.73	14.09	18.93	24.78	35.09	0
2013	7	QB	Josh McCown	3.25	19.54	15.46	0.34	8.52	13.75	18.47	24.17	34.22	0
2013	9	QB	Josh McCown	3.13	18.8	20.88	0.65	8.2	13.23	17.77	23.26	32.93	3.34
2013	10	QB	Josh McCown	3.57	21.45	6.48	0.01	9.35	15.09	20.27	26.53	37.56	0.57
2013	11	QB	Josh McCown	2.74	16.46	12.54	0.31	7.18	11.58	15.56	20.36	28.83	9.98
2013	12	QB	Josh McCown	2.47	14.85	19.48	0.8	6.47	10.44	14.03	18.36	26	2.31
2013	13	QB	Josh McCown	2.88	17.32	22.2	0.78	7.55	12.19	16.37	21.43	30.34	-2.16
2013	8	QB	Kellen Clemens	3.30	19.81	5.42	0.01	8.64	13.94	18.73	24.51	34.7	0
2013	9	QB	Kellen Clemens	2.36	14.21	12	0.4	6.2	10	13.43	17.58	24.89	8.79
2013	10	QB	Kellen Clemens	2.28	13.7	16.08	0.7	5.97	9.64	12.95	16.95	24	1.7
2013	12	QB	Kellen Clemens	2.60	15.64	12.38	0.34	6.82	11	14.78	19.34	27.39	-0.44
2013	13	QB	Kellen Clemens	2.38	14.29	13.82	0.52	6.23	10.05	13.51	17.68	25.03	1.91
2013	14	QB	Kellen Clemens	2.49	14.95	6.24	0.04	6.52	10.52	14.13	18.49	26.18	1.13
2013	15	QB	Kellen Clemens	2.23	13.4	14.82	0.65	5.84	9.43	12.66	16.57	23.46	7.16
2013	16	QB	Kellen Clemens	2.48	14.94	4.32	0.01	6.51	10.51	14.12	18.48	26.16	0.12
2013	14	QB	Kirk Cousins	3.21	19.31	2.36	0	8.42	13.59	18.25	23.89	33.82	0
2013	15	QB	Kirk Cousins	1.88	11.3	23.24	0.98	4.93	7.95	10.68	13.98	19.79	8.94
2013	16	QB	Kirk Cousins	2.77	16.64	11.88	0.26	7.25	11.71	15.73	20.58	29.14	-6.6
2013	7	QB	Matt Barkley	3.42	20.55	2.16	0	8.96	14.46	19.43	25.42	36	0
2013	8	QB	Matt Barkley	2.13	12.79	3.32	0.01	5.58	9	12.09	15.82	22.4	10.63
2013	4	QB	Matt Cassel	3.22	19.38	18.42	0.51	8.45	13.63	18.32	23.97	33.94	0
2013	6	QB	Matt Cassel	3.32	19.95	12.34	0.17	8.7	14.03	18.85	24.67	34.93	1.53
2013	10	QB	Matt Cassel	2.98	17.94	1.78	0	7.82	12.62	16.95	22.19	31.41	5.6
2013	11	QB	Matt Cassel	1.79	10.75	6.12	0.13	4.69	7.56	10.16	13.3	18.83	8.97
2013	13	QB	Matt Cassel	1.79	10.75	12.72	0.71	4.69	7.57	10.16	13.3	18.83	4.63
2013	14	QB	Matt Cassel	1.83	11	19.2	0.95	4.79	7.74	10.39	13.6	19.26	-1.72
2013	15	QB	Matt Cassel	2.38	14.29	30.18	0.99	6.23	10.05	13.5	17.67	25.02	-4.91
2013	16	QB	Matt Cassel	2.85	17.13	5.16	0.01	7.47	12.05	16.19	21.19	30.01	-13.05
2013	4	QB	Matt Flynn	3.42	20.56	10.48	0.09	8.96	14.46	19.43	25.43	36	0
2013	12	QB	Matt Flynn	2.89	17.37	15.12	0.42	7.57	12.22	16.42	21.49	30.43	6.89
2013	14	QB	Matt Flynn	2.64	15.9	14.12	0.44	6.93	11.18	15.02	19.66	27.84	0.78
2013	15	QB	Matt Flynn	2.74	16.5	26.66	0.92	7.19	11.61	15.6	20.41	28.9	2.38
2013	16	QB	Matt Flynn	3.43	20.62	11.08	0.11	8.99	14.51	19.49	25.51	36.11	-6.04
2013	4	QB	Matt Hasselbeck	3.21	19.3	1.48	0	8.41	13.58	18.24	23.87	33.8	0
2013	10	QB	Matt Hasselbeck	1.83	11.01	1.62	0	4.8	7.75	10.41	13.62	19.28	9.53
2013	1	QB	Matt Ryan	2.98	17.92	20.36	0.68	7.81	12.61	16.94	22.17	31.39	0
2013	2	QB	Matt Ryan	3.41	20.48	22.96	0.66	8.93	14.41	19.35	25.33	35.86	0.12
2013	3	QB	Matt Ryan	3.50	21.05	16.24	0.32	9.18	14.81	19.9	26.04	36.87	-1.91
2013	4	QB	Matt Ryan	3.48	20.9	23.84	0.68	9.11	14.7	19.75	25.85	36.6	4.66
2013	5	QB	Matt Ryan	3.78	22.75	18.76	0.37	9.92	16.01	21.51	28.15	39.85	-1.09
2013	7	QB	Matt Ryan	3.72	22.37	21.72	0.53	9.75	15.74	21.14	27.67	39.18	3.61
2013	8	QB	Matt Ryan	3.65	21.96	13.34	0.16	9.57	15.45	20.75	27.16	38.46	0.24
2013	9	QB	Matt Ryan	3.26	19.61	9.96	0.09	8.55	13.8	18.54	24.26	34.35	6.27
2013	10	QB	Matt Ryan	3.02	18.14	12.38	0.23	7.91	12.76	17.15	22.44	31.77	8.18
2013	11	QB	Matt Ryan	2.84	17.05	16.16	0.5	7.43	11.99	16.11	21.09	29.86	4.67
2013	12	QB	Matt Ryan	2.91	17.5	12.68	0.27	7.63	12.31	16.54	21.65	30.65	1.34
2013	13	QB	Matt Ryan	2.65	15.93	16.14	0.57	6.95	11.21	15.06	19.71	27.91	3.25
2013	14	QB	Matt Ryan	2.69	16.2	13.24	0.37	7.06	11.4	15.31	20.04	28.37	0.06
2013	15	QB	Matt Ryan	2.84	17.08	9.3	0.11	7.45	12.02	16.14	21.13	29.91	3.84
2013	16	QB	Matt Ryan	2.49	14.96	19.92	0.81	6.52	10.52	14.14	18.5	26.2	5.66
2013	1	QB	Matt Schaub	2.37	14.26	24.84	0.95	6.22	10.03	13.48	17.64	24.97	0
2013	2	QB	Matt Schaub	3.17	19.06	21.92	0.69	8.31	13.41	18.02	23.58	33.38	-5.78
2013	3	QB	Matt Schaub	3.35	20.16	6.76	0.02	8.79	14.19	19.06	24.94	35.31	-1.76
2013	4	QB	Matt Schaub	2.68	16.12	20.7	0.78	7.03	11.34	15.23	19.94	28.23	9.36
2013	5	QB	Matt Schaub	2.87	17.23	3.92	0	7.51	12.12	16.29	21.32	30.18	-3.47
2013	6	QB	Matt Schaub	2.31	13.91	7.44	0.11	6.06	9.79	13.15	17.21	24.36	9.99
2013	11	QB	Matt Schaub	2.11	12.69	6.2	0.08	5.53	8.93	11.99	15.69	22.22	5.25
2013	14	QB	Matt Schaub	1.74	10.45	11.62	0.66	4.56	7.35	9.88	12.93	18.3	4.25
2013	16	QB	Matt Schaub	2.06	12.4	9.54	0.32	5.41	8.73	11.72	15.34	21.72	0.78
2013	8	QB	Matt Simms	3.19	19.18	4.18	0	8.36	13.49	18.13	23.72	33.59	0
2013	11	QB	Matt Simms	2.15	12.93	6.4	0.08	5.64	9.1	12.22	16	22.65	8.75
2013	1	QB	Matthew Stafford	2.99	17.96	21.48	0.72	7.83	12.63	16.97	22.21	31.45	0
2013	2	QB	Matthew Stafford	3.08	18.53	17.22	0.48	8.08	13.04	17.51	22.92	32.45	-2.95
2013	3	QB	Matthew Stafford	3.22	19.39	22.6	0.7	8.45	13.64	18.32	23.98	33.95	2.17
2013	4	QB	Matthew Stafford	3.61	21.71	17.48	0.35	9.47	15.28	20.52	26.86	38.03	-0.89
2013	5	QB	Matthew Stafford	3.47	20.88	14.38	0.24	9.1	14.69	19.73	25.83	36.57	3.4
2013	6	QB	Matthew Stafford	3.12	18.77	25.52	0.82	8.18	13.21	17.74	23.22	32.87	4.39
2013	7	QB	Matthew Stafford	3.68	22.12	26.28	0.72	9.64	15.56	20.9	27.36	38.73	-3.4
2013	8	QB	Matthew Stafford	4.02	24.17	28.72	0.72	10.54	17	22.84	29.89	42.32	-2.11
2013	10	QB	Matthew Stafford	4.15	24.94	19.66	0.34	10.87	17.55	23.57	30.85	43.68	-3.78
2013	11	QB	Matthew Stafford	4.06	24.43	23.88	0.53	10.65	17.19	23.09	30.22	42.79	4.77
2013	12	QB	Matthew Stafford	4.30	25.86	20.48	0.34	11.27	18.19	24.44	31.99	45.29	1.98
2013	13	QB	Matthew Stafford	4.12	24.78	22	0.44	10.8	17.43	23.42	30.65	43.4	4.3
2013	14	QB	Matthew Stafford	3.97	23.87	5.82	0	10.41	16.8	22.56	29.53	41.81	1.87
2013	15	QB	Matthew Stafford	3.38	20.3	11.3	0.12	8.85	14.28	19.19	25.11	35.56	14.48
2013	16	QB	Matthew Stafford	3.14	18.87	8.78	0.06	8.23	13.27	17.83	23.34	33.04	7.57
2013	1	QB	Michael Vick	2.44	14.67	25.72	0.95	6.39	10.32	13.86	18.14	25.69	0
2013	2	QB	Michael Vick	3.32	19.98	33.42	0.93	8.71	14.06	18.89	24.72	34.99	-5.74
2013	3	QB	Michael Vick	4.00	24.05	17.54	0.28	10.49	16.92	22.73	29.75	42.12	-9.37
2013	4	QB	Michael Vick	3.62	21.77	14.02	0.19	9.49	15.31	20.57	26.92	38.12	4.23
2013	5	QB	Michael Vick	3.40	20.45	12.1	0.15	8.92	14.39	19.33	25.29	35.81	6.43
2013	4	QB	Mike Glennon	3.38	20.33	7.62	0.03	8.86	14.3	19.22	25.15	35.6	0
2013	6	QB	Mike Glennon	2.69	16.2	19.92	0.75	7.06	11.39	15.31	20.03	28.37	8.58
2013	7	QB	Mike Glennon	2.86	17.17	17.54	0.57	7.49	12.08	16.23	21.24	30.08	-2.75
2013	8	QB	Mike Glennon	3.03	18.2	15.2	0.39	7.93	12.8	17.2	22.51	31.87	0.66
2013	9	QB	Mike Glennon	2.86	17.2	16.02	0.49	7.5	12.1	16.26	21.28	30.13	2
2013	10	QB	Mike Glennon	3.06	18.42	8.26	0.06	8.03	12.96	17.41	22.78	32.25	2.4
2013	11	QB	Mike Glennon	2.67	16.07	17.64	0.64	7.01	11.31	15.19	19.88	28.14	7.81
2013	12	QB	Mike Glennon	2.74	16.5	16.18	0.54	7.19	11.61	15.59	20.41	28.89	-1.14
2013	13	QB	Mike Glennon	2.70	16.26	4.5	0.01	7.09	11.44	15.37	20.11	28.47	0.08
2013	14	QB	Mike Glennon	2.27	13.65	9.6	0.25	5.95	9.6	12.9	16.88	23.91	9.15
2013	15	QB	Mike Glennon	2.26	13.62	14.16	0.59	5.94	9.58	12.87	16.84	23.85	4.02
2013	16	QB	Mike Glennon	2.25	13.56	4.62	0.02	5.91	9.54	12.81	16.77	23.74	-0.6
2013	4	QB	Nick Foles	3.16	19.02	5.96	0.01	8.29	13.38	17.98	23.53	33.31	0
2013	5	QB	Nick Foles	2.41	14.48	15.98	0.65	6.31	10.19	13.69	17.91	25.36	8.52
2013	6	QB	Nick Foles	2.55	15.32	30.04	0.98	6.68	10.78	14.48	18.94	26.82	-0.66
2013	7	QB	Nick Foles	3.55	21.35	5.7	0.01	9.31	15.02	20.18	26.41	37.39	-8.69
2013	9	QB	Nick Foles	2.55	15.34	45.64	1	6.69	10.79	14.49	18.97	26.86	9.64
2013	10	QB	Nick Foles	3.76	22.6	22.92	0.57	9.85	15.9	21.36	27.96	39.58	-23.04
2013	11	QB	Nick Foles	4.06	24.42	22.62	0.48	10.65	17.18	23.08	30.21	42.77	1.5
2013	13	QB	Nick Foles	4.07	24.45	23.68	0.52	10.66	17.2	23.11	30.25	42.82	1.83
2013	14	QB	Nick Foles	4.15	24.94	20.46	0.37	10.87	17.55	23.57	30.85	43.68	1.26
2013	15	QB	Nick Foles	3.98	23.9	34.22	0.86	10.42	16.82	22.59	29.57	41.86	3.44
2013	16	QB	Nick Foles	4.49	27.02	18.9	0.25	11.78	19.01	25.54	33.42	47.32	-7.2
2013	1	QB	Peyton Manning	3.32	19.99	46.28	0.99	8.71	14.06	18.89	24.72	35	0
2013	2	QB	Peyton Manning	4.62	27.78	19.98	0.27	12.11	19.54	26.25	34.36	48.65	-18.5
2013	3	QB	Peyton Manning	4.38	26.32	24.76	0.5	11.47	18.52	24.87	32.55	46.09	6.34
2013	4	QB	Peyton Manning	4.50	27.05	29.08	0.62	11.79	19.03	25.57	33.46	47.38	2.29
2013	5	QB	Peyton Manning	4.62	27.76	36.76	0.8	12.1	19.53	26.24	34.34	48.62	-1.32
2013	6	QB	Peyton Manning	5.30	31.89	14.1	0.05	13.9	22.43	30.14	39.44	55.84	-4.87
2013	7	QB	Peyton Manning	4.26	25.61	26.34	0.58	11.16	18.02	24.2	31.67	44.85	11.51
2013	8	QB	Peyton Manning	4.63	27.86	24.86	0.45	12.15	19.6	26.33	34.46	48.79	1.52
2013	10	QB	Peyton Manning	4.42	26.57	27.1	0.57	11.58	18.69	25.11	32.86	46.53	1.71
2013	11	QB	Peyton Manning	4.69	28.18	14.92	0.1	12.28	19.82	26.63	34.85	49.34	1.08
2013	12	QB	Peyton Manning	4.13	24.85	13	0.1	10.83	17.48	23.49	30.74	43.52	9.93
2013	13	QB	Peyton Manning	3.69	22.19	33.82	0.89	9.67	15.61	20.97	27.44	38.85	9.19
2013	14	QB	Peyton Manning	4.15	24.94	31.78	0.77	10.87	17.54	23.57	30.84	43.67	-8.88
2013	15	QB	Peyton Manning	4.63	27.81	18.56	0.22	12.13	19.57	26.29	34.4	48.71	-3.97
2013	16	QB	Peyton Manning	4.20	25.27	32	0.77	11.02	17.78	23.89	31.26	44.26	6.71
2013	1	QB	Philip Rivers	2.48	14.94	24.6	0.93	6.51	10.51	14.12	18.48	26.16	0
2013	2	QB	Philip Rivers	2.95	17.75	29.86	0.94	7.74	12.49	16.78	21.96	31.09	-6.85
2013	3	QB	Philip Rivers	3.68	22.14	10.46	0.07	9.65	15.58	20.93	27.39	38.78	-7.72
2013	4	QB	Philip Rivers	3.28	19.72	27.04	0.83	8.6	13.87	18.64	24.39	34.54	9.26
2013	5	QB	Philip Rivers	3.54	21.3	21.44	0.56	9.29	14.98	20.13	26.34	37.3	-5.74
2013	6	QB	Philip Rivers	3.75	22.57	13.38	0.15	9.84	15.88	21.33	27.92	39.53	1.13
2013	7	QB	Philip Rivers	3.36	20.18	15.8	0.33	8.8	14.19	19.07	24.96	35.33	6.8
2013	9	QB	Philip Rivers	3.21	19.32	21.04	0.64	8.42	13.59	18.26	23.9	33.84	3.52
2013	10	QB	Philip Rivers	3.59	21.58	13.42	0.17	9.41	15.18	20.4	26.7	37.8	0.54
2013	11	QB	Philip Rivers	3.13	18.79	15.52	0.38	8.19	13.22	17.76	23.25	32.91	5.37
2013	12	QB	Philip Rivers	3.10	18.63	27.78	0.88	8.12	13.11	17.61	23.05	32.63	3.11
2013	13	QB	Philip Rivers	3.62	21.76	13.48	0.17	9.49	15.31	20.56	26.91	38.1	-6.02
2013	14	QB	Philip Rivers	3.20	19.22	19.96	0.59	8.38	13.52	18.17	23.77	33.66	5.74
2013	15	QB	Philip Rivers	3.44	20.68	15.54	0.3	9.02	14.55	19.55	25.58	36.22	0.72
2013	16	QB	Philip Rivers	3.49	20.98	8.74	0.04	9.15	14.76	19.83	25.95	36.74	5.44
2013	1	QB	Robert Griffin III	2.94	17.67	21.56	0.74	7.7	12.43	16.7	21.86	30.95	0
2013	2	QB	Robert Griffin III	3.14	18.87	23.9	0.77	8.23	13.28	17.84	23.35	33.06	-2.69
2013	3	QB	Robert Griffin III	3.63	21.8	13.74	0.18	9.51	15.34	20.61	26.97	38.18	-2.1
2013	4	QB	Robert Griffin III	3.24	19.51	14.08	0.27	8.5	13.72	18.44	24.13	34.16	5.77
2013	6	QB	Robert Griffin III	3.15	18.91	14.54	0.32	8.25	13.31	17.88	23.4	33.13	4.83
2013	7	QB	Robert Griffin III	3.09	18.58	27.32	0.87	8.1	13.07	17.56	22.98	32.54	4.04
2013	8	QB	Robert Griffin III	3.50	21.02	5.98	0.01	9.16	14.79	19.86	26	36.81	-6.3
2013	9	QB	Robert Griffin III	2.86	17.22	12.34	0.26	7.51	12.11	16.27	21.29	30.15	11.24
2013	10	QB	Robert Griffin III	2.62	15.77	27.64	0.95	6.88	11.09	14.9	19.51	27.62	3.43
2013	11	QB	Robert Griffin III	3.07	18.44	23.96	0.79	8.04	12.98	17.43	22.81	32.3	-9.2
2013	12	QB	Robert Griffin III	3.46	20.83	6.28	0.01	9.08	14.66	19.69	25.77	36.49	-3.13
2013	13	QB	Robert Griffin III	2.88	17.34	21.08	0.74	7.56	12.2	16.39	21.45	30.37	11.06
2013	14	QB	Robert Griffin III	3.01	18.07	12.46	0.24	7.88	12.71	17.08	22.35	31.64	-3.01
2013	1	QB	Russell Wilson	2.67	16.07	15.5	0.52	7	11.3	15.19	19.87	28.14	0
2013	2	QB	Russell Wilson	2.97	17.83	11.98	0.22	7.77	12.55	16.85	22.06	31.23	2.33
2013	3	QB	Russell Wilson	2.69	16.19	22.48	0.84	7.06	11.39	15.3	20.03	28.35	4.21
2013	4	QB	Russell Wilson	2.94	17.7	11.62	0.21	7.71	12.45	16.73	21.89	30.99	-4.78
2013	5	QB	Russell Wilson	2.66	16.02	25.6	0.92	6.98	11.27	15.14	19.82	28.06	4.4
2013	6	QB	Russell Wilson	3.33	20.04	16.38	0.37	8.74	14.1	18.94	24.79	35.09	-5.56
2013	7	QB	Russell Wilson	3.17	19.05	20.3	0.62	8.3	13.4	18	23.56	33.36	2.67
2013	8	QB	Russell Wilson	3.31	19.9	15.16	0.31	8.68	14	18.81	24.61	34.85	-0.4
2013	9	QB	Russell Wilson	3.40	20.44	24.28	0.72	8.91	14.38	19.32	25.28	35.8	5.28
2013	10	QB	Russell Wilson	3.48	20.95	21.48	0.58	9.14	14.74	19.8	25.92	36.7	-3.33
2013	11	QB	Russell Wilson	3.79	22.78	18.6	0.37	9.93	16.02	21.53	28.17	39.89	1.3
2013	13	QB	Russell Wilson	3.62	21.75	29.1	0.81	9.48	15.3	20.55	26.9	38.08	3.15
2013	14	QB	Russell Wilson	3.87	23.24	11.16	0.07	10.13	16.35	21.97	28.75	40.7	-5.86
2013	15	QB	Russell Wilson	3.40	20.44	16.24	0.34	8.91	14.38	19.32	25.28	35.8	9.28
2013	16	QB	Russell Wilson	3.60	21.67	10.52	0.08	9.45	15.25	20.48	26.8	37.95	5.43
2013	4	QB	Ryan Fitzpatrick	3.34	20.06	8.12	0.04	8.75	14.12	18.96	24.82	35.14	0
2013	5	QB	Ryan Fitzpatrick	2.62	15.75	23.88	0.89	6.87	11.08	14.89	19.48	27.58	7.63
2013	6	QB	Ryan Fitzpatrick	2.98	17.91	8.14	0.06	7.81	12.6	16.93	22.15	31.37	-5.97
2013	10	QB	Ryan Fitzpatrick	2.68	16.12	23.86	0.88	7.03	11.34	15.24	19.94	28.23	7.98
2013	11	QB	Ryan Fitzpatrick	3.15	18.94	15.48	0.37	8.26	13.33	17.9	23.43	33.17	-4.92
2013	12	QB	Ryan Fitzpatrick	2.90	17.43	23.4	0.81	7.6	12.26	16.47	21.56	30.52	1.95
2013	13	QB	Ryan Fitzpatrick	3.32	19.95	18.44	0.48	8.7	14.04	18.86	24.68	34.94	-3.45
2013	14	QB	Ryan Fitzpatrick	3.31	19.9	10.28	0.09	8.68	14	18.81	24.62	34.85	1.46
2013	15	QB	Ryan Fitzpatrick	3.18	19.09	32.28	0.94	8.32	13.43	18.05	23.62	33.44	8.81
2013	16	QB	Ryan Fitzpatrick	3.48	20.91	10.34	0.08	9.12	14.71	19.76	25.86	36.62	-11.37
2013	1	QB	Ryan Tannehill	2.36	14.17	14.18	0.55	6.18	9.97	13.4	17.53	24.82	0
2013	2	QB	Ryan Tannehill	2.46	14.78	14.86	0.56	6.44	10.4	13.97	18.28	25.88	0.6
2013	3	QB	Ryan Tannehill	2.74	16.5	15.14	0.47	7.19	11.61	15.6	20.41	28.9	1.64
2013	4	QB	Ryan Tannehill	2.62	15.73	13.76	0.43	6.86	11.07	14.87	19.46	27.56	0.59
2013	5	QB	Ryan Tannehill	2.77	16.68	16.88	0.57	7.27	11.73	15.76	20.63	29.21	2.92
2013	7	QB	Ryan Tannehill	2.93	17.6	16.26	0.48	7.68	12.39	16.64	21.78	30.83	0.72
2013	8	QB	Ryan Tannehill	2.77	16.68	12.88	0.32	7.27	11.73	15.76	20.63	29.21	0.42
2013	9	QB	Ryan Tannehill	2.80	16.86	14.42	0.41	7.35	11.86	15.93	20.85	29.53	3.98
2013	10	QB	Ryan Tannehill	2.73	16.41	16.36	0.55	7.16	11.55	15.51	20.3	28.75	1.99
2013	11	QB	Ryan Tannehill	2.88	17.29	15.82	0.47	7.54	12.16	16.34	21.39	30.28	0.93
2013	12	QB	Ryan Tannehill	2.82	16.93	19	0.66	7.38	11.91	16.01	20.95	29.66	1.11
2013	13	QB	Ryan Tannehill	2.90	17.41	22.44	0.78	7.59	12.25	16.45	21.53	30.49	-1.59
2013	14	QB	Ryan Tannehill	3.18	19.1	19	0.55	8.33	13.44	18.06	23.63	33.46	-3.34
2013	15	QB	Ryan Tannehill	3.41	20.5	24.38	0.72	8.94	14.42	19.37	25.35	35.9	1.5
2013	16	QB	Ryan Tannehill	3.32	19.98	3.28	0	8.71	14.06	18.88	24.71	34.99	-4.4
2013	1	QB	Sam Bradford	2.42	14.54	21.06	0.86	6.34	10.23	13.74	17.99	25.47	0
2013	2	QB	Sam Bradford	2.81	16.91	27.58	0.92	7.37	11.9	15.98	20.92	29.61	-4.15
2013	3	QB	Sam Bradford	3.53	21.24	13.6	0.19	9.26	14.94	20.07	26.27	37.19	-6.34
2013	4	QB	Sam Bradford	3.34	20.07	8.68	0.05	8.75	14.12	18.97	24.83	35.15	6.47
2013	5	QB	Sam Bradford	2.82	16.96	21.28	0.76	7.39	11.93	16.03	20.98	29.7	8.28
2013	6	QB	Sam Bradford	2.89	17.4	17.08	0.54	7.58	12.24	16.44	21.52	30.47	-3.88
2013	7	QB	Sam Bradford	2.97	17.86	13.3	0.29	7.79	12.56	16.88	22.09	31.28	0.78
2013	10	QB	Scott Tolzien	3.33	20.04	15.1	0.3	8.74	14.1	18.94	24.79	35.09	0
2013	11	QB	Scott Tolzien	2.99	17.98	11.66	0.2	7.84	12.65	17	22.25	31.5	2.88
2013	12	QB	Scott Tolzien	2.94	17.65	12.42	0.25	7.69	12.42	16.68	21.83	30.91	5.99
2013	9	QB	Seneca Wallace	3.36	20.23	3.56	0	8.82	14.23	19.12	25.02	35.42	0
2013	10	QB	Seneca Wallace	2.22	13.32	1	0	5.81	9.37	12.59	16.48	23.33	9.76
2013	6	QB	T.J. Yates	3.36	20.21	1.92	0	8.81	14.22	19.1	25	35.4	0
2013	3	QB	Tarvaris Jackson	3.31	19.89	15.36	0.32	8.67	13.99	18.8	24.6	34.83	0
2013	1	QB	Terrelle Pryor	3.15	18.95	21.88	0.69	8.26	13.33	17.91	23.44	33.19	0
2013	2	QB	Terrelle Pryor	3.58	21.55	10.04	0.06	9.39	15.16	20.37	26.65	37.74	-0.33
2013	3	QB	Terrelle Pryor	2.85	17.15	18.84	0.64	7.48	12.06	16.21	21.21	30.03	7.11
2013	5	QB	Terrelle Pryor	3.37	20.25	19.94	0.54	8.83	14.25	19.14	25.05	35.47	1.41
2013	6	QB	Terrelle Pryor	3.19	19.2	15.64	0.36	8.37	13.51	18.15	23.75	33.63	-0.74
2013	8	QB	Terrelle Pryor	3.25	19.55	18.12	0.48	8.53	13.76	18.48	24.19	34.25	3.91
2013	9	QB	Terrelle Pryor	3.35	20.12	18.92	0.5	8.77	14.15	19.01	24.88	35.23	2
2013	10	QB	Terrelle Pryor	3.22	19.34	9.78	0.09	8.43	13.61	18.28	23.92	33.87	0.42
2013	14	QB	Terrelle Pryor	2.85	17.17	1.2	0	7.48	12.08	16.22	21.23	30.06	7.39
2013	15	QB	Terrelle Pryor	2.26	13.57	1.38	0	5.92	9.55	12.82	16.78	23.76	12.37
2013	1	QB	Tom Brady	3.10	18.64	16.12	0.42	8.12	13.11	17.61	23.05	32.64	0
2013	2	QB	Tom Brady	3.21	19.31	11.2	0.14	8.42	13.58	18.25	23.88	33.81	3.19
2013	3	QB	Tom Brady	2.89	17.36	16.3	0.49	7.57	12.21	16.41	21.48	30.41	6.16
2013	4	QB	Tom Brady	2.80	16.85	20.44	0.73	7.35	11.85	15.93	20.84	29.51	0.55
2013	5	QB	Tom Brady	3.08	18.5	6.88	0.03	8.07	13.02	17.49	22.89	32.41	-1.94
2013	6	QB	Tom Brady	2.60	15.63	15.36	0.54	6.81	10.99	14.77	19.33	27.37	8.75
2013	7	QB	Tom Brady	2.58	15.52	8.12	0.1	6.76	10.92	14.66	19.19	27.17	0.16
2013	8	QB	Tom Brady	2.48	14.93	8.14	0.11	6.51	10.5	14.11	18.46	26.14	6.81
2013	9	QB	Tom Brady	2.21	13.28	33.18	1	5.79	9.34	12.55	16.43	23.26	5.14
2013	11	QB	Tom Brady	2.70	16.25	15.14	0.49	7.08	11.43	15.36	20.1	28.45	-16.93
2013	12	QB	Tom Brady	2.92	17.57	23.76	0.82	7.66	12.36	16.61	21.73	30.77	2.43
2013	13	QB	Tom Brady	3.07	18.43	21.84	0.71	8.04	12.97	17.42	22.8	32.28	-5.33
2013	14	QB	Tom Brady	3.35	20.14	23.82	0.71	8.78	14.17	19.04	24.92	35.28	-1.7
2013	15	QB	Tom Brady	3.34	20.08	21.56	0.62	8.75	14.13	18.98	24.83	35.16	-3.74
2013	16	QB	Tom Brady	3.48	20.92	10.88	0.1	9.12	14.72	19.77	25.87	36.63	-0.64
2013	1	QB	Tony Romo	2.84	17.05	17.42	0.57	7.43	12	16.12	21.09	29.87	0
2013	2	QB	Tony Romo	2.75	16.53	14.22	0.41	7.21	11.63	15.62	20.44	28.94	-0.89
2013	3	QB	Tony Romo	2.96	17.79	20.4	0.68	7.75	12.51	16.81	22	31.15	3.57
2013	4	QB	Tony Romo	3.13	18.81	19.26	0.58	8.2	13.23	17.77	23.26	32.94	-1.59
2013	5	QB	Tony Romo	3.32	19.95	41.94	0.99	8.7	14.04	18.86	24.68	34.94	0.69
2013	6	QB	Tony Romo	4.34	26.12	9.8	0.03	11.39	18.38	24.69	32.31	45.74	-15.82
2013	7	QB	Tony Romo	3.49	21	14.88	0.26	9.15	14.77	19.84	25.97	36.77	11.2
2013	8	QB	Tony Romo	3.29	19.78	20.84	0.6	8.63	13.92	18.7	24.47	34.65	4.9
2013	9	QB	Tony Romo	3.59	21.61	21.28	0.54	9.42	15.2	20.43	26.73	37.85	0.77
2013	10	QB	Tony Romo	3.45	20.76	9.12	0.05	9.05	14.61	19.63	25.68	36.37	-0.52
2013	12	QB	Tony Romo	2.93	17.65	17.1	0.52	7.69	12.41	16.68	21.83	30.9	8.53
2013	13	QB	Tony Romo	3.26	19.61	12.9	0.21	8.55	13.8	18.54	24.26	34.35	2.51
2013	15	QB	Tony Romo	3.08	18.51	20.32	0.64	8.07	13.02	17.49	22.89	32.41	5.61
2013	16	QB	Tony Romo	3.02	18.16	15.94	0.43	7.92	12.78	17.17	22.46	31.81	-2.16
2013	10	QB	Tyrod Taylor	3.32	19.95	1.8	0	8.7	14.04	18.86	24.68	34.94	0
2013	12	QB	Tyrod Taylor	2.05	12.32	2.3	0	5.37	8.67	11.64	15.24	21.58	10.52
2013	16	QB	Tyrod Taylor	1.55	9.33	2.98	0.01	4.07	6.56	8.82	11.54	16.34	7.03
